{
 "А11": "а. я.",
 "А12": "ааш",
 "А13": "абд",
 "А14": "абз",
 "А15": "абор",
 "А16": "абру",
 "А17": "абы",
 "А18": "авду",
 "А19": "авет",
 "А20": "аво",
 "А21": "авру",
 "А22": "аву",
 "А23": "аге",
 "А24": "агон",
 "А25": "агрип",
 "А26": "агт",
 "А27": "агф",
 "А28": "адд",
 "А29": "адз",
 "А30": "адк",
 "А31": "адор",
 "А32": "ады",
 "А33": "аеш",
 "А34": "ажю",
 "А35": "азу",
 "А36": "аит",
 "А37": "аиш",
 "А38": "акер",
 "А39": "акл",
 "А40": "акрос",
 "А41": "аксач",
 "А42": "аксю",
 "А43": "актю",
 "А44": "акш",
 "А45": "алек",
 "А46": "алексап",
 "А47": "алексен",
 "А48": "алеф",
 "А49": "алз",
 "А50": "алло",
 "А51": "алс",
 "А52": "алу",
 "А53": "алфу",
 "А54": "алцы",
 "А55": "алыш",
 "А56": "альк",
 "А57": "альс",
 "А58": "альтш",
 "А59": "алю",
 "А60": "аляш",
 "А61": "амет",
 "А62": "амур",
 "А63": "амю",
 "А64": "анго",
 "А65": "андри",
 "А66": "анз",
 "А67": "анку",
 "А68": "аннуш",
 "А69": "анп",
 "А70": "анриш",
 "А71": "ансу",
 "А72": "анту",
 "А73": "анху",
 "А74": "аня",
 "А75": "аох",
 "А76": "апп",
 "А77": "апто",
 "А78": "апь",
 "А79": "ард",
 "А80": "арз",
 "А81": "ария",
 "А82": "арлю",
 "А83": "армя",
 "А84": "арр",
 "А85": "арсу",
 "А86": "арф",
 "А87": "архо",
 "А88": "арч",
 "А89": "аря",
 "А90": "асс",
 "А91": "асх",
 "А92": "ату",
 "А93": "ауэр",
 "А94": "афро",
 "А95": "ахш",
 "А96": "ацы",
 "А97": "ачх",
 "А98": "ащ",
 "А99": "ая",
 "Ә11": "Ә",
 "Ә12": "Әб",
 "Ә13": "Әбд",
 "Ә14": "Әбді",
 "Ә15": "Әбен",
 "Ә16": "Әбет",
 "Ә17": "Әбжа",
 "Ә18": "Әбсә",
 "Ә19": "Әбут",
 "Ә20": "Әбіл",
 "Ә21": "Әбіш",
 "Ә22": "Әде",
 "Ә23": "Әдем",
 "Ә24": "Әдет",
 "Ә25": "Әділ",
 "Ә26": "Әдіс",
 "Ә27": "Әж",
 "Ә28": "Әжі",
 "Ә29": "Әжік",
 "Ә30": "Әжім",
 "Ә31": "Әз",
 "Ә32": "Әзе",
 "Ә33": "Әзие",
 "Ә34": "Әзі",
 "Ә35": "Әзіл",
 "Ә36": "Әзір",
 "Ә37": "Әй",
 "Ә38": "Әйе",
 "Ә39": "Әйн",
 "Ә40": "Әйт",
 "Ә41": "Әйі",
 "Ә42": "Әк",
 "Ә43": "Әке",
 "Ә44": "Әки",
 "Ә45": "Әкр",
 "Ә46": "Әкі",
 "Ә47": "Әкім",
 "Ә48": "Әкір",
 "Ә49": "Әл",
 "Ә50": "Әлди",
 "Ә51": "Әле",
 "Ә52": "Әлен",
 "Ә53": "Әлжі",
 "Ә54": "Әлсе",
 "Ә55": "Әліш",
 "Ә56": "Әм",
 "Ә57": "Әми",
 "Ә58": "Әмір",
 "Ә59": "Ән",
 "Ә60": "Әнд",
 "Ә61": "Әне",
 "Ә62": "Әнуа",
 "Ә63": "Әнше",
 "Ә64": "Әні",
 "Ә65": "Әң",
 "Ә66": "Әңг",
 "Ә67": "Әп",
 "Ә68": "Әр",
 "Ә69": "Әри",
 "Ә70": "Әрп",
 "Ә71": "Әрт",
 "Ә72": "Әрі",
 "Ә73": "Әс",
 "Ә74": "Әсе",
 "Ә75": "Әси",
 "Ә76": "Әск",
 "Ә77": "Әсіп",
 "Ә78": "Әт",
 "Ә79": "Әу",
 "Ә80": "Әубә",
 "Ә81": "Әуд",
 "Ә82": "Әуезов",
 "Ә83": "Әуел",
 "Ә84": "Әуес",
 "Ә85": "Әук",
 "Ә86": "Әуке",
 "Ә87": "Әукі",
 "Ә88": "Әул",
 "Ә89": "Әус",
 "Ә90": "Әут",
 "Ә91": "Әш",
 "Ә92": "Әшен",
 "Ә93": "Әши",
 "Ә94": "Әшу",
 "Ә95": "Әшім",
 "Ә96": "Әшір",
 "Ә97": "Әю",
 "Ә98": "Әюп",
 "Ә99": "Әюш",
 "Б11": "б. я.",
 "Б12": "бабу",
 "Б13": "бавэ",
 "Б14": "багу",
 "Б15": "баевс",
 "Б16": "бажу",
 "Б17": "базы",
 "Б18": "баиш",
 "Б19": "бакш",
 "Б20": "балы",
 "Б21": "баля",
 "Б22": "бамя",
 "Б23": "бап",
 "Б24": "бари",
 "Б25": "барри",
 "Б26": "бары",
 "Б27": "басю",
 "Б28": "батю",
 "Б29": "баф",
 "Б30": "бахч",
 "Б31": "баця",
 "Б32": "бачч",
 "Б33": "баю",
 "Б34": "бд",
 "Б35": "бебу",
 "Б36": "беву",
 "Б37": "бегу",
 "Б38": "бежк",
 "Б39": "безн",
 "Б40": "безя",
 "Б41": "беит",
 "Б42": "бект",
 "Б43": "белы",
 "Б44": "белян",
 "Б45": "бемш",
 "Б46": "бенц",
 "Б47": "бепп",
 "Б48": "берк",
 "Б49": "берля",
 "Б50": "берму",
 "Б51": "берс",
 "Б52": "берш",
 "Б53": "бесц",
 "Б54": "беф",
 "Б55": "беху",
 "Б56": "бечу",
 "Б57": "бея",
 "Б58": "бзы",
 "Б59": "бии",
 "Б60": "бикф",
 "Б61": "бим",
 "Б62": "бинь",
 "Б63": "бип",
 "Б64": "бирю",
 "Б65": "бисх",
 "Б66": "биц",
 "Б67": "бия",
 "Б68": "блех",
 "Б69": "блист",
 "Б70": "блэ",
 "Б71": "бляш",
 "Б72": "бов",
 "Б73": "боги",
 "Б74": "богуш",
 "Б75": "бое",
 "Б76": "боз",
 "Б77": "боич",
 "Б78": "бокш",
 "Б79": "больш",
 "Б80": "бомш",
 "Б81": "боп",
 "Б82": "борн",
 "Б83": "борш",
 "Б84": "боря",
 "Б85": "бося",
 "Б86": "боя",
 "Б87": "бри",
 "Б88": "брош",
 "Б89": "бря",
 "Б90": "бум",
 "Б91": "буря",
 "Б92": "бусы",
 "Б93": "бутя",
 "Б94": "буя",
 "Б95": "быч",
 "Б96": "бья",
 "Б97": "бэт",
 "Б98": "бюш",
 "Б99": "бяш",
 "В11": "в ф",
 "В12": "важ",
 "В13": "вазы",
 "В14": "вакх",
 "В15": "валы",
 "В16": "вам",
 "В17": "вап",
 "В18": "варя",
 "В19": "вась",
 "В20": "вася",
 "В21": "ваф",
 "В22": "вач",
 "В23": "вб",
 "В24": "вгр",
 "В25": "вды",
 "В26": "век",
 "В27": "велу",
 "В28": "вем",
 "В29": "веня",
 "В30": "вепрь",
 "В31": "верз",
 "В32": "верку",
 "В33": "верля",
 "В34": "верму",
 "В35": "верф",
 "В36": "верч",
 "В37": "веря",
 "В38": "весь",
 "В39": "веч",
 "В40": "взя",
 "В41": "вигу",
 "В42": "вии",
 "В43": "вику",
 "В44": "вилк",
 "В45": "вилы",
 "В46": "виля",
 "В47": "вимш",
 "В48": "виннич",
 "В49": "винс",
 "В50": "вио",
 "В51": "випт",
 "В52": "вирш",
 "В53": "вися",
 "В54": "вихр",
 "В55": "виэ",
 "В56": "вку",
 "В57": "влаж",
 "В58": "влу",
 "В59": "вмя",
 "В60": "внуч",
 "В61": "вогу",
 "В62": "водя",
 "В63": "вож",
 "В64": "возь",
 "В65": "воиш",
 "В66": "воку",
 "В67": "волн",
 "В68": "волч",
 "В69": "волщ",
 "В70": "волынь",
 "В71": "вольт",
 "В72": "вом",
 "В73": "воор",
 "В74": "вопу",
 "В75": "ворош",
 "В76": "восо",
 "В77": "восстано",
 "В78": "восьмо",
 "В79": "воя",
 "В80": "впя",
 "В81": "ври",
 "В82": "врош",
 "В83": "вря",
 "В84": "всео",
 "В85": "всх",
 "В86": "всячи",
 "В87": "втя",
 "В88": "вум",
 "В89": "вут",
 "В90": "вш",
 "В91": "въя",
 "В92": "выры",
 "В93": "выт",
 "В94": "выч",
 "В95": "выя",
 "В96": "вья",
 "В97": "вэч",
 "В98": "вют",
 "В99": "вящ",
 "Г11": "г. я.",
 "Г12": "гагр",
 "Г13": "газы",
 "Г14": "гакк",
 "Г15": "галич",
 "Г16": "галч",
 "Г17": "галя",
 "Г18": "гамэ",
 "Г19": "гапо",
 "Г20": "гаро",
 "Г21": "гаря",
 "Г22": "гастр",
 "Г23": "гать",
 "Г24": "гаэ",
 "Г25": "гвя",
 "Г26": "гды",
 "Г27": "гегу",
 "Г28": "гез",
 "Г29": "геиц",
 "Г30": "гекш",
 "Г31": "гелу",
 "Г32": "геля",
 "Г33": "гемр",
 "Г34": "гень",
 "Г35": "геокч",
 "Г36": "гепф",
 "Г37": "герк",
 "Г38": "гермон",
 "Г39": "герс",
 "Г40": "герх",
 "Г41": "герч",
 "Г42": "герь",
 "Г43": "гесь",
 "Г44": "геть",
 "Г45": "гз",
 "Г46": "гик",
 "Г47": "гиля",
 "Г48": "гимш",
 "Г49": "гио",
 "Г50": "гипю",
 "Г51": "гич",
 "Г52": "глау",
 "Г53": "глеч",
 "Г54": "глоч",
 "Г55": "гм",
 "Г56": "гну",
 "Г57": "говя",
 "Г58": "гогуш",
 "Г59": "гок",
 "Г60": "голль",
 "Г61": "голт",
 "Г62": "голы",
 "Г63": "голя",
 "Г64": "гомэ",
 "Г65": "гоня",
 "Г66": "гопч",
 "Г67": "горг",
 "Г68": "горж",
 "Г69": "горны",
 "Г70": "горы",
 "Г71": "горячк",
 "Г72": "госш",
 "Г73": "готн",
 "Г74": "гоч",
 "Г75": "грал",
 "Г76": "грамс",
 "Г77": "грау",
 "Г78": "гращ",
 "Г79": "греин",
 "Г80": "грец",
 "Г81": "грж",
 "Г82": "грив",
 "Г83": "грил",
 "Г84": "гримя",
 "Г85": "гриш",
 "Г86": "грол",
 "Г87": "грор",
 "Г88": "гросф",
 "Г89": "грош",
 "Г90": "грус",
 "Г91": "грэх",
 "Г92": "гс",
 "Г93": "гук",
 "Г94": "гуп",
 "Г95": "гурья",
 "Г96": "гуся",
 "Г97": "гуш",
 "Г98": "гэт",
 "Г99": "гяу",
 "Ғ11": "Ғ",
 "Ғ12": "Ғабб",
 "Ғ13": "Ғабд",
 "Ғ14": "Ғаби",
 "Ғ15": "Ғад",
 "Ғ16": "Ғади",
 "Ғ17": "Ғаду",
 "Ғ18": "Ғады",
 "Ғ19": "Ғаж",
 "Ғ20": "Ғажы",
 "Ғ21": "Ғаз",
 "Ғ22": "Ғази",
 "Ғ23": "Ғазу",
 "Ғ24": "Ғазы",
 "Ғ25": "Ғай",
 "Ғ26": "Ғайн",
 "Ғ27": "Ғайш",
 "Ғ28": "Ғайы",
 "Ғ29": "Ғақ",
 "Ғ30": "Ғақы",
 "Ғ31": "Ғал",
 "Ғ32": "Ғали",
 "Ғ33": "Ғалм",
 "Ғ34": "Ғалт",
 "Ғ35": "Ғалу",
 "Ғ36": "Ғалұ",
 "Ғ37": "Ғалы",
 "Ғ38": "Ғалым",
 "Ғ39": "Ғам",
 "Ғ40": "Ғама",
 "Ғ41": "Ғаму",
 "Ғ42": "Ғамы",
 "Ғ43": "Ған",
 "Ғ44": "Ғанс",
 "Ғ45": "Ғант",
 "Ғ46": "Ғанш",
 "Ғ47": "Ғані",
 "Ғ48": "Ғаң",
 "Ғ49": "Ғап",
 "Ғ50": "Ғапи",
 "Ғ51": "Ғапу",
 "Ғ52": "Ғар",
 "Ғ53": "Ғари",
 "Ғ54": "Ғару",
 "Ғ55": "Ғарш",
 "Ғ56": "Ғары",
 "Ғ57": "Ғас",
 "Ғ58": "Ғаси",
 "Ғ59": "Ғасу",
 "Ғ60": "Ғасы",
 "Ғ61": "Ғат",
 "Ғ62": "Ғати",
 "Ғ63": "Ғату",
 "Ғ64": "Ғаты",
 "Ғ65": "Ғау",
 "Ғ66": "Ғаф",
 "Ғ67": "Ғаш",
 "Ғ68": "Ғаши",
 "Ғ69": "Ғи",
 "Ғ70": "Ғиза",
 "Ғ71": "Ғим",
 "Ғ72": "Ғин",
 "Ғ73": "Ғиш",
 "Ғ74": "Ғо",
 "Ғ75": "Ғоғ",
 "Ғ76": "Ғод",
 "Ғ77": "Ғоз",
 "Ғ78": "Ғой",
 "Ғ79": "Ғок",
 "Ғ80": "Ғоқ",
 "Ғ81": "Ғол",
 "Ғ82": "Ғом",
 "Ғ83": "Ғон",
 "Ғ84": "Ғоп",
 "Ғ85": "Ғор",
 "Ғ86": "Ғос",
 "Ғ87": "Ғот",
 "Ғ88": "Ғош",
 "Ғ89": "Ғу",
 "Ғ90": "Ғум",
 "Ғ91": "Ғун",
 "Ғ92": "Ғус",
 "Ғ93": "Ғуш",
 "Ғ94": "Ғұла",
 "Ғ95": "Ғы",
 "Ғ96": "Ғыл",
 "Ғ97": "Ғым",
 "Ғ98": "Ғын",
 "Ғ99": "Ғың",
 "Д11": "д. я.",
 "Д12": "дабя",
 "Д13": "давыдовс",
 "Д14": "дак",
 "Д15": "дальт",
 "Д16": "дамь",
 "Д17": "данз",
 "Д18": "данс",
 "Д19": "дап",
 "Д20": "дат",
 "Д21": "даю",
 "Д22": "дваж",
 "Д23": "двиня",
 "Д24": "двоя",
 "Д25": "девя",
 "Д26": "дез",
 "Д27": "деиш",
 "Д28": "деку",
 "Д29": "деля",
 "Д30": "демм",
 "Д31": "демы",
 "Д32": "демя",
 "Д33": "денч",
 "Д34": "деос",
 "Д35": "депу",
 "Д36": "деря",
 "Д37": "десять",
 "Д38": "деу",
 "Д39": "дея",
 "Д40": "джеф",
 "Д41": "джиф",
 "Д42": "джю",
 "Д43": "дзя",
 "Д44": "дии",
 "Д45": "дикш",
 "Д46": "дип",
 "Д47": "дирс",
 "Д48": "дисц",
 "Д49": "диу",
 "Д50": "дия",
 "Д51": "длуц",
 "Д52": "для я...",
 "Д53": "дмо",
 "Д54": "дно",
 "Д55": "добри",
 "Д56": "добру",
 "Д57": "добя",
 "Д58": "довя",
 "Д59": "догу",
 "Д60": "дое",
 "Д61": "дожу",
 "Д62": "дои",
 "Д63": "докуч",
 "Д64": "долу",
 "Д65": "доля",
 "Д66": "домр",
 "Д67": "донч",
 "Д68": "дорн",
 "Д69": "дорф",
 "Д70": "дот",
 "Д71": "доя",
 "Д72": "драч",
 "Д73": "држ",
 "Д74": "дриц",
 "Д75": "дрот",
 "Д76": "дры",
 "Д77": "дрэх",
 "Д78": "дрях",
 "Д79": "дув",
 "Д80": "дугш",
 "Д81": "дул",
 "Д82": "думы",
 "Д83": "дуп",
 "Д84": "дуф",
 "Д85": "дуч",
 "Д86": "дщ",
 "Д87": "дыл",
 "Д88": "дымя",
 "Д89": "дыня",
 "Д90": "дыт",
 "Д91": "дышл",
 "Д92": "дью",
 "Д93": "дьячковс",
 "Д94": "дэс",
 "Д95": "дюл",
 "Д96": "дюпю",
 "Д97": "дюф",
 "Д98": "дюшу",
 "Д99": "дяц",
 "Е11": "е. я.",
 "Е12": "ебы",
 "Е13": "евв",
 "Е14": "евгу",
 "Е15": "евдош",
 "Е16": "евк",
 "Е17": "евли",
 "Е18": "евлы",
 "Е19": "евмя",
 "Е20": "ево",
 "Е21": "евпы",
 "Е22": "еврец",
 "Е23": "евриш",
 "Е24": "евру",
 "Е25": "евсо",
 "Е26": "евся",
 "Е27": "евя",
 "Е28": "егз",
 "Е29": "егн",
 "Е30": "егр",
 "Е31": "егуц",
 "Е32": "едз",
 "Е33": "едм",
 "Е34": "едя",
 "Е35": "ежевы",
 "Е36": "ежегуц",
 "Е37": "ежеи",
 "Е38": "ежемч",
 "Е39": "ежеч",
 "Е40": "ежн",
 "Е41": "ежу",
 "Е42": "езн",
 "Е43": "езя",
 "Е44": "еич",
 "Е45": "екш",
 "Е46": "елавц",
 "Е47": "елам",
 "Е48": "елац",
 "Е49": "елд",
 "Е50": "елец",
 "Е51": "елк",
 "Е52": "елн",
 "Е53": "елош",
 "Е54": "елпе",
 "Е55": "елы",
 "Е56": "ельми",
 "Е57": "ельх",
 "Е58": "ельцы",
 "Е59": "еля",
 "Е60": "емш",
 "Е61": "енгу",
 "Е62": "енз",
 "Е63": "ент",
 "Е64": "еня",
 "Е65": "епаш",
 "Е66": "епеш",
 "Е67": "епк",
 "Е68": "епш",
 "Е69": "ердм",
 "Е70": "ерз",
 "Е71": "ерл",
 "Е72": "ерме",
 "Е73": "ермиш",
 "Е74": "ерму",
 "Е75": "ерны",
 "Е76": "ерон",
 "Е77": "еропь",
 "Е78": "ерт",
 "Е79": "ерч",
 "Е80": "еря",
 "Е81": "есд",
 "Е82": "есеч",
 "Е83": "еску",
 "Е84": "есля",
 "Е85": "есс",
 "Е86": "есы",
 "Е87": "еся",
 "Е88": "ету",
 "Е89": "еущ",
 "Е90": "ефет",
 "Е91": "ефо",
 "Е92": "ефру",
 "Е93": "еху",
 "Е94": "ецу",
 "Е95": "ечу",
 "Е96": "ешу",
 "Е97": "ещу",
 "Е98": "еющ",
 "Е99": "еящ",
 "Ж11": "ж. я.",
 "Ж12": "жабы",
 "Ж13": "жавя",
 "Ж14": "жагэ",
 "Ж15": "жадм",
 "Ж16": "жадны",
 "Ж17": "жадя",
 "Ж18": "жаец",
 "Ж19": "жажу",
 "Ж20": "жазя",
 "Ж21": "жаиш",
 "Ж22": "жакн",
 "Ж23": "жакэ",
 "Ж24": "жалн",
 "Ж25": "жаля",
 "Ж26": "жамч",
 "Ж27": "жанг",
 "Ж28": "жандэ",
 "Ж29": "жанеш",
 "Ж30": "жанмо",
 "Ж31": "жаны",
 "Ж32": "жао",
 "Ж33": "жапу",
 "Ж34": "жариц",
 "Ж35": "жарс",
 "Ж36": "жаря",
 "Ж37": "жасл",
 "Ж38": "жасу",
 "Ж39": "жах",
 "Ж40": "жбо",
 "Ж41": "жгуч",
 "Ж42": "жду",
 "Ж43": "жеаш",
 "Ж44": "жебы",
 "Ж45": "жевя",
 "Ж46": "жегу",
 "Ж47": "жеж",
 "Ж48": "жеи",
 "Ж49": "жеку",
 "Ж50": "желд",
 "Ж51": "желох",
 "Ж52": "желя",
 "Ж53": "жемчужны",
 "Ж54": "женп",
 "Ж55": "женч",
 "Ж56": "женяц",
 "Ж57": "жеот",
 "Ж58": "жепя",
 "Ж59": "жерло",
 "Ж60": "жернс",
 "Ж61": "жерр",
 "Ж62": "жеря",
 "Ж63": "жесс",
 "Ж64": "жеу",
 "Ж65": "жж",
 "Ж66": "живн",
 "Ж67": "живы",
 "Ж68": "жигур",
 "Ж69": "жидя",
 "Ж70": "жижу",
 "Ж71": "жик",
 "Ж72": "жио",
 "Ж73": "жис",
 "Ж74": "жиф",
 "Ж75": "жич",
 "Ж76": "жля",
 "Ж77": "жня",
 "Ж78": "жок",
 "Ж79": "жом",
 "Ж80": "жоны",
 "Ж81": "жоу",
 "Ж82": "жру",
 "Ж83": "жуз",
 "Ж84": "жуих",
 "Ж85": "жукн",
 "Ж86": "жукоя",
 "Ж87": "жуля",
 "Ж88": "жумя",
 "Ж89": "жуо",
 "Ж90": "жупш",
 "Ж91": "журм",
 "Ж92": "журя",
 "Ж93": "жуц",
 "Ж94": "жуя",
 "Ж95": "жэт",
 "Ж96": "жюк",
 "Ж97": "жюп",
 "Ж98": "жюрт",
 "Ж99": "жют",
 "З-11": "з. я.",
 "З-12": "забы",
 "З-13": "завя",
 "З-14": "загэ",
 "З-15": "зады",
 "З-16": "зазы",
 "З-17": "заич",
 "З-18": "заклю",
 "З-19": "закош",
 "З-20": "закт",
 "З-21": "закх",
 "З-22": "залд",
 "З-23": "залм",
 "З-24": "залы",
 "З-25": "заля",
 "З-26": "замя",
 "З-27": "занз",
 "З-28": "занятн",
 "З-29": "заочны",
 "З-30": "запаш",
 "З-31": "запеч",
 "З-32": "запн",
 "З-33": "запя",
 "З-34": "зарн",
 "З-35": "заря",
 "З-36": "зася",
 "З-37": "заф",
 "З-38": "зац",
 "З-39": "зашу",
 "З-40": "заяч",
 "З-41": "збы",
 "З-42": "зваш",
 "З-43": "звор",
 "З-44": "звучны",
 "З-45": "згу",
 "З-46": "здравы",
 "З-47": "зек",
 "З-48": "зелер",
 "З-49": "зело",
 "З-50": "зеля",
 "З-51": "земк",
 "З-52": "землиц",
 "З-53": "земм",
 "З-54": "земр",
 "З-55": "земя",
 "З-56": "зеп",
 "З-57": "зерм",
 "З-58": "зех",
 "З-59": "зии",
 "З-60": "зикх",
 "З-61": "зильп",
 "З-62": "зиму",
 "З-63": "зир",
 "З-64": "зиу",
 "З-65": "зифф",
 "З-66": "зк",
 "З-67": "зли",
 "З-68": "зля",
 "З-69": "змя",
 "З-70": "знаи",
 "З-71": "знал",
 "З-72": "знамя",
 "З-73": "знас",
 "З-74": "знаф",
 "З-75": "знац",
 "З-76": "зни",
 "З-77": "знощ",
 "З-78": "зок",
 "З-79": "золн",
 "З-80": "золотк",
 "З-81": "золя",
 "З-82": "зомл",
 "З-83": "зомч",
 "З-84": "зонш",
 "З-85": "зоп",
 "З-86": "зоря",
 "З-87": "зося",
 "З-88": "зоя",
 "З-89": "зреч",
 "З-90": "зс",
 "З-91": "зубы",
 "З-92": "зудр",
 "З-93": "зун",
 "З-94": "зурч",
 "З-95": "зуч",
 "З-96": "зып",
 "З-97": "зэт",
 "З-98": "зют",
 "З-99": "зят",
 "И11": "и ф...",
 "И12": "иах",
 "И13": "ибд",
 "И14": "ибор",
 "И15": "ибры",
 "И16": "ибэ",
 "И17": "ивам",
 "И18": "иванеш",
 "И19": "иванн",
 "И20": "иванов я.",
 "И21": "иваново п",
 "И22": "ивану",
 "И23": "ивач",
 "И24": "ивд",
 "И25": "ивя",
 "И26": "игор",
 "И27": "игры",
 "И28": "игуш",
 "И29": "иду",
 "И30": "иех",
 "И31": "ижу",
 "И32": "избы",
 "И33": "извл",
 "И34": "извя",
 "И35": "изгр",
 "И36": "излу",
 "И37": "изно",
 "И38": "изощ",
 "И39": "изя",
 "И40": "ииш",
 "И41": "икн",
 "И42": "икш",
 "И43": "илк",
 "И44": "илы",
 "И45": "ильз",
 "И46": "ильиш",
 "И47": "ильку",
 "И48": "илью",
 "И49": "иля",
 "И50": "имд",
 "И51": "имз",
 "И52": "имл",
 "И53": "имо",
 "И54": "имт",
 "И55": "имч",
 "И56": "имя",
 "И57": "инб",
 "И58": "инву",
 "И59": "ингуш",
 "И60": "индю",
 "И61": "инет",
 "И62": "инжу",
 "И63": "инзы",
 "И64": "иниш",
 "И65": "инкун",
 "И66": "инну",
 "И67": "инор",
 "И68": "иноя",
 "И69": "инспи",
 "И70": "инстер",
 "И71": "инсто",
 "И72": "инсц",
 "И73": "ину",
 "И74": "иня",
 "И75": "иох",
 "И76": "ипу",
 "И77": "ирач",
 "И78": "ирд",
 "И79": "ирз",
 "И80": "ириш",
 "И81": "ирли",
 "И82": "ирн",
 "И83": "ирп",
 "И84": "ирш",
 "И85": "иси",
 "И86": "искуш",
 "И87": "исо",
 "И88": "исс",
 "И89": "истоп",
 "И90": "истот",
 "И91": "исэ",
 "И92": "итн",
 "И93": "итч",
 "И94": "иф",
 "И95": "иху",
 "И96": "ич",
 "И97": "ишу",
 "И98": "иэ",
 "И99": "ия",
 "К11": "к ф...",
 "К12": "каг",
 "К13": "каж",
 "К14": "казь",
 "К15": "каиэ",
 "К16": "какуш",
 "К17": "каля",
 "К18": "камы",
 "К19": "канц",
 "К20": "капы",
 "К21": "кард",
 "К22": "карз",
 "К23": "карлс",
 "К24": "карну",
 "К25": "кароц",
 "К26": "карс",
 "К27": "каря",
 "К28": "кастр",
 "К29": "каты",
 "К30": "кач",
 "К31": "кая",
 "К32": "квя",
 "К33": "кек",
 "К34": "кельш",
 "К35": "кеп",
 "К36": "кест",
 "К37": "кз",
 "К38": "кик",
 "К39": "кильч",
 "К40": "кимш",
 "К41": "кио",
 "К42": "кипя",
 "К43": "киря",
 "К44": "кистя",
 "К45": "киф",
 "К46": "кия",
 "К47": "клд",
 "К48": "клещ",
 "К49": "клиш",
 "К50": "клоч",
 "К51": "клэ",
 "К52": "км",
 "К53": "кнэ",
 "К54": "князю",
 "К55": "кобя",
 "К56": "ковы",
 "К57": "кое",
 "К58": "кожух",
 "К59": "кокш",
 "К60": "колн",
 "К61": "колч",
 "К62": "коля",
 "К63": "кому",
 "К64": "конр",
 "К65": "копы",
 "К66": "корм",
 "К67": "корня",
 "К68": "корр",
 "К69": "коруц",
 "К70": "коря",
 "К71": "коссо",
 "К72": "косы",
 "К73": "коу",
 "К74": "кофф",
 "К75": "кочу",
 "К76": "коя",
 "К77": "крап",
 "К78": "краш",
 "К79": "крепу",
 "К80": "крещ",
 "К81": "крз",
 "К82": "криш",
 "К83": "крош",
 "К84": "крц",
 "К85": "кря",
 "К86": "кся",
 "К87": "кты",
 "К88": "кудря",
 "К89": "куку",
 "К90": "кумы",
 "К91": "куо",
 "К92": "купя",
 "К93": "курч",
 "К94": "кусы",
 "К95": "куч",
 "К96": "кх",
 "К97": "кь",
 "К98": "кэрш",
 "К99": "кя",
 "Қ11": "Қ",
 "Қ12": "Қа",
 "Қ13": "Қабы",
 "Қ14": "Қады",
 "Қ15": "Қажы",
 "Қ16": "Қаз",
 "Қ17": "Қазақ",
 "Қ18": "Қазақст",
 "Қ19": "Қазақт",
 "Қ20": "Қази",
 "Қ21": "Қазы",
 "Қ22": "Қазі",
 "Қ23": "Қайы",
 "Қ24": "Қал",
 "Қ25": "Қалд",
 "Қ26": "Қали",
 "Қ27": "Қалл",
 "Қ28": "Қалм",
 "Қ29": "Қалу",
 "Қ30": "Қалы",
 "Қ31": "Қамз",
 "Қ32": "Қамқ",
 "Қ33": "Қамы",
 "Қ34": "Қанд",
 "Қ35": "Қани",
 "Қ36": "Қант",
 "Қ37": "Қанш",
 "Қ38": "Қаны",
 "Қ39": "Қаңл",
 "Қ40": "Қапа",
 "Қ41": "Қари",
 "Қ42": "Қарс",
 "Қ43": "Қаси",
 "Қ44": "Қасқ",
 "Қ45": "Қасым",
 "Қ46": "Қат",
 "Қ47": "Қату",
 "Қ48": "Қатш",
 "Қ49": "Қаты",
 "Қ50": "Қау",
 "Қ51": "Қауп",
 "Қ52": "Қашқ",
 "Қ53": "Қира",
 "Қ54": "Қо",
 "Қ55": "Қод",
 "Қ56": "Қожа",
 "Қ57": "Қоз",
 "Қ58": "Қозы",
 "Қ59": "Қойб",
 "Қ60": "Қойш",
 "Қ61": "Қоқ",
 "Қ62": "Қол",
 "Қ63": "Қом",
 "Қ64": "Қона",
 "Қ65": "Қоңы",
 "Қ66": "Қорд",
 "Қ67": "Қосп",
 "Қ68": "Қосш",
 "Қ69": "Қош",
 "Қ70": "Қою",
 "Қ71": "Қуна",
 "Қ72": "Құ",
 "Қ73": "Құғ",
 "Қ74": "Құлм",
 "Қ75": "Құма",
 "Қ76": "Құна",
 "Қ77": "Құрм",
 "Қ78": "Құтт",
 "Қ79": "Қыды",
 "Қ80": "Қыз",
 "Қ81": "Қызы",
 "Қ82": "Қый",
 "Қ83": "Қыл",
 "Қ84": "Қым",
 "Қ85": "Қын",
 "Қ86": "Қың",
 "Қ87": "Қыра",
 "Қ88": "Қырғ",
 "Қ89": "Қыры",
 "Қ90": "Қыс",
 "Қ91": "Қыст",
 "Қ92": "Қыт",
 "Қ93": "Қытқ",
 "Қ94": "Қыту",
 "Қ95": "Қыты",
 "Қ96": "Қышқ",
 "Қ97": "Қышт",
 "Қ98": "Қыю",
 "Қ99": "Қыя",
 "Л11": "л. я.",
 "Л12": "лабэ",
 "Л13": "лавы",
 "Л14": "лагут",
 "Л15": "лае",
 "Л16": "лажю",
 "Л17": "лазя",
 "Л18": "лаиш",
 "Л19": "лакш",
 "Л20": "лаль",
 "Л21": "ламц",
 "Л22": "ланц",
 "Л23": "лаоц",
 "Л24": "лапы",
 "Л25": "ларь",
 "Л26": "ласю",
 "Л27": "латю",
 "Л28": "лауэ",
 "Л29": "лаху",
 "Л30": "лацы",
 "Л31": "лачэ",
 "Л32": "лг",
 "Л33": "лебя",
 "Л34": "левд",
 "Л35": "левес",
 "Л36": "левито",
 "Л37": "леву",
 "Л38": "легу",
 "Л39": "лее",
 "Л40": "лежэ",
 "Л41": "лезю",
 "Л42": "леиц",
 "Л43": "леля",
 "Л44": "лен",
 "Л45": "лено",
 "Л46": "леня",
 "Л47": "леоп",
 "Л48": "лепу",
 "Л49": "лерц",
 "Л50": "лесп",
 "Л51": "леся",
 "Л52": "леу",
 "Л53": "лешу",
 "Л54": "лз",
 "Л55": "лии",
 "Л56": "ликф",
 "Л57": "лиля",
 "Л58": "лимч",
 "Л59": "линь",
 "Л60": "лиот",
 "Л61": "липц",
 "Л62": "лирц",
 "Л63": "лися",
 "Л64": "лиф",
 "Л65": "лиц",
 "Л66": "личу",
 "Л67": "лн",
 "Л68": "ловя",
 "Л69": "логуц",
 "Л70": "лое",
 "Л71": "ложъ",
 "Л72": "лоиц",
 "Л73": "лоло",
 "Л74": "ломн",
 "Л75": "ломш",
 "Л76": "лоо",
 "Л77": "лопы",
 "Л78": "лорь",
 "Л79": "лось",
 "Л80": "лотч",
 "Л81": "лоя",
 "Л82": "лув",
 "Л83": "луи",
 "Л84": "лунц",
 "Л85": "лупя",
 "Л86": "луц",
 "Л87": "лх",
 "Л88": "лыч",
 "Л89": "льгот",
 "Л90": "льс",
 "Л91": "льян",
 "Л92": "лэт",
 "Л93": "люи",
 "Л94": "люп",
 "Л95": "люся",
 "Л96": "люш",
 "Л97": "ляф",
 "Л98": "ляч",
 "Л99": "лящу",
 "М11": "м. я.",
 "М12": "магу",
 "М13": "мазу",
 "М14": "маис",
 "М15": "макл",
 "М16": "макру",
 "М17": "макш",
 "М18": "малец",
 "М19": "малх",
 "М20": "малышк",
 "М21": "маля",
 "М22": "мамы",
 "М23": "мант",
 "М24": "мап",
 "М25": "марз",
 "М26": "марковс",
 "М27": "маркш",
 "М28": "марсо",
 "М29": "марц",
 "М30": "марэ",
 "М31": "масо",
 "М32": "масю",
 "М33": "матву",
 "М34": "матч",
 "М35": "маф",
 "М36": "мацу",
 "М37": "мачу",
 "М38": "маю",
 "М39": "маячк",
 "М40": "мгу",
 "М41": "мегр",
 "М42": "мее",
 "М43": "межр",
 "М44": "мезь",
 "М45": "меич",
 "М46": "мекф",
 "М47": "мело",
 "М48": "мелья",
 "М49": "мемф",
 "М50": "менш",
 "М51": "меп",
 "М52": "меры",
 "М53": "меся",
 "М54": "меф",
 "М55": "мешк",
 "М56": "мз",
 "М57": "мие",
 "М58": "мии",
 "М59": "мику",
 "М60": "миля",
 "М61": "минк",
 "М62": "мип",
 "М63": "мирн",
 "М64": "миря",
 "М65": "мисю",
 "М66": "мито",
 "М67": "миу",
 "М68": "мифы",
 "М69": "михн",
 "М70": "мичу",
 "М71": "мия",
 "М72": "млы",
 "М73": "мня",
 "М74": "мок",
 "М75": "молоч",
 "М76": "мому",
 "М77": "моо",
 "М78": "мопы",
 "М79": "морн",
 "М80": "моря",
 "М81": "мосиц",
 "М82": "моср",
 "М83": "моссу",
 "М84": "мося",
 "М85": "моф",
 "М86": "мочу",
 "М87": "моя",
 "М88": "мры",
 "М89": "муи",
 "М90": "муп",
 "М91": "муф",
 "М92": "мучн",
 "М93": "мш",
 "М94": "мыр",
 "М95": "мыч",
 "М96": "мышц",
 "М97": "мэт",
 "М98": "мют",
 "М99": "мяч",
 "Н11": "н. я.",
 "Н12": "на я...",
 "Н13": "набл",
 "Н14": "набу",
 "Н15": "навя",
 "Н16": "нагу",
 "Н17": "нае",
 "Н18": "нажу",
 "Н19": "назр",
 "Н20": "наиш",
 "Н21": "накло",
 "Н22": "накы",
 "Н23": "наля",
 "Н24": "намя",
 "Н25": "наня",
 "Н26": "наох",
 "Н27": "напы",
 "Н28": "нариц",
 "Н29": "нарн",
 "Н30": "наря",
 "Н31": "насс",
 "Н32": "насы",
 "Н33": "натя",
 "Н34": "нах",
 "Н35": "нацу",
 "Н36": "начу",
 "Н37": "нг",
 "Н38": "не я...",
 "Н39": "небы",
 "Н40": "невя",
 "Н41": "негу",
 "Н42": "нее",
 "Н43": "нежо",
 "Н44": "незу",
 "Н45": "неил",
 "Н46": "неиш",
 "Н47": "некот",
 "Н48": "неку",
 "Н49": "неля",
 "Н50": "немы",
 "Н51": "неню",
 "Н52": "неоф",
 "Н53": "непу",
 "Н54": "неря",
 "Н55": "нессл",
 "Н56": "несч",
 "Н57": "неуч",
 "Н58": "нец",
 "Н59": "нея",
 "Н60": "нижня",
 "Н61": "нии",
 "Н62": "никк",
 "Н63": "николу",
 "Н64": "никт",
 "Н65": "никш",
 "Н66": "нильсо",
 "Н67": "нип",
 "Н68": "нирч",
 "Н69": "них",
 "Н70": "ничь",
 "Н71": "ния",
 "Н72": "новер",
 "Н73": "новм",
 "Н74": "новоп",
 "Н75": "новоря",
 "Н76": "ное",
 "Н77": "ножь",
 "Н78": "нои",
 "Н79": "ноку",
 "Н80": "ноля",
 "Н81": "ноп",
 "Н82": "норл",
 "Н83": "норы",
 "Н84": "нося",
 "Н85": "ноц",
 "Н86": "нр",
 "Н87": "нуе",
 "Н88": "нуль",
 "Н89": "нуп",
 "Н90": "нуц",
 "Н91": "нье",
 "Н92": "ньюио",
 "Н93": "ньюст",
 "Н94": "нья",
 "Н95": "нэт",
 "Н96": "нюл",
 "Н97": "нюрц",
 "Н98": "нюя",
 "Н99": "няш",
 "О-11": "о ф...",
 "О-12": "об у...",
 "О-13": "обж",
 "О-14": "обзы",
 "О-15": "обку",
 "О-16": "облач",
 "О-17": "облич",
 "О-18": "обля",
 "О-19": "обмя",
 "О-20": "обня",
 "О-21": "обон",
 "О-22": "обоч",
 "О-23": "обращ",
 "О-24": "обря",
 "О-25": "обтя",
 "О-26": "обч",
 "О-27": "обшу",
 "О-28": "общн",
 "О-29": "объят",
 "О-30": "обя",
 "О-31": "овл",
 "О-32": "овп",
 "О-33": "овря",
 "О-34": "овц",
 "О-35": "овэ",
 "О-36": "огин",
 "О-37": "огм",
 "О-38": "огня",
 "О-39": "огурц",
 "О-40": "одд",
 "О-41": "одея",
 "О-42": "одм",
 "О-43": "одноэ",
 "О-44": "ое",
 "О-45": "ожь",
 "О-46": "озет",
 "О-47": "озу",
 "О-48": "оия",
 "О-49": "окв",
 "О-50": "окн",
 "О-51": "окры",
 "О-52": "окш",
 "О-53": "олещ",
 "О-54": "олл",
 "О-55": "олы",
 "О-56": "оля",
 "О-57": "ому",
 "О-58": "онн",
 "О-59": "оо",
 "О-60": "операц",
 "О-61": "опоя",
 "О-62": "опы",
 "О-63": "орв",
 "О-64": "оргэ",
 "О-65": "орк",
 "О-66": "орля",
 "О-67": "ормя",
 "О-68": "орну",
 "О-69": "орр",
 "О-70": "орч",
 "О-71": "оря",
 "О-72": "осеч",
 "О-73": "осио",
 "О-74": "осм",
 "О-75": "оссо",
 "О-76": "остр",
 "О-77": "островц",
 "О-78": "острот",
 "О-79": "ося",
 "О-80": "отго",
 "О-81": "отды",
 "О-82": "оти",
 "О-83": "отмы",
 "О-84": "отня",
 "О-85": "отощ",
 "О-86": "отсю",
 "О-87": "отц",
 "О-88": "отщ",
 "О-89": "отя",
 "О-90": "оуэ",
 "О-91": "оффи",
 "О-92": "оху",
 "О-93": "оця",
 "О-94": "очач",
 "О-95": "очу",
 "О-96": "ошу",
 "О-97": "оэ",
 "О-98": "оюш",
 "О-99": "ояш",
 "Ө11": "Ө",
 "Ө12": "Өб",
 "Ө13": "Өв",
 "Ө14": "Өг",
 "Ө15": "Өге",
 "Ө16": "Өги",
 "Ө17": "Өгі",
 "Ө18": "Өд",
 "Ө19": "Өде",
 "Ө20": "Өди",
 "Ө21": "Өді",
 "Ө22": "Өж",
 "Ө23": "Өже",
 "Ө24": "Өз",
 "Ө25": "Өзбе",
 "Ө26": "Өзг",
 "Ө27": "Өзе",
 "Ө28": "Өзи",
 "Ө29": "Өзі",
 "Ө30": "Өй",
 "Ө31": "Өк",
 "Ө32": "Өкее",
 "Ө33": "Өкп",
 "Ө34": "Өкі",
 "Ө35": "Өл",
 "Ө36": "Өле",
 "Ө37": "Өлк",
 "Ө38": "Өлт",
 "Ө39": "Өлш",
 "Ө40": "Өлі",
 "Ө41": "Өм",
 "Ө42": "Өме",
 "Ө43": "Өмі",
 "Ө44": "Өмір",
 "Ө45": "Өн",
 "Ө46": "Өнд",
 "Ө47": "Өне",
 "Ө48": "Өнер",
 "Ө49": "Өні",
 "Ө50": "Өнім",
 "Ө51": "Өң",
 "Ө52": "Өңд",
 "Ө53": "Өңе",
 "Ө54": "Өңі",
 "Ө55": "Өп",
 "Ө56": "Өр",
 "Ө57": "Өре",
 "Ө58": "Өри",
 "Ө59": "Өрк",
 "Ө60": "Өрл",
 "Ө61": "Өрм",
 "Ө62": "Өрн",
 "Ө63": "Өрс",
 "Ө64": "Өрт",
 "Ө65": "Өрш",
 "Ө66": "Өрі",
 "Ө67": "Өріс",
 "Ө68": "Өс",
 "Ө69": "Өсер",
 "Ө70": "Өси",
 "Ө71": "Өск",
 "Ө72": "Өсте",
 "Ө73": "Өсі",
 "Ө74": "Өт",
 "Ө75": "Өте",
 "Ө76": "Өтег",
 "Ө77": "Өтеғ",
 "Ө78": "Өтед",
 "Ө79": "Өтеж",
 "Ө80": "Өтек",
 "Ө81": "Өтел",
 "Ө82": "Өтем",
 "Ө83": "Өтен",
 "Ө84": "Өтеп",
 "Ө85": "Өтер",
 "Ө86": "Өтес",
 "Ө87": "Өтет",
 "Ө88": "Өтеш",
 "Ө89": "Өти",
 "Ө90": "Өтк",
 "Ө91": "Өтм",
 "Ө92": "Өту",
 "Ө93": "Өті",
 "Ө94": "Өш",
 "Ө95": "Өше",
 "Ө96": "Өши",
 "Ө97": "Өшп",
 "Ө98": "Өшт",
 "Ө99": "Өші",
 "П11": "п. я",
 "П12": "паи",
 "П13": "пакэ",
 "П14": "паля",
 "П15": "памятн",
 "П16": "пао",
 "П17": "папу",
 "П18": "парф",
 "П19": "пась",
 "П20": "пату",
 "П21": "пач",
 "П22": "пая",
 "П23": "пегу",
 "П24": "пем",
 "П25": "пеп",
 "П26": "перд",
 "П27": "перц",
 "П28": "песч",
 "П29": "пето",
 "П30": "петровц",
 "П31": "пещ",
 "П32": "пип",
 "П33": "пиря",
 "П34": "писч",
 "П35": "пиц",
 "П36": "пия",
 "П37": "плач",
 "П38": "плис",
 "П39": "плош",
 "П40": "пни",
 "П41": "побу",
 "П42": "повы",
 "П43": "погу",
 "П44": "подш",
 "П45": "пое",
 "П46": "пожу",
 "П47": "пои",
 "П48": "покш",
 "П49": "полз",
 "П50": "полищ",
 "П51": "полны",
 "П52": "полто",
 "П53": "полю",
 "П54": "поляч",
 "П55": "помя",
 "П56": "поо",
 "П57": "попн",
 "П58": "попы",
 "П59": "порс",
 "П60": "поря",
 "П61": "посл",
 "П62": "посс",
 "П63": "посты",
 "П64": "поц",
 "П65": "почто",
 "П66": "пощу",
 "П67": "поясо",
 "П68": "праи",
 "П69": "прар",
 "П70": "праэ",
 "П71": "прен",
 "П72": "прер",
 "П73": "преч",
 "П74": "пржиц",
 "П75": "прик",
 "П76": "прип",
 "П77": "прия",
 "П78": "проду",
 "П79": "прозр",
 "П80": "прол",
 "П81": "прор",
 "П82": "просу",
 "П83": "проу",
 "П84": "проя",
 "П85": "прян",
 "П86": "псо",
 "П87": "птом",
 "П88": "пур",
 "П89": "пусь",
 "П90": "пуч",
 "П91": "пх",
 "П92": "пчи",
 "П93": "пщ",
 "П94": "пын",
 "П95": "пыш",
 "П96": "пьяч",
 "П97": "пэт",
 "П98": "пюш",
 "П99": "пять",
 "Р11": "р. я",
 "Р12": "рабн",
 "Р13": "рав",
 "Р14": "рагэ",
 "Р15": "радч",
 "Р16": "раж",
 "Р17": "разъ",
 "Р18": "раич",
 "Р19": "ракэ",
 "Р20": "раля",
 "Р21": "рамю",
 "Р22": "рао",
 "Р23": "рапу",
 "Р24": "расш",
 "Р25": "рауш",
 "Р26": "рафф",
 "Р27": "рачк",
 "Р28": "рая",
 "Р29": "рг",
 "Р30": "рдя",
 "Р31": "ребя",
 "Р32": "регу",
 "Р33": "реж",
 "Р34": "резь",
 "Р35": "реия",
 "Р36": "рель",
 "Р37": "ремз",
 "Р38": "ремю",
 "Р39": "рень",
 "Р40": "реоч",
 "Р41": "репь",
 "Р42": "рерч",
 "Р43": "ресс",
 "Р44": "реу",
 "Р45": "рец",
 "Р46": "речь",
 "Р47": "рея",
 "Р48": "рз",
 "Р49": "рии",
 "Р50": "риль",
 "Р51": "рино",
 "Р52": "риос",
 "Р53": "рипш",
 "Р54": "рису",
 "Р55": "риц",
 "Р56": "ричч",
 "Р57": "рк",
 "Р58": "ровн",
 "Р59": "рогу",
 "Р60": "родн",
 "Р61": "рое",
 "Р62": "рожиц",
 "Р63": "рожэ",
 "Р64": "розм",
 "Р65": "роит",
 "Р66": "рокш",
 "Р67": "ролу",
 "Р68": "рольц",
 "Р69": "ромб",
 "Р70": "ромэ",
 "Р71": "роня",
 "Р72": "роос",
 "Р73": "ропш",
 "Р74": "росз",
 "Р75": "роспу",
 "Р76": "россиян",
 "Р77": "россы",
 "Р78": "росу",
 "Р79": "рохм",
 "Р80": "рочу",
 "Р81": "рту",
 "Р82": "руг",
 "Р83": "руи",
 "Р84": "рукк",
 "Р85": "руль",
 "Р86": "руп",
 "Р87": "рурц",
 "Р88": "русо",
 "Р89": "русь",
 "Р90": "рутт",
 "Р91": "руц",
 "Р92": "рш",
 "Р93": "рыж",
 "Р94": "рыку",
 "Р95": "рь",
 "Р96": "рэч",
 "Р97": "рюш",
 "Р98": "ряж",
 "Р99": "ряш",
 "С11": "с ф...",
 "С12": "савен",
 "С13": "сагр",
 "С14": "саи",
 "С15": "саку",
 "С16": "саля",
 "С17": "саму",
 "С18": "сань",
 "С19": "сапф",
 "С20": "сас",
 "С21": "сафь",
 "С22": "сая",
 "С23": "сбы",
 "С24": "свищ",
 "С25": "свят",
 "С26": "сгу",
 "С27": "сды",
 "С28": "сек",
 "С29": "селя",
 "С30": "семь",
 "С31": "сеп",
 "С32": "серо",
 "С33": "сз",
 "С34": "сиз",
 "С35": "сикх",
 "С36": "сильн",
 "С37": "симф",
 "С38": "синя",
 "С39": "сипя",
 "С40": "сист",
 "С41": "сия",
 "С42": "ски",
 "С43": "скля",
 "С44": "скот",
 "С45": "скря",
 "С46": "скэ",
 "С47": "слия",
 "С48": "слос",
 "С49": "сля",
 "С50": "смит",
 "С51": "смр",
 "С52": "смя",
 "С53": "сня",
 "С54": "собот",
 "С55": "собя",
 "С56": "сог",
 "С57": "содя",
 "С58": "соик",
 "С59": "сокр",
 "С60": "соля",
 "С61": "сому",
 "С62": "соня",
 "С63": "соотч",
 "С64": "сопя",
 "С65": "сорт",
 "С66": "сосу",
 "С67": "соу",
 "С68": "сохр",
 "С69": "соэ",
 "С70": "соя",
 "С71": "спеш",
 "С72": "спл",
 "С73": "способы",
 "С74": "спя",
 "С75": "ст",
 "С76": "стап",
 "С77": "стасо",
 "С78": "ств",
 "С79": "стец",
 "С80": "стиш",
 "С81": "стоп",
 "С82": "стоя",
 "С83": "стращ",
 "С84": "стрж",
 "С85": "стриц",
 "С86": "строч",
 "С87": "стря",
 "С88": "стя",
 "С89": "суп",
 "С90": "суф",
 "С91": "сф",
 "С92": "сци",
 "С93": "сшив",
 "С94": "съя",
 "С95": "сыщ",
 "С96": "сья",
 "С97": "сэч",
 "С98": "сют",
 "С99": "сяс",
 "Т11": "т. я.",
 "Т12": "табы",
 "Т13": "таз",
 "Т14": "таиш",
 "Т15": "таку",
 "Т16": "талья",
 "Т17": "тамп",
 "Т18": "тап",
 "Т19": "тарк",
 "Т20": "тармо",
 "Т21": "тартю",
 "Т22": "тары",
 "Т23": "таф",
 "Т24": "тач",
 "Т25": "тб",
 "Т26": "тви",
 "Т27": "твоп",
 "Т28": "тву",
 "Т29": "тез",
 "Т30": "теку",
 "Т31": "теля",
 "Т32": "темя",
 "Т33": "теоф",
 "Т34": "тепч",
 "Т35": "теря",
 "Т36": "тесь",
 "Т37": "теф",
 "Т38": "тея",
 "Т39": "тии",
 "Т40": "тиль",
 "Т41": "тимч",
 "Т42": "тио",
 "Т43": "типы",
 "Т44": "тисс",
 "Т45": "тиф",
 "Т46": "тич",
 "Т47": "тищ",
 "Т48": "тку",
 "Т49": "тн",
 "Т50": "тои",
 "Т51": "току",
 "Т52": "толсто",
 "Т53": "толстонос",
 "Т54": "толщ",
 "Т55": "толя",
 "Т56": "томч",
 "Т57": "тоо",
 "Т58": "топы",
 "Т59": "торво",
 "Т60": "торн",
 "Т61": "торч",
 "Т62": "тось",
 "Т63": "тоц",
 "Т64": "тоя",
 "Т65": "трая",
 "Т66": "трж",
 "Т67": "трир",
 "Т68": "триумф",
 "Т69": "трищ",
 "Т70": "трок",
 "Т71": "троль",
 "Т72": "тромс",
 "Т73": "тронь",
 "Т74": "трор",
 "Т75": "троу",
 "Т76": "троя",
 "Т77": "труг",
 "Т78": "трус",
 "Т79": "трутя",
 "Т80": "тря",
 "Т81": "тук",
 "Т82": "туля",
 "Т83": "тумя",
 "Т84": "тунь",
 "Т85": "тупы",
 "Т86": "турвь",
 "Т87": "туристы",
 "Т88": "турц",
 "Т89": "туря",
 "Т90": "тусы",
 "Т91": "туц",
 "Т92": "тщ",
 "Т93": "тыщ",
 "Т94": "тьф",
 "Т95": "тья",
 "Т96": "тэу",
 "Т97": "тэя",
 "Т98": "тюш",
 "Т99": "тяч",
 "У11": "у я...",
 "У12": "уазо",
 "У13": "уаиэ",
 "У14": "уарф",
 "У15": "уатш",
 "У16": "уашт",
 "У17": "убы",
 "У18": "увещ",
 "У19": "увн",
 "У20": "увоч",
 "У21": "увш",
 "У22": "увь",
 "У23": "увят",
 "У24": "уги",
 "У25": "угн",
 "У26": "угощ",
 "У27": "угу",
 "У28": "удд",
 "У29": "удз",
 "У30": "удн",
 "У31": "уды",
 "У32": "уех",
 "У33": "ужу",
 "У34": "узу",
 "У35": "уикл",
 "У36": "уим",
 "У37": "уинч",
 "У38": "уис",
 "У39": "уиф",
 "У40": "уиэ",
 "У41": "указас",
 "У42": "указч",
 "У43": "укк",
 "У44": "укор",
 "У45": "украшен",
 "У46": "уку",
 "У47": "улещ",
 "У48": "улич",
 "У49": "улуш",
 "У50": "улыс",
 "У51": "уля",
 "У52": "умещ",
 "У53": "умм",
 "У54": "умня",
 "У55": "умр",
 "У56": "умш",
 "У57": "умя",
 "У58": "унз",
 "У59": "уния",
 "У60": "унст",
 "У61": "уня",
 "У62": "уокр",
 "У63": "уоп",
 "У64": "уост",
 "У65": "уош",
 "У66": "упн",
 "У67": "упс",
 "У68": "урат",
 "У69": "урм",
 "У70": "урня",
 "У71": "урр",
 "У72": "урт",
 "У73": "уря",
 "У74": "усин",
 "У75": "усмо",
 "У76": "усох",
 "У77": "успет",
 "У78": "уссу",
 "У79": "усте",
 "У80": "устны",
 "У81": "устор",
 "У82": "усты",
 "У83": "уся",
 "У84": "утм",
 "У85": "уточ",
 "У86": "уты",
 "У87": "уу",
 "У88": "уфф",
 "У89": "уц",
 "У90": "учащие",
 "У91": "учет",
 "У92": "учу",
 "У93": "ушес",
 "У94": "ушиш",
 "У95": "ушу",
 "У96": "ущу",
 "У97": "уэкф",
 "У98": "уэр",
 "У99": "уяс",
 "Ұ11": "Ұ",
 "Ұ12": "Ұб",
 "Ұ13": "Ұбы",
 "Ұ14": "Ұв",
 "Ұ15": "Ұғ",
 "Ұ16": "Ұға",
 "Ұ17": "Ұғы",
 "Ұ18": "Ұғым",
 "Ұ19": "Ұғын",
 "Ұ20": "Ұд",
 "Ұ21": "Ұды",
 "Ұ22": "Ұж",
 "Ұ23": "Ұжм",
 "Ұ24": "Ұжы",
 "Ұ25": "Ұз",
 "Ұ26": "Ұзы",
 "Ұ27": "Ұй",
 "Ұ28": "Ұйғ",
 "Ұ29": "Ұйқ",
 "Ұ30": "Ұйы",
 "Ұ31": "Ұқ",
 "Ұ32": "Ұқп",
 "Ұ33": "Ұқс",
 "Ұ34": "Ұқт",
 "Ұ35": "Ұқы",
 "Ұ36": "Ұқып",
 "Ұ37": "Ұл",
 "Ұ38": "Ұла",
 "Ұ39": "Ұлғ",
 "Ұ40": "Ұлд",
 "Ұ41": "Ұлж",
 "Ұ42": "Ұлп",
 "Ұ43": "Ұлт",
 "Ұ44": "Ұлу",
 "Ұ45": "Ұлуы",
 "Ұ46": "Ұлы",
 "Ұ47": "Ұм",
 "Ұ48": "Ұмғ",
 "Ұ49": "Ұму",
 "Ұ50": "Ұмы",
 "Ұ51": "Ұн",
 "Ұ52": "Ұна",
 "Ұ53": "Ұнбы",
 "Ұ54": "Ұнғ",
 "Ұ55": "Ұнд",
 "Ұ56": "Ұнж",
 "Ұ57": "Ұни",
 "Ұ58": "Ұнт",
 "Ұ59": "Ұны",
 "Ұ60": "Ұң",
 "Ұ61": "Ұңғ",
 "Ұ62": "Ұп",
 "Ұ63": "Ұпы",
 "Ұ64": "Ұр",
 "Ұ65": "Ұрғ",
 "Ұ66": "Ұрқ",
 "Ұ67": "Ұрл",
 "Ұ68": "Ұрм",
 "Ұ69": "Ұрн",
 "Ұ70": "Ұрп",
 "Ұ71": "Ұрс",
 "Ұ72": "Ұрт",
 "Ұ73": "Ұру",
 "Ұ74": "Ұры",
 "Ұ75": "Ұс",
 "Ұ76": "Ұсд",
 "Ұ77": "Ұси",
 "Ұ78": "Ұсқ",
 "Ұ79": "Ұсм",
 "Ұ80": "Ұсп",
 "Ұ81": "Ұст",
 "Ұ82": "Ұсы",
 "Ұ83": "Ұсын",
 "Ұ84": "Ұт",
 "Ұ85": "Ұти",
 "Ұ86": "Ұты",
 "Ұ87": "Ұх",
 "Ұ88": "Ұш",
 "Ұ89": "Ұшқ",
 "Ұ90": "Ұшқы",
 "Ұ91": "Ұшл",
 "Ұ92": "Ұшп",
 "Ұ93": "Ұшт",
 "Ұ94": "Ұшу",
 "Ұ95": "Ұшы",
 "Ұ96": "Ұшын",
 "Ұ97": "Ұшыт",
 "Ұ98": "Ұю",
 "Ұ99": "Ұя",
 "Ү11": "Ү",
 "Ү12": "Үә",
 "Ү13": "Үәл",
 "Ү14": "Үб",
 "Ү15": "Үг",
 "Ү16": "Үги",
 "Ү17": "Үгі",
 "Ү18": "Үд",
 "Ү19": "Үде",
 "Ү20": "Үдз",
 "Ү21": "Үді",
 "Ү22": "Үж",
 "Ү23": "Үз",
 "Ү24": "Үзе",
 "Ү25": "Үзж",
 "Ү26": "Үзи",
 "Ү27": "Үзі",
 "Ү28": "Үзін",
 "Ү29": "Үй",
 "Ү30": "Үйг",
 "Ү31": "Үйд",
 "Ү32": "Үйе",
 "Ү33": "Үйж",
 "Ү34": "Үйк",
 "Ү35": "Үйл",
 "Ү36": "Үйм",
 "Ү37": "Үйн",
 "Ү38": "Үйң",
 "Ү39": "Үйр",
 "Ү40": "Үйре",
 "Ү41": "Үйрт",
 "Ү42": "Үйрш",
 "Ү43": "Үйі",
 "Ү44": "Үйін",
 "Ү45": "Үк",
 "Ү46": "Үке",
 "Ү47": "Үки",
 "Ү48": "Үкі",
 "Ү49": "Үкім",
 "Ү50": "Үкімет",
 "Ү51": "Үл",
 "Ү52": "Үлг",
 "Ү53": "Үлд",
 "Ү54": "Үле",
 "Ү55": "Үли",
 "Ү56": "Үлі",
 "Ү57": "Үліг",
 "Ү58": "Үм",
 "Ү59": "Үме",
 "Ү60": "Үмі",
 "Ү61": "Үміт",
 "Ү62": "Үн",
 "Ү63": "Үнд",
 "Ү64": "Үне",
 "Ү65": "Үні",
 "Ү66": "Үң",
 "Ү67": "Үңг",
 "Ү68": "Үңд",
 "Ү69": "Үңі",
 "Ү70": "Үө",
 "Ү71": "Үп",
 "Ү72": "Үпі",
 "Ү73": "Үр",
 "Ү74": "Үрг",
 "Ү75": "Үрд",
 "Ү76": "Үре",
 "Ү77": "Үрж",
 "Ү78": "Үри",
 "Ү79": "Үрк",
 "Ү80": "Үрі",
 "Ү81": "Үріш",
 "Ү82": "Үс",
 "Ү83": "Үсе",
 "Ү84": "Үси",
 "Ү85": "Үск",
 "Ү86": "Үст",
 "Ү87": "Үсі",
 "Ү88": "Үт",
 "Ү89": "Үте",
 "Ү90": "Үти",
 "Ү91": "Үф",
 "Ү92": "Үш",
 "Ү93": "Үшә",
 "Ү94": "Үше",
 "Ү95": "Үши",
 "Ү96": "Үшк",
 "Ү97": "Үшт",
 "Ү98": "Үшу",
 "Ү99": "Үші",
 "Ф11": "ф. я.",
 "Ф12": "фабу",
 "Ф13": "фаву",
 "Ф14": "фагэ",
 "Ф15": "фаж",
 "Ф16": "фазы",
 "Ф17": "фаиф",
 "Ф18": "факу",
 "Ф19": "фальшь",
 "Ф20": "фаму",
 "Ф21": "фано",
 "Ф22": "фанф",
 "Ф23": "фаоц",
 "Ф24": "фаро",
 "Ф25": "фарш",
 "Ф26": "фасц",
 "Ф27": "фатю",
 "Ф28": "фаф",
 "Ф29": "фач",
 "Ф30": "фая",
 "Ф31": "фег",
 "Ф32": "федон",
 "Ф33": "федось",
 "Ф34": "федц",
 "Ф35": "фез",
 "Ф36": "фек",
 "Ф37": "фелец",
 "Ф38": "фель",
 "Ф39": "фельт",
 "Ф40": "феля",
 "Ф41": "фему",
 "Ф42": "феп",
 "Ф43": "ферь",
 "Ф44": "фесю",
 "Ф45": "феф",
 "Ф46": "феч",
 "Ф47": "фз",
 "Ф48": "фивы",
 "Ф49": "фигь",
 "Ф50": "фикц",
 "Ф51": "филах",
 "Ф52": "филет",
 "Ф53": "филл",
 "Ф54": "филоми",
 "Ф55": "филор",
 "Ф56": "филу",
 "Ф57": "филю",
 "Ф58": "фиму",
 "Ф59": "финкл",
 "Ф60": "финь",
 "Ф61": "фип",
 "Ф62": "фирц",
 "Ф63": "фисю",
 "Ф64": "фифф",
 "Ф65": "фиху",
 "Ф66": "фицц",
 "Ф67": "фичу",
 "Ф68": "фищ",
 "Ф69": "флакэ",
 "Ф70": "флаэ",
 "Ф71": "флеш",
 "Ф72": "флиш",
 "Ф73": "фля",
 "Ф74": "фоз",
 "Ф75": "фоль",
 "Ф76": "фомы",
 "Ф77": "фонм",
 "Ф78": "фоп",
 "Ф79": "форс",
 "Ф80": "форшт",
 "Ф81": "фош",
 "Ф82": "фрам",
 "Ф83": "франу",
 "Ф84": "фрао",
 "Ф85": "фрач",
 "Ф86": "фрем",
 "Ф87": "фреш",
 "Ф88": "фрин",
 "Ф89": "фриц",
 "Ф90": "фриэ",
 "Ф91": "фронш",
 "Ф92": "фрош",
 "Ф93": "фт",
 "Ф94": "фуо",
 "Ф95": "фуст",
 "Ф96": "фуэ",
 "Ф97": "фья",
 "Ф98": "фэт",
 "Ф99": "фя",
 "Х11": "х. я.",
 "Х12": "хавч",
 "Х13": "хагу",
 "Х14": "хадя",
 "Х15": "хаиш",
 "Х16": "хаку",
 "Х17": "халя",
 "Х18": "хамч",
 "Х19": "хап",
 "Х20": "харич",
 "Х21": "харс",
 "Х22": "хары",
 "Х23": "харя",
 "Х24": "хася",
 "Х25": "хать",
 "Х26": "хаф",
 "Х27": "хахч",
 "Х28": "хацы",
 "Х29": "хб",
 "Х30": "хви",
 "Х31": "хвон",
 "Х32": "хворь",
 "Х33": "хвоч",
 "Х34": "хвя",
 "Х35": "хек",
 "Х36": "хеля",
 "Х37": "хему",
 "Х38": "хеп",
 "Х39": "херц",
 "Х40": "хесь",
 "Х41": "хеш",
 "Х42": "хие",
 "Х43": "хии",
 "Х44": "хикт",
 "Х45": "хиля",
 "Х46": "химч",
 "Х47": "хинч",
 "Х48": "хипч",
 "Х49": "хирт",
 "Х50": "хиря",
 "Х51": "хису",
 "Х52": "хиц",
 "Х53": "хиш",
 "Х54": "хия",
 "Х55": "хлещ",
 "Х56": "хлиц",
 "Х57": "хлон",
 "Х58": "хлопя",
 "Х59": "хлоя",
 "Х60": "хлушн",
 "Х61": "хлыщ",
 "Х62": "хлющ",
 "Х63": "хляс",
 "Х64": "хмаш",
 "Х65": "хмо",
 "Х66": "хмуш",
 "Х67": "хны",
 "Х68": "хог",
 "Х69": "хож",
 "Х70": "хок",
 "Х71": "холк",
 "Х72": "холмя",
 "Х73": "холт",
 "Х74": "холщ",
 "Х75": "холя",
 "Х76": "хомя",
 "Х77": "хоня",
 "Х78": "хопы",
 "Х79": "хорн",
 "Х80": "хорок",
 "Х81": "хорох",
 "Х82": "хоры",
 "Х83": "хоря",
 "Х84": "хост",
 "Х85": "хоф",
 "Х86": "хоц",
 "Х87": "хоя",
 "Х88": "храл",
 "Х89": "храмы",
 "Х90": "храпу",
 "Х91": "хрещ",
 "Х92": "хржо",
 "Х93": "хрия",
 "Х94": "хроп",
 "Х95": "хры",
 "Х96": "хрюш",
 "Х97": "хрящ",
 "Х98": "хью",
 "Х99": "хя",
 "Ц11": "ц. я.",
 "Ц12": "цавс",
 "Ц13": "цаз",
 "Ц14": "цаль",
 "Ц15": "цаму",
 "Ц16": "цао",
 "Ц17": "цапц",
 "Ц18": "царп",
 "Ц19": "цары",
 "Ц20": "царя",
 "Ц21": "цасу",
 "Ц22": "цауц",
 "Ц23": "цахы",
 "Ц24": "цая",
 "Ц25": "цваш",
 "Ц26": "цвер",
 "Ц27": "цветы",
 "Ц28": "цвы",
 "Ц29": "цег",
 "Ц30": "цеж",
 "Ц31": "цезу",
 "Ц32": "цеих",
 "Ц33": "цеку",
 "Ц34": "целыи",
 "Ц35": "целя",
 "Ц36": "цемш",
 "Ц37": "цено",
 "Ц38": "цены",
 "Ц39": "цеох",
 "Ц40": "цепь",
 "Ц41": "церд",
 "Ц42": "церес",
 "Ц43": "церит",
 "Ц44": "церку",
 "Ц45": "церля",
 "Ц46": "церну",
 "Ц47": "церот",
 "Ц48": "церу",
 "Ц49": "цест",
 "Ц50": "цетец",
 "Ц51": "цетич",
 "Ц52": "цетку",
 "Ц53": "цеу",
 "Ц54": "цефу",
 "Ц55": "цзя",
 "Ц56": "цибу",
 "Ц57": "цивил",
 "Ц58": "ции",
 "Ц59": "цику",
 "Ц60": "циль",
 "Ц61": "цимш",
 "Ц62": "цингу",
 "Ц63": "цинж",
 "Ц64": "циничн",
 "Ц65": "цинц",
 "Ц66": "циос",
 "Ц67": "ципф",
 "Ц68": "цирис",
 "Ц69": "циркос",
 "Ц70": "цирп",
 "Ц71": "цирус",
 "Ц72": "циря",
 "Ц73": "цису",
 "Ц74": "циу",
 "Ц75": "цн",
 "Ц76": "цоку",
 "Ц77": "цоль",
 "Ц78": "цомя",
 "Ц79": "цоо",
 "Ц80": "цопч",
 "Ц81": "цош",
 "Ц82": "цт",
 "Ц83": "цуд",
 "Ц84": "цуи",
 "Ц85": "цуль",
 "Ц86": "цуп",
 "Ц87": "цурю",
 "Ц88": "цуст",
 "Ц89": "цуф",
 "Ц90": "цуч",
 "Ц91": "цч",
 "Ц92": "цшу",
 "Ц93": "цыбуш",
 "Ц94": "цым",
 "Ц95": "цынь",
 "Ц96": "цыпин",
 "Ц97": "цыц",
 "Ц98": "цюх",
 "Ц99": "цяц",
 "Ч-11": "ч. я.",
 "Ч-12": "чагу",
 "Ч-13": "чады",
 "Ч-14": "чаз",
 "Ч-15": "чаиц",
 "Ч-16": "чалы",
 "Ч-17": "чамш",
 "Ч-18": "чао",
 "Ч-19": "чапы",
 "Ч-20": "чарм",
 "Ч-21": "чарп",
 "Ч-22": "чарсу",
 "Ч-23": "чары",
 "Ч-24": "часоч",
 "Ч-25": "часы",
 "Ч-26": "чахч",
 "Ч-27": "чацу",
 "Ч-28": "чачх",
 "Ч-29": "чашу",
 "Ч-30": "чащу",
 "Ч-31": "чающ",
 "Ч-32": "чб",
 "Ч-33": "чвя",
 "Ч-34": "чег",
 "Ч-35": "чез",
 "Ч-36": "чеиф",
 "Ч-37": "чекч",
 "Ч-38": "челноч",
 "Ч-39": "челоц",
 "Ч-40": "челш",
 "Ч-41": "челя",
 "Ч-42": "чемш",
 "Ч-43": "чео",
 "Ч-44": "чепы",
 "Ч-45": "черды",
 "Ч-46": "череш",
 "Ч-47": "чериш",
 "Ч-48": "черм",
 "Ч-49": "черс",
 "Ч-50": "черя",
 "Ч-51": "чесу",
 "Ч-52": "четл",
 "Ч-53": "чету",
 "Ч-54": "чеу",
 "Ч-55": "чефу",
 "Ч-56": "чец",
 "Ч-57": "чз",
 "Ч-58": "чие",
 "Ч-59": "чии",
 "Ч-60": "чикч",
 "Ч-61": "чиля",
 "Ч-62": "чиму",
 "Ч-63": "чип",
 "Ч-64": "чирец",
 "Ч-65": "чиря",
 "Ч-66": "чиску",
 "Ч-67": "чисп",
 "Ч-68": "чистя",
 "Ч-69": "чиу",
 "Ч-70": "чифф",
 "Ч-71": "чиц",
 "Ч-72": "чиш",
 "Ч-73": "чк",
 "Ч-74": "чн",
 "Ч-75": "чоч",
 "Ч-76": "чреу",
 "Ч-77": "чтер",
 "Ч-78": "чтея",
 "Ч-79": "чтиш",
 "Ч-80": "что я...",
 "Ч-81": "чубы",
 "Ч-82": "чувя",
 "Ч-83": "чугуш",
 "Ч-84": "чудь",
 "Ч-85": "чуец",
 "Ч-86": "чуз",
 "Ч-87": "чуит",
 "Ч-88": "чукч",
 "Ч-89": "чуль",
 "Ч-90": "чумо",
 "Ч-91": "чуо",
 "Ч-92": "чупы",
 "Ч-93": "чуры",
 "Ч-94": "чусы",
 "Ч-95": "чуф",
 "Ч-96": "чуя",
 "Ч-97": "чэс",
 "Ч-98": "чюч",
 "Ч-99": "чяч",
 "Ш11": "ш. я.",
 "Ш12": "шаби",
 "Ш13": "шабш",
 "Ш14": "шавы",
 "Ш15": "шагу",
 "Ш16": "шаз",
 "Ш17": "шаку",
 "Ш18": "шаля",
 "Ш19": "шамш",
 "Ш20": "шано",
 "Ш21": "шансы",
 "Ш22": "шаня",
 "Ш23": "шапн",
 "Ш24": "шапш",
 "Ш25": "шари",
 "Ш26": "шары",
 "Ш27": "шасту",
 "Ш28": "шаток",
 "Ш29": "шауф",
 "Ш30": "шафф",
 "Ш31": "шахно",
 "Ш32": "шашк",
 "Ш33": "швах",
 "Ш34": "швес",
 "Ш35": "швыр",
 "Ш36": "шебы",
 "Ш37": "шевч",
 "Ш38": "шез",
 "Ш39": "шеих",
 "Ш40": "шекр",
 "Ш41": "шеку",
 "Ш42": "шелих",
 "Ш43": "шелку",
 "Ш44": "шелы",
 "Ш45": "шеля",
 "Ш46": "шемят",
 "Ш47": "шенш",
 "Ш48": "шепш",
 "Ш49": "шерр",
 "Ш50": "шеря",
 "Ш51": "шестн",
 "Ш52": "шеу",
 "Ш53": "шефф",
 "Ш54": "шея",
 "Ш55": "шиг",
 "Ш56": "шии",
 "Ш57": "шилк",
 "Ш58": "шилль",
 "Ш59": "шилф",
 "Ш60": "шиля",
 "Ш61": "шимш",
 "Ш62": "шины",
 "Ш63": "шипя",
 "Ш64": "шиу",
 "Ш65": "шия",
 "Ш66": "шкля",
 "Ш67": "шкур",
 "Ш68": "шлец",
 "Ш69": "шлю",
 "Ш70": "шляхт",
 "Ш71": "шмач",
 "Ш72": "шмец",
 "Ш73": "шмиц",
 "Ш74": "шмор",
 "Ш75": "шмя",
 "Ш76": "шнех",
 "Ш77": "шны",
 "Ш78": "шон",
 "Ш79": "шост",
 "Ш80": "шотт",
 "Ш81": "шофф",
 "Ш82": "шоя",
 "Ш83": "шпиц",
 "Ш84": "шпы",
 "Ш85": "шре",
 "Ш86": "шру",
 "Ш87": "штаф",
 "Ш88": "штеинц",
 "Ш89": "штепс",
 "Ш90": "штех",
 "Ш91": "штих",
 "Ш92": "штоц",
 "Ш93": "штрю",
 "Ш94": "штю",
 "Ш95": "шульц",
 "Ш96": "шуры",
 "Ш97": "шуф",
 "Ш98": "шэ",
 "Ш99": "шюц",
 "Щ11": "щ. я.",
 "Щ12": "щабы",
 "Щ13": "щавац",
 "Щ14": "щавец",
 "Щ15": "щавц",
 "Щ16": "щагуц",
 "Щ17": "щадро",
 "Щ18": "щажу",
 "Щ19": "щаку",
 "Щ20": "щаля",
 "Щ21": "щамь",
 "Щ22": "щанх",
 "Щ23": "щапец",
 "Щ24": "щапновс",
 "Щ25": "щапу",
 "Щ26": "щары",
 "Щ27": "щасы",
 "Щ28": "щач",
 "Щ29": "щеах",
 "Щ30": "щебы",
 "Щ31": "щеву",
 "Щ32": "щегиц",
 "Щ33": "щегловц",
 "Щ34": "щегу",
 "Щ35": "щедо",
 "Щ36": "щеи",
 "Щ37": "щекет",
 "Щ38": "щекк",
 "Щ39": "щеклы",
 "Щ40": "щекс",
 "Щ41": "щекуш",
 "Щ42": "щелец",
 "Щ43": "щелич",
 "Щ44": "щелкот",
 "Щ45": "щелн",
 "Щ46": "щелы",
 "Щ47": "щелян",
 "Щ48": "щемз",
 "Щ49": "щему",
 "Щ50": "щемящ",
 "Щ51": "щениц",
 "Щ52": "щенл",
 "Щ53": "щенны",
 "Щ54": "щеня",
 "Щ55": "щепач",
 "Щ56": "щепеч",
 "Щ57": "щепич",
 "Щ58": "щепно",
 "Щ59": "щепр",
 "Щ60": "щерач",
 "Щ61": "щербатс",
 "Щ62": "щербацю",
 "Щ63": "щербец",
 "Щ64": "щербинс",
 "Щ65": "щербно",
 "Щ66": "щергу",
 "Щ67": "щерец",
 "Щ68": "щерич",
 "Щ69": "щеря",
 "Щ70": "щетиц",
 "Щ71": "щеткиц",
 "Щ72": "щетны",
 "Щ73": "щечк",
 "Щ74": "щибр",
 "Щ75": "щивя",
 "Щ76": "щиго",
 "Щ77": "щигровц",
 "Щ78": "щии",
 "Щ79": "щикн",
 "Щ80": "щикот",
 "Щ81": "щиля",
 "Щ82": "щимя",
 "Щ83": "щинь",
 "Щ84": "щипет",
 "Щ85": "щипич",
 "Щ86": "щипя",
 "Щ87": "щист",
 "Щ88": "щитиц",
 "Щ89": "щитны",
 "Щ90": "щитоок",
 "Щ91": "щич",
 "Щ92": "щот",
 "Щ93": "щуи",
 "Щ94": "щукец",
 "Щ95": "щун",
 "Щ96": "щупк",
 "Щ97": "щупя",
 "Щ98": "щут",
 "Щ99": "щучья",
 "Ы11": "Ы",
 "Ы12": "Ыб",
 "Ы13": "Ыбы",
 "Ы14": "Ыбыл",
 "Ы15": "Ыбыр",
 "Ы16": "Ыв",
 "Ы17": "Ыг",
 "Ы18": "Ығ",
 "Ы19": "Ыд",
 "Ы20": "Ыды",
 "Ы21": "Ыдыр",
 "Ы22": "Ыдыс",
 "Ы23": "Ыж",
 "Ы24": "Ыжд",
 "Ы25": "Ыз",
 "Ы26": "Ызғ",
 "Ы27": "Ызд",
 "Ы28": "Ызды",
 "Ы29": "Ызи",
 "Ы30": "Ызқ",
 "Ы31": "Ызм",
 "Ы32": "Ызмы",
 "Ы33": "Ызо",
 "Ы34": "Ызп",
 "Ы35": "Ызр",
 "Ы36": "Ызт",
 "Ы37": "Ызы",
 "Ы38": "Ызық",
 "Ы39": "Ый",
 "Ы40": "Ыйм",
 "Ы41": "Ыйн",
 "Ы42": "Ыйң",
 "Ы43": "Ыйс",
 "Ы44": "Ық",
 "Ы45": "Ықм",
 "Ы46": "Ықт",
 "Ы47": "Ықш",
 "Ы48": "Ықы",
 "Ы49": "Ықыл",
 "Ы50": "Ыл",
 "Ы51": "Ылад",
 "Ы52": "Ылай",
 "Ы53": "Ылақ",
 "Ы54": "Ылаш",
 "Ы55": "Ылғ",
 "Ы56": "Ылд",
 "Ы57": "Ылы",
 "Ы58": "Ым",
 "Ы59": "Ымб",
 "Ы60": "Ымд",
 "Ы61": "Ымш",
 "Ы62": "Ымы",
 "Ы63": "Ымыр",
 "Ы64": "Ын",
 "Ы65": "Ынд",
 "Ы66": "Ынк",
 "Ы67": "Ынс",
 "Ы68": "Ынт",
 "Ы69": "Ыны",
 "Ы70": "Ың",
 "Ы71": "Ыңғ",
 "Ы72": "Ыңу",
 "Ы73": "Ыңы",
 "Ы74": "Ыңыз",
 "Ы75": "Ып",
 "Ы76": "Ыр",
 "Ы77": "Ырғ",
 "Ы78": "Ырж",
 "Ы79": "Ырз",
 "Ы80": "Ыры",
 "Ы81": "Ырық",
 "Ы82": "Ырым",
 "Ы83": "Ырың",
 "Ы84": "Ырыс",
 "Ы85": "Ырысп",
 "Ы86": "Ырыст",
 "Ы87": "Ыс",
 "Ы88": "Ысма",
 "Ы89": "Ысп",
 "Ы90": "Ыст",
 "Ы91": "Ысх",
 "Ы92": "Ыт",
 "Ы93": "Ыш",
 "Ы94": "Ышм",
 "Ы95": "Ышп",
 "Ы96": "Ышт",
 "Ы97": "Ышту",
 "Ы98": "Ышу",
 "Ы99": "Ышы",
 "І-11": "І",
 "І-12": "Іб",
 "І-13": "Іби",
 "І-14": "Ібр",
 "І-15": "Ібі",
 "І-16": "Іг",
 "І-17": "Іга",
 "І-18": "Іге",
 "І-19": "Іги",
 "І-20": "Ігр",
 "І-21": "Ігі",
 "І-22": "Ід",
 "І-23": "Іде",
 "І-24": "Ідр",
 "І-25": "Іді",
 "І-26": "Іж",
 "І-27": "Із",
 "І-28": "Ізб",
 "І-29": "Ізбе",
 "І-30": "Ізгі",
 "І-31": "Ізд",
 "І-32": "Ізде",
 "І-33": "Ізди",
 "І-34": "Ізе",
 "І-35": "Ізи",
 "І-36": "Ізк",
 "І-37": "Ізл",
 "І-38": "Ізм",
 "І-39": "Ізн",
 "І-40": "Ізо",
 "І-41": "Ізп",
 "І-42": "Ізр",
 "І-43": "Ізт",
 "І-44": "Ізти",
 "І-45": "Іл",
 "І-46": "Іле",
 "І-47": "Іли",
 "І-48": "Ілм",
 "І-49": "Ілт",
 "І-50": "Ілі",
 "І-51": "Ім",
 "І-52": "Імж",
 "І-53": "Імш",
 "І-54": "Ін",
 "І-55": "Інб",
 "І-56": "Інг",
 "І-57": "Інд",
 "І-58": "Інде",
 "І-59": "Інді",
 "І-60": "Іне",
 "І-61": "Інж",
 "І-62": "Інш",
 "І-63": "Іні",
 "І-64": "Ің",
 "І-65": "Іңі",
 "І-66": "Іп",
 "І-67": "Ір",
 "І-68": "Ірб",
 "І-69": "Ірг",
 "І-70": "Ірге",
 "І-71": "Ірд",
 "І-72": "Іре",
 "І-73": "Ірж",
 "І-74": "Ірз",
 "І-75": "Ірк",
 "І-76": "Ірке",
 "І-77": "Іркі",
 "І-78": "Ірл",
 "І-79": "Ірм",
 "І-80": "Ірн",
 "І-81": "Ірс",
 "І-82": "Ірт",
 "І-83": "Ірш",
 "І-84": "Ірі",
 "І-85": "Іс",
 "І-86": "Іск",
 "І-87": "Іске",
 "І-88": "Ісл",
 "І-89": "Ісм",
 "І-90": "Ісп",
 "І-91": "Іспе",
 "І-92": "Іспі",
 "І-93": "Істе",
 "І-94": "Істі",
 "І-95": "Ісш",
 "І-96": "Іт",
 "І-97": "Іш",
 "І-98": "Ішк",
 "І-99": "Ішп",
 "Э11": "э. я.",
 "Э12": "эац",
 "Э13": "эбу",
 "Э14": "эвг",
 "Э15": "эвп",
 "Э16": "эвя",
 "Э17": "эгу",
 "Э18": "эдди",
 "Э19": "эдет",
 "Э20": "эдзу",
 "Э21": "эдл",
 "Э22": "эдмэ",
 "Э23": "эднэ",
 "Э24": "эдп",
 "Э25": "эдрю",
 "Э26": "эдт",
 "Э27": "эдя",
 "Э28": "эжр",
 "Э29": "эзу",
 "Э30": "эизм",
 "Э31": "эику",
 "Э32": "эимс",
 "Э33": "эиф",
 "Э34": "эич",
 "Э35": "экер",
 "Э36": "экзот",
 "Э37": "экит",
 "Э38": "экку",
 "Э39": "экн",
 "Э40": "экру",
 "Э41": "эксц",
 "Э42": "эктру",
 "Э43": "экфор",
 "Э44": "экю",
 "Э45": "элес",
 "Э46": "элк",
 "Э47": "элн",
 "Э48": "элох",
 "Э49": "элпу",
 "Э50": "элсх",
 "Э51": "элтя",
 "Э52": "элы",
 "Э53": "элью",
 "Э54": "эмз",
 "Э55": "эмл",
 "Э56": "эмму",
 "Э57": "эмоч",
 "Э58": "эмс",
 "Э59": "эмто",
 "Э60": "эмэ",
 "Э61": "энву",
 "Э62": "энгельс",
 "Э63": "энгу",
 "Э64": "энду",
 "Э65": "энжл",
 "Э66": "энс",
 "Э67": "энф",
 "Э68": "энэ",
 "Э69": "эох",
 "Э70": "эпеш",
 "Э71": "эпл",
 "Э72": "эпф",
 "Э73": "эпя",
 "Э74": "эргу",
 "Э75": "эрдэ",
 "Э76": "эрз",
 "Э77": "эриш",
 "Э78": "эркш",
 "Э79": "эрля",
 "Э80": "эрмс",
 "Э81": "эрс",
 "Э82": "эртш",
 "Э83": "эря",
 "Э84": "эси",
 "Э85": "эср",
 "Э86": "эссу",
 "Э87": "эсу",
 "Э88": "эсэ",
 "Э89": "этер",
 "Э90": "этиш",
 "Э91": "этну",
 "Э92": "этот",
 "Э93": "эу",
 "Э94": "эфф",
 "Э95": "эху",
 "Э96": "эцц",
 "Э97": "эчу",
 "Э98": "эю",
 "Э99": "эяш",
 "Ю11": "ю. я.",
 "Ю12": "юаш",
 "Ю13": "юбш",
 "Ю14": "ювя",
 "Ю15": "югу",
 "Ю16": "юдч",
 "Ю17": "южец",
 "Ю18": "южич",
 "Ю19": "южс",
 "Ю20": "юзя",
 "Ю21": "юим",
 "Ю22": "юиш",
 "Ю23": "юкер",
 "Ю24": "юкло",
 "Ю25": "юкноц",
 "Ю26": "юкр",
 "Ю27": "юксо",
 "Ю28": "юкту",
 "Ю29": "юкчи",
 "Ю30": "юкшт",
 "Ю31": "юлд",
 "Ю32": "юлз",
 "Ю33": "юлие",
 "Ю34": "юлит",
 "Ю35": "юлиш",
 "Ю36": "юлияш",
 "Ю37": "юлн",
 "Ю38": "юлт",
 "Ю39": "юлш",
 "Ю40": "юля",
 "Ю41": "юмас",
 "Ю42": "юмач",
 "Ю43": "юмд",
 "Ю44": "юмеш",
 "Ю45": "юмл",
 "Ю46": "юмоп",
 "Ю47": "юмт",
 "Ю48": "юмя",
 "Ю49": "юнво",
 "Ю50": "юнд",
 "Ю51": "юнеш",
 "Ю52": "юниш",
 "Ю53": "юнн",
 "Ю54": "юнорс",
 "Ю55": "юноч",
 "Ю56": "юнш",
 "Ю57": "юня",
 "Ю58": "юош",
 "Ю59": "юпац",
 "Ю60": "юпеш",
 "Ю61": "юпл",
 "Ю62": "юпт",
 "Ю63": "юпя",
 "Ю64": "юрв",
 "Ю65": "юргел",
 "Ю66": "юргу",
 "Ю67": "юрду",
 "Ю68": "юрем",
 "Ю69": "юрзу",
 "Ю70": "юриз",
 "Ю71": "юрим",
 "Ю72": "юрип",
 "Ю73": "юриш",
 "Ю74": "юркн",
 "Ю75": "юрком",
 "Ю76": "юрло",
 "Ю77": "юрнс",
 "Ю78": "юрог",
 "Ю79": "юроп",
 "Ю80": "юрр",
 "Ю81": "юрсу",
 "Ю82": "юрцы",
 "Ю83": "юрчу",
 "Ю84": "юры",
 "Ю85": "юрьево",
 "Ю86": "юрьец",
 "Ю87": "юря",
 "Ю88": "юсд",
 "Ю89": "юсс",
 "Ю90": "юстя",
 "Ю91": "юся",
 "Ю92": "юту",
 "Ю93": "юфя",
 "Ю94": "юч",
 "Ю95": "юшиц",
 "Ю96": "юшс",
 "Ю97": "юшу",
 "Ю98": "ющец",
 "Ю99": "юя",
 "Я11": "я п",
 "Я12": "яаш",
 "Я13": "ябко",
 "Я14": "яблоц",
 "Я15": "ябы",
 "Я16": "явг",
 "Я17": "явду",
 "Я18": "явеш",
 "Я19": "явку",
 "Я20": "явм",
 "Я21": "явныи",
 "Я22": "явочны",
 "Я23": "явры",
 "Я24": "явсу",
 "Я25": "явтуш",
 "Я26": "явь",
 "Я27": "ягды",
 "Я28": "ягеш",
 "Я29": "ягн",
 "Я30": "ягр",
 "Я31": "ягш",
 "Я32": "ядб",
 "Я33": "ядд",
 "Я34": "ядеш",
 "Я35": "ядзя",
 "Я36": "ядн",
 "Я37": "ядру",
 "Я38": "яе",
 "Я39": "яжу",
 "Я40": "язу",
 "Я41": "язю",
 "я42": "яйч",
 "Я43": "яиш",
 "Я44": "якз",
 "Я45": "якн",
 "Я46": "якобы",
 "Я47": "якоп",
 "Я48": "якто",
 "Я49": "якуш",
 "Я50": "якшу",
 "Я51": "ялс",
 "Я52": "ялы",
 "Я53": "яльш",
 "Я54": "ямаш",
 "Я55": "ямн",
 "Я56": "ямош",
 "Я57": "ямт",
 "Я58": "ямш",
 "Я59": "ямя",
 "Я60": "янеш",
 "Я61": "янзы",
 "Я62": "янл",
 "Я63": "янны",
 "Я64": "янп",
 "Я65": "янц",
 "Я66": "янши",
 "Я67": "яня",
 "Я68": "яош",
 "Я69": "япл",
 "Я70": "япу",
 "Я71": "ярды",
 "Я72": "ярзу",
 "Я73": "ярич",
 "Я74": "ярлыч",
 "Я75": "ярны",
 "Я76": "яроч",
 "Я77": "ярт",
 "Я78": "ярху",
 "Я79": "ярь",
 "Я80": "ясец",
 "Я81": "ясм",
 "Я82": "ясны",
 "Я83": "яспо",
 "Я84": "яссы",
 "Я85": "ясты",
 "Я86": "яся",
 "Я87": "яты",
 "Я88": "яуш",
 "Я89": "яффы",
 "Я90": "яхр",
 "Я91": "яхш",
 "Я92": "яцз",
 "Я93": "яцт",
 "Я94": "яцю",
 "Я95": "ячу",
 "Я96": "яшу",
 "Я97": "ящец",
 "Я98": "ящичко",
 "Я99": "яя",
 "A10": "A",
 "A11": "Aa",
 "A12": "Ab",
 "A13": "Abe",
 "A14": "Abh",
 "A15": "Abi",
 "A16": "Abr",
 "A17": "Abu",
 "A18": "Ac",
 "A19": "Act",
 "A20": "Ad",
 "A21": "Adl",
 "A22": "Adr",
 "A23": "Ae",
 "A24": "Af",
 "A25": "Ag",
 "A26": "Agr",
 "A27": "Ah",
 "A28": "Ai",
 "A29": "Ak",
 "A30": "Al",
 "A31": "Ald",
 "A32": "Ale",
 "A33": "Alex",
 "A34": "Alf",
 "A35": "Alg",
 "A36": "Ali",
 "A37": "Alk",
 "A38": "All",
 "A39": "Alm",
 "A40": "Alo",
 "A41": "Alp",
 "A42": "Alq",
 "A43": "Als",
 "A44": "Alt",
 "A45": "Alv",
 "A46": "Am",
 "A47": "Ame",
 "A48": "Ami",
 "A49": "Amm",
 "A50": "Amp",
 "A51": "Ams",
 "A52": "Amu",
 "A53": "An",
 "A54": "And",
 "A55": "Andr",
 "A56": "Ane",
 "A57": "Ang",
 "A58": "Ani",
 "A59": "Ank",
 "A60": "Ann",
 "A61": "Ans",
 "A62": "Ant",
 "A63": "Anu",
 "A64": "Anw",
 "A65": "Anz",
 "A66": "Ap",
 "A67": "App",
 "A68": "Apu",
 "A69": "Aq",
 "A70": "Ar",
 "A71": "Arc",
 "A72": "Ard",
 "A73": "Are",
 "A74": "Ari",
 "A75": "Arm",
 "A76": "Arn",
 "A77": "Aro",
 "A78": "Arq",
 "A79": "Arr",
 "A80": "Ars",
 "A81": "Art",
 "A82": "As",
 "A83": "Asc",
 "A84": "Ash",
 "A85": "Ask",
 "A86": "Asm",
 "A87": "Asp",
 "A88": "Ass",
 "A89": "Ast",
 "A90": "At",
 "A91": "Att",
 "A92": "Au",
 "A93": "Aus",
 "A94": "Aut",
 "A95": "Av",
 "A96": "Aw",
 "A97": "Ax",
 "A98": "Ay",
 "A99": "Az",
 "B10": "B",
 "B11": "Ba",
 "B12": "Bac",
 "B13": "Bad",
 "B14": "Bae",
 "B15": "Bag",
 "B16": "Bai",
 "B17": "Bak",
 "B18": "Bal",
 "B19": "Bals",
 "B20": "Balz",
 "B21": "Bam",
 "B22": "Ban",
 "B23": "Bap",
 "B24": "Bar",
 "B25": "Barn",
 "B26": "Barr",
 "B27": "Bart",
 "B28": "Barw",
 "B29": "Bas",
 "B30": "Bat",
 "B31": "Bau",
 "B32": "Bav",
 "B33": "Bay",
 "B34": "Be",
 "B35": "Bec",
 "B36": "Bed",
 "B37": "Bee",
 "B38": "Beg",
 "B39": "Beh",
 "B40": "Bei",
 "B41": "Bel",
 "B42": "Bem",
 "B43": "Ben",
 "B44": "Beo",
 "B45": "Ber",
 "B46": "Berk",
 "B47": "Berl",
 "B48": "Berm",
 "B49": "Bern",
 "B50": "Berr",
 "B51": "Bert",
 "B52": "Bes",
 "B53": "Bet",
 "B54": "Bev",
 "B55": "Bey",
 "B56": "Bi",
 "B57": "Bie",
 "B58": "Bil",
 "B59": "Bin",
 "B60": "Bio",
 "B61": "Bir",
 "B62": "Bis",
 "B63": "Biu",
 "B64": "Bl",
 "B65": "Ble",
 "B66": "Bli",
 "B67": "Blo",
 "B68": "Blu",
 "B69": "Bo",
 "B70": "Boe",
 "B71": "Bog",
 "B72": "Boh",
 "B73": "Boi",
 "B74": "Bol",
 "B75": "Bom",
 "B76": "Bon",
 "B77": "Boo",
 "B78": "Bor",
 "B79": "Bos",
 "B80": "Bot",
 "B81": "Bou",
 "B82": "Bow",
 "B83": "Boy",
 "B84": "Br",
 "B85": "Bre",
 "B86": "Bri",
 "B87": "Bro",
 "B88": "Brou",
 "B89": "Brow",
 "B90": "Bru",
 "B91": "Bry",
 "B92": "Bu",
 "B93": "Bul",
 "B94": "Bun",
 "B95": "Buo",
 "B96": "Bur",
 "B97": "Bus",
 "B98": "But",
 "B99": "By",
 "C10": "C",
 "C11": "Ca",
 "C12": "Cae",
 "C13": "Caf",
 "C14": "Cah",
 "C15": "Cai",
 "C16": "Cal",
 "C17": "Cam",
 "C18": "Camp",
 "C19": "Can",
 "C20": "Cap",
 "C21": "Car",
 "C22": "Carl",
 "C23": "Carm",
 "C24": "Carn",
 "C25": "Caro",
 "C26": "Cars",
 "C27": "Cart",
 "C28": "Caru",
 "C29": "Cas",
 "C30": "Cast",
 "C31": "Cat",
 "C32": "Cath",
 "C33": "Cato",
 "C34": "Catt",
 "C35": "Cau",
 "C36": "Cav",
 "C37": "Ce",
 "C38": "Cel",
 "C39": "Cem",
 "C40": "Cen",
 "C41": "Cer",
 "C42": "Ces",
 "C43": "Cha",
 "C44": "Cham",
 "C45": "Chan",
 "C46": "Chap",
 "C47": "Char",
 "C48": "Chas",
 "C49": "Chat",
 "C50": "Chau",
 "C51": "Che",
 "C52": "Chi",
 "C53": "Chl",
 "C54": "Chm",
 "C55": "Cho",
 "C56": "Chr",
 "C57": "Chu",
 "C58": "Ci",
 "C59": "Cl",
 "C60": "Cle",
 "C61": "Cli",
 "C62": "Clo",
 "C63": "Clu",
 "C64": "Cly",
 "C65": "Co",
 "C66": "Cod",
 "C67": "Coe",
 "C68": "Coh",
 "C69": "Col",
 "C70": "Coll",
 "C71": "Colo",
 "C72": "Colu",
 "C74": "Com",
 "C73": "Con",
 "C75": "Cons",
 "C76": "Cont",
 "C77": "Coo",
 "C78": "Cop",
 "C79": "Cor",
 "C80": "Corn",
 "C81": "Corp",
 "C82": "Cors",
 "C83": "Cos",
 "C84": "Cot",
 "C85": "Cou",
 "C86": "Cow",
 "C87": "Cr",
 "C88": "Cre",
 "C89": "Cri",
 "C90": "Cro",
 "C91": "Cru",
 "C92": "Cs",
 "C93": "Ct",
 "C94": "Cu",
 "C95": "Cur",
 "C96": "Cus",
 "C97": "Cut",
 "C98": "Cy",
 "C99": "Cz",
 "D10": "D",
 "D11": "Da",
 "D12": "Dae",
 "D13": "Daf",
 "D14": "Dah",
 "D15": "Dai",
 "D16": "Dal",
 "D17": "Dam",
 "D18": "Dan",
 "D19": "Dant",
 "D20": "Dar",
 "D21": "Darm",
 "D22": "Dart",
 "D23": "Das",
 "D24": "Dat",
 "D25": "Dau",
 "D26": "Dav",
 "D27": "Daw",
 "D28": "Day",
 "D29": "De",
 "D30": "Dee",
 "D31": "Deg",
 "D32": "Deh",
 "D33": "Dei",
 "D34": "Del",
 "D35": "Delo",
 "D36": "Delp",
 "D37": "Delt",
 "D38": "Dem",
 "D39": "Demo",
 "D40": "Den",
 "D41": "Denn",
 "D42": "Deno",
 "D43": "Dent",
 "D44": "Dep",
 "D45": "Der",
 "D46": "Des",
 "D47": "Det",
 "D48": "Deu",
 "D49": "Dev",
 "D50": "Dew",
 "D51": "Dez",
 "D52": "Dh",
 "D53": "Di",
 "D54": "Did",
 "D55": "Die",
 "D56": "Dif",
 "D57": "Dil",
 "D58": "Dim",
 "D59": "Din",
 "D60": "Dio",
 "D61": "Dip",
 "D62": "Dir",
 "D63": "Dis",
 "D64": "Dit",
 "D65": "Dix",
 "D66": "Dl",
 "D67": "Dm",
 "D68": "Do",
 "D69": "Doe",
 "D70": "Dol",
 "D71": "Dom",
 "D72": "Don",
 "D73": "Doo",
 "D74": "Dor",
 "D75": "Dos",
 "D76": "Dot",
 "D77": "Dou",
 "D78": "Dow",
 "D79": "Doy",
 "D80": "Dr",
 "D81": "Dri",
 "D82": "Dro",
 "D83": "Dru",
 "D84": "Du",
 "D85": "Due",
 "D86": "Duf",
 "D87": "Dui",
 "D88": "Dul",
 "D89": "Dum",
 "D90": "Dun",
 "D91": "Dup",
 "D92": "Dur",
 "D93": "Dus",
 "D94": "Dut",
 "D95": "Duv",
 "D96": "Dv",
 "D97": "Dw",
 "D98": "Dy",
 "D99": "Dz",
 "E10": "E",
 "E11": "Ea",
 "E12": "Eas",
 "E13": "Eat",
 "E14": "Eb",
 "E15": "Ebn",
 "E16": "Ebr",
 "E17": "Ebs",
 "E18": "Ec",
 "E19": "Ech",
 "E20": "Eck",
 "E21": "Ed",
 "E22": "Edg",
 "E23": "Edi",
 "E24": "Edm",
 "E25": "Edu",
 "E26": "Edw",
 "E27": "Ef",
 "E28": "Eg",
 "E29": "Egg",
 "E30": "Egl",
 "E31": "Ego",
 "E32": "Egr",
 "E33": "Egu",
 "E34": "Eh",
 "E35": "Ehr",
 "E36": "Ei",
 "E37": "Eik",
 "E38": "Eil",
 "E39": "Eim",
 "E40": "Ein",
 "E41": "Eis",
 "E42": "Ek",
 "E43": "El",
 "E44": "Eli",
 "E45": "Elk",
 "E46": "Ell",
 "E47": "Els",
 "E48": "Elt",
 "E49": "Elv",
 "E50": "Em",
 "E51": "Emm",
 "E52": "Emp",
 "E53": "Ems",
 "E54": "En",
 "E55": "Eng",
 "E56": "Engl",
 "E57": "Enn",
 "E58": "Ent",
 "E59": "Eo",
 "E60": "Ep",
 "E61": "Eph",
 "E62": "Epi",
 "E63": "Epo",
 "E64": "Eps",
 "E65": "Eq",
 "E66": "Er",
 "E67": "Erg",
 "E68": "Eri",
 "E69": "Erl",
 "E70": "Erm",
 "E71": "Ern",
 "E72": "Ers",
 "E73": "Ert",
 "E74": "Erz",
 "E75": "Es",
 "E76": "Esc",
 "E77": "Esd",
 "E78": "Esk",
 "E79": "Esp",
 "E80": "Ess",
 "E81": "Est",
 "E82": "Estr",
 "E83": "Et",
 "E84": "Eth",
 "E85": "Eti",
 "E86": "Eto",
 "E87": "Etr",
 "E88": "Ett",
 "E89": "Etu",
 "E90": "Eu",
 "E91": "Eur",
 "E92": "Eut",
 "E93": "Ev",
 "E94": "Eve",
 "E95": "Evo",
 "E96": "Ew",
 "E97": "Ex",
 "E98": "Ey",
 "E99": "Ez",
 "F10": "F",
 "F11": "Fa",
 "F12": "Fac",
 "F13": "Fad",
 "F14": "Fae",
 "F15": "Fag",
 "F16": "Fah",
 "F17": "Fai",
 "F18": "Fak",
 "F19": "Fal",
 "F20": "Fall",
 "F21": "Falt",
 "F22": "Fam",
 "F23": "Fan",
 "F24": "Far",
 "F25": "Farr",
 "F26": "Fas",
 "F27": "Fat",
 "F28": "Fau",
 "F29": "Fav",
 "F30": "Faw",
 "F31": "Fax",
 "F32": "Fay",
 "F33": "Fe",
 "F34": "Feg",
 "F35": "Fei",
 "F36": "Fel",
 "F37": "Fem",
 "F38": "Fen",
 "F39": "Feo",
 "F40": "Fer",
 "F41": "Fern",
 "F42": "Ferr",
 "F43": "Fers",
 "F44": "Fes",
 "F45": "Fet",
 "F46": "Feu",
 "F47": "Fev",
 "F48": "Fi",
 "F49": "Fid",
 "F50": "Fie",
 "F51": "Fig",
 "F52": "Fil",
 "F53": "Fim",
 "F54": "Fin",
 "F55": "Fio",
 "F56": "Fir",
 "F57": "Fis",
 "F58": "Fish",
 "F59": "Fisk",
 "F60": "Fit",
 "F61": "Fitz",
 "F62": "Fiu",
 "F63": "Fl",
 "F64": "Flau",
 "F65": "Fle",
 "F66": "Flet",
 "F67": "Fleu",
 "F68": "Fli",
 "F69": "Flo",
 "F70": "Flu",
 "F71": "Fo",
 "F72": "Fol",
 "F73": "Fon",
 "F74": "Foo",
 "F75": "For",
 "F76": "Form",
 "F77": "Fort",
 "F78": "Fos",
 "F79": "Fost",
 "F80": "Fot",
 "F81": "Fou",
 "F82": "Fow",
 "F83": "Fox",
 "F84": "Fr",
 "F85": "Fran",
 "F86": "Frat",
 "F87": "Frau",
 "F88": "Fre",
 "F89": "Fren",
 "F90": "Freu",
 "F91": "Frey",
 "F92": "Fri",
 "F93": "Fris",
 "F94": "Fro",
 "F95": "Fru",
 "F96": "Fu",
 "F97": "Fun",
 "F98": "Fur",
 "F99": "Fy",
 "G10": "G",
 "G11": "Ga",
 "G12": "Gad",
 "G13": "Gae",
 "G14": "Gai",
 "G15": "Gal",
 "G16": "Gam",
 "G17": "Gan",
 "G18": "Gar",
 "G19": "Gard",
 "G20": "Garn",
 "G21": "Garo",
 "G22": "Garr",
 "G23": "Gart",
 "G24": "Gas",
 "G25": "Gat",
 "G26": "Gau",
 "G27": "Gav",
 "G28": "Gay",
 "G29": "Gaz",
 "G30": "Ge",
 "G31": "Ged",
 "G32": "Gee",
 "G33": "Gei",
 "G34": "Gel",
 "G35": "Gem",
 "G36": "Gen",
 "G37": "Geo",
 "G38": "Ger",
 "G39": "Germ",
 "G40": "Gers",
 "G41": "Ges",
 "G42": "Gh",
 "G43": "Gi",
 "G44": "Gie",
 "G45": "Gil",
 "G46": "Gin",
 "G47": "Gio",
 "G48": "Gir",
 "G50": "Giu",
 "G51": "Gl",
 "G52": "Gle",
 "G53": "Gli",
 "G54": "Glo",
 "G55": "Glu",
 "G56": "Gn",
 "G57": "Go",
 "G58": "Goe",
 "G59": "Goi",
 "G60": "Gol",
 "G61": "Goll",
 "G62": "Gom",
 "G63": "Gon",
 "G64": "Goo",
 "G65": "Gor",
 "G66": "Gos",
 "G67": "Got",
 "G68": "Gott",
 "G69": "Gou",
 "G70": "Gov",
 "G71": "Gr",
 "G72": "Gran",
 "G73": "Grap",
 "G74": "Gras",
 "G75": "Grav",
 "G76": "Gray",
 "G77": "Gre",
 "G78": "Gree",
 "G79": "Greg",
 "G80": "Gren",
 "G81": "Gres",
 "G82": "Grev",
 "G83": "Gri",
 "G84": "Grim",
 "G85": "Grin",
 "G86": "Gro",
 "G87": "Grol",
 "G88": "Gros",
 "G89": "Grot",
 "G90": "Gru",
 "G91": "Grz",
 "G92": "Gu",
 "G93": "Gue",
 "G94": "Gui",
 "G95": "Gun",
 "G96": "Gus",
 "G97": "Gut",
 "G98": "Gw",
 "G99": "Gy",
 "H10": "H",
 "H11": "Ha",
 "H12": "Hac",
 "H13": "Hae",
 "H14": "Haf",
 "H15": "Hag",
 "H16": "Hah",
 "H17": "Hai",
 "H18": "Hal",
 "H19": "Hall",
 "H20": "Ham",
 "H21": "Hamp",
 "H22": "Han",
 "H23": "Hans",
 "H24": "Har",
 "H25": "Hard",
 "H26": "Harl",
 "H27": "Harm",
 "H28": "Harn",
 "H29": "Haro",
 "H30": "Harr",
 "H31": "Hart",
 "H32": "Harv",
 "H33": "Has",
 "H34": "Hass",
 "H35": "Hast",
 "H36": "Hat",
 "H37": "Hau",
 "H38": "Haus",
 "H39": "Hav",
 "H40": "Haw",
 "H41": "Hay",
 "H42": "Haz",
 "H43": "He",
 "H44": "Heb",
 "H45": "Hec",
 "H46": "Hed",
 "H47": "Hee",
 "H48": "Heg",
 "H49": "Hei",
 "H50": "Hel",
 "H51": "Helo",
 "H52": "Hels",
 "H53": "Hem",
 "H54": "Hen",
 "H55": "Henr",
 "H56": "Hep",
 "H57": "Her",
 "H58": "Herr",
 "H59": "Hert",
 "H60": "Herz",
 "H61": "Hes",
 "H62": "Het",
 "H63": "Heu",
 "H64": "Hey",
 "H65": "Hi",
 "H66": "Hil",
 "H67": "Hin",
 "H68": "Hir",
 "H69": "His",
 "H70": "Hl",
 "H71": "Ho",
 "H72": "Hoe",
 "H73": "Hof",
 "H74": "Hoh",
 "H75": "Hol",
 "H76": "Hom",
 "H77": "Hon",
 "H78": "Hoo",
 "H79": "Hop",
 "H80": "Hor",
 "H81": "Hos",
 "H82": "Hot",
 "H83": "Hou",
 "H84": "How",
 "H85": "Hoy",
 "H86": "Hr",
 "H87": "Hs",
 "H88": "Hu",
 "H89": "Hue",
 "H90": "Hug",
 "H91": "Hum",
 "H92": "Hun",
 "H93": "Hur",
 "H94": "Hus",
 "H95": "Hut",
 "H96": "Hux",
 "H97": "Huy",
 "H98": "Hv",
 "H99": "Hy",
 "I-10": "I",
 "I-32": "Ib",
 "I-33": "Ic",
 "I-34": "Id",
 "I-49": "If",
 "I-50": "Ig",
 "I-51": "Ih",
 "I-53": "Ik",
 "I-54": "Il",
 "I-55": "Im",
 "I-56": "Imp",
 "I-57": "In",
 "I-58": "Ind",
 "I-59": "Ine",
 "I-60": "Inf",
 "I-61": "Ing",
 "I-62": "Ink",
 "I-63": "Inm",
 "I-64": "Inn",
 "I-65": "Ino",
 "I-66": "Inq",
 "I-67": "Ins",
 "I-68": "Inst",
 "I-69": "Int",
 "I-70": "Inv",
 "I-83": "Ip",
 "I-84": "Ir",
 "I-85": "Is",
 "I-86": "Ist",
 "I-87": "It",
 "I-98": "Iv",
 "I-99": "Iz",
 "J10": "J",
 "J11": "Ja",
 "J12": "Jac",
 "J13": "Jaco",
 "J14": "Jacq",
 "J15": "Jad",
 "J16": "Jae",
 "J17": "Jag",
 "J18": "Jah",
 "J19": "Jai",
 "J20": "Jak",
 "J21": "Jal",
 "J22": "Jam",
 "J23": "Jan",
 "J24": "Jap",
 "J25": "Jar",
 "J26": "Jas",
 "J27": "Jat",
 "J28": "Jau",
 "J29": "Jav",
 "J30": "Jaw",
 "J31": "Jaz",
 "J35": "Je",
 "J36": "Jed",
 "J37": "Jef",
 "J38": "Jeh",
 "J39": "Jek",
 "J40": "Jel",
 "J41": "Jen",
 "J42": "Jep",
 "J43": "Jer",
 "J44": "Jes",
 "J45": "Jet",
 "J46": "Jeu",
 "J47": "Jev",
 "J48": "Jew",
 "J52": "Ji",
 "J71": "Jo",
 "J72": "Joe",
 "J73": "Jof",
 "J74": "Joh",
 "J75": "Jol",
 "J76": "Jon",
 "J77": "Jor",
 "J78": "Jos",
 "J79": "Joss",
 "J80": "Jou",
 "J81": "Jov",
 "J82": "Joy",
 "J88": "Ju",
 "J89": "Jud",
 "J90": "Jue",
 "J91": "Jug",
 "J92": "Jul",
 "J93": "Jun",
 "J94": "Jur",
 "J95": "Jus",
 "J96": "Juv",
 "J97": "Juz",
 "K10": "K",
 "K11": "Ka",
 "K12": "Kac",
 "K13": "Kad",
 "K14": "Kae",
 "K15": "Kaf",
 "K16": "Kah",
 "K17": "Kal",
 "K18": "Kam",
 "K19": "Kan",
 "K20": "Kap",
 "K21": "Kar",
 "K22": "Kas",
 "K23": "Kat",
 "K24": "Kau",
 "K25": "Kav",
 "K26": "Kay",
 "K27": "Ke",
 "K28": "Kee",
 "K29": "Keh",
 "K30": "Kei",
 "K31": "Kel",
 "K32": "Kem",
 "K33": "Ken",
 "K34": "Kent",
 "K35": "Keo",
 "K36": "Kep",
 "K37": "Ker",
 "K38": "Kes",
 "K39": "Ket",
 "K40": "Keu",
 "K41": "Key",
 "K42": "Kh",
 "K43": "Ki",
 "K44": "Kil",
 "K45": "Kim",
 "K46": "Kin",
 "K47": "Kip",
 "K48": "Kir",
 "K49": "Kis",
 "K50": "Kit",
 "K51": "Kl",
 "K52": "Kle",
 "K53": "Klei",
 "K54": "Klem",
 "K55": "Klet",
 "K56": "Kli",
 "K57": "Klo",
 "K58": "Klu",
 "K59": "Kn",
 "K60": "Kne",
 "K61": "Kni",
 "K62": "Kno",
 "K63": "Knu",
 "K64": "Kny",
 "K65": "Ko",
 "K66": "Koc",
 "K67": "Koe",
 "K68": "Kof",
 "K69": "Koh",
 "K70": "Kol",
 "K71": "Kom",
 "K72": "Kon",
 "K73": "Koo",
 "K74": "Kop",
 "K75": "Kor",
 "K76": "Kos",
 "K77": "Kot",
 "K78": "Kou",
 "K79": "Kov",
 "K80": "KOz",
 "K81": "Kr",
 "K82": "Kre",
 "K83": "Kri",
 "K84": "Kro",
 "K85": "Kru",
 "K87": "Kry",
 "K86": "Krz",
 "K88": "Ks",
 "K89": "Ku",
 "K90": "Kuh",
 "K91": "Kul",
 "K92": "Kun",
 "K93": "Kur",
 "K94": "Kus",
 "K95": "Kut",
 "K96": "Kuz",
 "K97": "Kv",
 "K98": "Kw",
 "K99": "Ky",
 "L10": "L",
 "L11": "Lab",
 "L12": "Lac",
 "L13": "Lad",
 "L14": "Lae",
 "L15": "Laf",
 "L16": "Lag",
 "L17": "Lai",
 "L18": "Lak",
 "L19": "Lal",
 "L20": "Lam",
 "L21": "Lamp",
 "L22": "Lan",
 "L23": "Land",
 "L24": "Lang",
 "L25": "Lani",
 "L26": "Lans",
 "L27": "Lant",
 "L28": "Lao",
 "L29": "Lap",
 "L30": "Laq",
 "L31": "Lar",
 "L32": "Laro",
 "L33": "Larr",
 "L34": "Lars",
 "L35": "Las",
 "L36": "Lat",
 "L37": "Lau",
 "L38": "Laur",
 "L39": "Laut",
 "L40": "Lav",
 "L41": "Law",
 "L42": "Lay",
 "L43": "Laz",
 "L44": "Le",
 "L45": "Lec",
 "L46": "Led",
 "L47": "Lee",
 "L48": "Lef",
 "L49": "Leg",
 "L50": "Leh",
 "L51": "Lei",
 "L52": "Lel",
 "L53": "Lem",
 "L54": "Len",
 "L55": "Leo",
 "L56": "Lep",
 "L57": "Ler",
 "L58": "Les",
 "L59": "Less",
 "L60": "Let",
 "L61": "Leu",
 "L62": "Lev",
 "L63": "Lew",
 "L64": "Ley",
 "L65": "Lh",
 "L66": "Li",
 "L67": "Lic",
 "L68": "Lid",
 "L69": "Lie",
 "L70": "Lif",
 "L71": "Lig",
 "L72": "Lik",
 "L73": "Lil",
 "L74": "Lim",
 "L75": "Lin",
 "L76": "Link",
 "L77": "Linn",
 "L78": "Lio",
 "L79": "Lip",
 "L80": "Lis",
 "L81": "Lit",
 "L82": "Liu",
 "L83": "Liv",
 "L84": "Ll",
 "L85": "Lo",
 "L86": "Lom",
 "L87": "Lon",
 "L88": "Loo",
 "L89": "Lop",
 "L90": "Lor",
 "L91": "Los",
 "L92": "Lot",
 "L93": "Lou",
 "L94": "Lov",
 "L95": "Low",
 "L96": "Lu",
 "L97": "Lut",
 "L98": "Lw",
 "L99": "Ly",
 "M10": "M",
 "M11": "Ma",
 "M12": "Mac",
 "M13": "Mach",
 "M14": "Mack",
 "M15": "Mad",
 "M16": "Mae",
 "M17": "Mag",
 "M18": "Mah",
 "M19": "Mai",
 "M20": "Mak",
 "M21": "Mal",
 "M22": "Malo",
 "M23": "Mam",
 "M24": "Man",
 "M25": "Mann",
 "M26": "Mans",
 "M27": "Mao",
 "M28": "Map",
 "M29": "Mar",
 "M30": "Mari",
 "M31": "Mark",
 "M32": "Marn",
 "M33": "Marr",
 "M34": "Mars",
 "M35": "Mart",
 "M36": "Marx",
 "M37": "Mas",
 "M38": "Mass",
 "M39": "Mat",
 "M40": "Matt",
 "M41": "Mau",
 "M42": "Max",
 "M43": "May",
 "M44": "Maz",
 "M45": "Me",
 "M46": "Med",
 "M47": "Mee",
 "M48": "Meg",
 "M49": "Meh",
 "M50": "Mei",
 "M51": "Mek",
 "M52": "Mel",
 "M53": "Melz",
 "M54": "Mem",
 "M55": "Men",
 "M56": "Menz",
 "M57": "Mer",
 "M58": "Merk",
 "M59": "Merr",
 "M60": "Mes",
 "M61": "Met",
 "M62": "Meu",
 "M63": "Mex",
 "M64": "Mey",
 "M65": "Mi",
 "M66": "Mie",
 "M67": "Mig",
 "M68": "Mik",
 "M69": "Mil",
 "M70": "Mill",
 "M71": "Milt",
 "M72": "Mim",
 "M73": "Min",
 "M74": "Mir",
 "M75": "Mis",
 "M76": "Mit",
 "M77": "Ml",
 "M78": "Mo",
 "M79": "Mol",
 "M80": "Mom",
 "M81": "Mon",
 "M82": "Mont",
 "M83": "Moo",
 "M84": "Mor",
 "M85": "Moro",
 "M86": "Morr",
 "M87": "Mort",
 "M88": "Mos",
 "M89": "Mot",
 "M90": "Mou",
 "M91": "Mow",
 "M92": "Mu",
 "M93": "Mui",
 "M94": "Mul",
 "M95": "Mun",
 "M96": "Mur",
 "M97": "Mus",
 "M98": "Mut",
 "M99": "My",
 "N10": "N",
 "N11": "Na",
 "N12": "Nac",
 "N13": "Nad",
 "N14": "Nae",
 "N15": "Naf",
 "N16": "Nag",
 "N17": "Nai",
 "N18": "Nak",
 "N19": "Nal",
 "N20": "Nam",
 "N21": "Nan",
 "N22": "Nap",
 "N23": "Nar",
 "N24": "Nas",
 "N25": "Nass",
 "N26": "Nat",
 "N27": "Nati",
 "N28": "Natu",
 "N29": "Nau",
 "N30": "Naum",
 "N31": "Nav",
 "N32": "Naz",
 "N33": "Ne",
 "N34": "Nee",
 "N35": "Nei",
 "N36": "Nek",
 "N37": "Nel",
 "N38": "Nels",
 "N39": "Nem",
 "N40": "Nen",
 "N41": "Neo",
 "N42": "Nep",
 "N43": "Ner",
 "N44": "Nerv",
 "N45": "Nes",
 "N46": "Net",
 "N47": "Nett",
 "N48": "Neu",
 "N49": "Neum",
 "N50": "Neur",
 "N51": "Nev",
 "N52": "New",
 "N53": "Newm",
 "N54": "News",
 "N55": "Newt",
 "N56": "Ney",
 "N57": "Ni",
 "N58": "Nic",
 "N59": "Nico",
 "N60": "Nie",
 "N61": "Nieu",
 "N62": "Nig",
 "N63": "Nij",
 "N64": "Nik",
 "N65": "Nil",
 "N66": "Nim",
 "N67": "Nin",
 "N68": "Nip",
 "N69": "Nir",
 "N70": "Nis",
 "N71": "Nit",
 "N72": "Niv",
 "N73": "No",
 "N74": "Nol",
 "N75": "Nom",
 "N76": "Non",
 "N77": "Nor",
 "N78": "Nord",
 "N79": "Norm",
 "N80": "Norr",
 "N81": "Nors",
 "N82": "Nort",
 "N83": "Norv",
 "N84": "Norw",
 "N85": "Nos",
 "N86": "Not",
 "N87": "Nott",
 "N88": "Nou",
 "N89": "Nov",
 "N90": "Now",
 "N91": "Nu",
 "N92": "Num",
 "N93": "Nun",
 "N94": "Nur",
 "N95": "Nus",
 "N96": "Nut",
 "N97": "Ny",
 "N98": "Nys",
 "N99": "Nyt",
 "O-10": "O",
 "O-11": "Oa",
 "O-12": "Ob",
 "O-13": "Obi",
 "O-14": "Obl",
 "O-15": "Obo",
 "O-16": "Obr",
 "O-17": "Obs",
 "O-18": "Oc",
 "O-19": "Och",
 "O-20": "Oct",
 "O-21": "Ocu",
 "O-22": "Od",
 "O-23": "Odi",
 "O-24": "Odo",
 "O-25": "Odr",
 "O-26": "Ods",
 "O-27": "Odu",
 "O-28": "Oe",
 "O-29": "Oes",
 "O-30": "Oet",
 "O-31": "Oeu",
 "O-32": "Of",
 "O-33": "Off",
 "O-34": "Ofi",
 "O-35": "Og",
 "O-36": "Ogr",
 "O-37": "Oh",
 "O-38": "Oi",
 "O-39": "Ok",
 "O-40": "Oks",
 "O-41": "Ol",
 "O-42": "Old",
 "O-43": "Ole",
 "O-44": "Olg",
 "O-45": "Oli",
 "O-46": "Olk",
 "O-47": "Oll",
 "O-48": "Olm",
 "O-49": "Olo",
 "O-50": "Ols",
 "O-51": "Olu",
 "O-52": "Om",
 "O-53": "Omo",
 "O-54": "Oms",
 "O-55": "Omu",
 "O-56": "On",
 "O-57": "One",
 "O-58": "Ong",
 "O-59": "Oni",
 "O-60": "Ons",
 "O-61": "Ont",
 "O-62": "Oo",
 "O-63": "Op",
 "O-64": "Opo",
 "O-65": "Opp",
 "O-66": "Opt",
 "O-67": "Oq",
 "O-68": "Or",
 "O-69": "Ord",
 "O-70": "Ore",
 "O-71": "Orf",
 "O-72": "Org",
 "O-73": "Ori",
 "O-74": "Ork",
 "O-75": "Orl",
 "O-76": "Orm",
 "O-77": "Orn",
 "O-78": "Oro",
 "O-79": "Orr",
 "O-80": "Ors",
 "O-81": "Ort",
 "O-82": "Orv",
 "O-83": "Os",
 "O-84": "Osh",
 "O-85": "Osl",
 "O-86": "Osm",
 "O-87": "Oss",
 "O-88": "Ost",
 "O-89": "Osw",
 "O-90": "Ot",
 "O-91": "Ott",
 "O-92": "Ou",
 "O-93": "Our",
 "O-94": "Ouv",
 "O-95": "Ov",
 "O-96": "Ow",
 "O-97": "Ox",
 "O-98": "Oy",
 "O-99": "Oz",
 "P10": "P",
 "P11": "Pa",
 "P12": "Pad",
 "P13": "Pae",
 "P14": "Pag",
 "P15": "Pai",
 "P16": "Pak",
 "P17": "Pal",
 "P18": "Palm",
 "P19": "Palt",
 "P20": "Pam",
 "P21": "Pan",
 "P22": "Pao",
 "P23": "Pap",
 "P24": "Paq",
 "P25": "Par",
 "P26": "Park",
 "P27": "Parl",
 "P28": "Pars",
 "P29": "Part",
 "P30": "Pas",
 "P31": "Past",
 "P32": "Pat",
 "P33": "Pau",
 "P34": "Pav",
 "P35": "Pay",
 "P36": "Pe",
 "P37": "Pee",
 "P38": "Pei",
 "P39": "Pel",
 "P40": "Pem",
 "P41": "Pen",
 "P42": "Pep",
 "P43": "Per",
 "P44": "Perk",
 "P45": "Perl",
 "P46": "Perr",
 "P47": "Pers",
 "P48": "Pert",
 "P49": "Pes",
 "P50": "Pet",
 "P51": "Petr",
 "P52": "Pett",
 "P53": "Petz",
 "P54": "Pev",
 "P55": "Pf",
 "P56": "Ph",
 "P57": "Philo",
 "P58": "Pho",
 "P59": "Phy",
 "P60": "Pi",
 "P61": "Pie",
 "P62": "Pig",
 "P63": "Pik",
 "P64": "Pil",
 "P65": "Pin",
 "P66": "Pio",
 "P67": "Pip",
 "P68": "Pir",
 "P69": "Pis",
 "P70": "Pit",
 "P71": "Pl",
 "P72": "Plat",
 "P73": "Play",
 "P74": "Ple",
 "P75": "Pli",
 "P76": "Plo",
 "P77": "Plu",
 "P78": "Po",
 "P79": "Pok",
 "P80": "Pol",
 "P81": "Pom",
 "P82": "Pon",
 "P83": "Poo",
 "P84": "Pop",
 "P85": "Por",
 "P86": "Pos",
 "P87": "Pot",
 "P88": "Pou",
 "P89": "Pow",
 "P90": "Pr",
 "P91": "Pre",
 "P92": "Pri",
 "P93": "Pro",
 "P94": "Pru",
 "P95": "Prz",
 "P96": "Ps",
 "P97": "Pu",
 "P98": "Put",
 "P99": "Py",
 "Q10": "Q",
 "Q11": "Qi",
 "Q12": "Qua",
 "Q13": "Quad",
 "Q14": "Quadr",
 "Q15": "Quadru",
 "Q16": "Quai",
 "Q17": "Quak",
 "Q18": "Qual",
 "Q19": "Quali",
 "Q20": "Qualt",
 "Q21": "Quam",
 "Q22": "Quan",
 "Q23": "Quant",
 "Q24": "Quar",
 "Q25": "Quaro",
 "Q26": "Quarr",
 "Q27": "Quart",
 "Q28": "Quarti",
 "Q29": "Quarto",
 "Q30": "Quartz",
 "Q31": "Quas",
 "Q32": "Quat",
 "Q33": "Quatr",
 "Q34": "Quatu",
 "Q35": "Quax",
 "Q36": "Quay",
 "Q37": "Que",
 "Q38": "Quec",
 "Q39": "Quee",
 "Q40": "Quel",
 "Q41": "Quell",
 "Q42": "Quelt",
 "Q43": "Quem",
 "Q44": "Quen",
 "Q45": "Quer",
 "Q46": "Queri",
 "Q47": "Querl",
 "Q48": "Ques",
 "Q49": "Quest",
 "Q50": "Questi",
 "Q51": "Quet",
 "Q52": "Queu",
 "Q53": "Quev",
 "Q54": "Qui",
 "Q55": "Quic",
 "Q56": "Quid",
 "Q57": "Quie",
 "Q58": "Quig",
 "Q59": "Quil",
 "Q60": "Quim",
 "Q61": "Quin",
 "Q62": "Quinn",
 "Q63": "Quinq",
 "Q64": "Quint",
 "Q65": "Quinte",
 "Q66": "Quinti",
 "Q67": "Quinto",
 "Q68": "Quintz",
 "Q69": "Quinz",
 "Q70": "Quio",
 "Q71": "Quip",
 "Q72": "Quiq",
 "Q73": "Quir",
 "Q74": "Quiri",
 "Q75": "Quiro",
 "Q76": "Quirq",
 "Q77": "Quiru",
 "Q78": "Quis",
 "Q79": "Quisq",
 "Q80": "Quist",
 "Q81": "Quit",
 "Q82": "Quite",
 "Q83": "Quito",
 "Q84": "Quitt",
 "Q85": "Quitz",
 "Q86": "Quiv",
 "Q87": "Quiw",
 "Q88": "Quiz",
 "Q89": "Quoi",
 "Q90": "Quol",
 "Q91": "Quor",
 "Q92": "Quoru",
 "Q93": "Quos",
 "Q94": "Quot",
 "Q95": "Quotq",
 "Q96": "Qus",
 "Q97": "Quu",
 "Q98": "Qv",
 "Q99": "Qvi",
 "R10": "R",
 "R11": "Ra",
 "R12": "Rac",
 "R13": "Rad",
 "R14": "Rae",
 "R15": "Raf",
 "R16": "Rah",
 "R17": "Rai",
 "R18": "Ral",
 "R19": "Ram",
 "R20": "Ran",
 "R21": "Rao",
 "R22": "Rap",
 "R23": "Raq",
 "R24": "Ras",
 "R25": "Rat",
 "R26": "Rau",
 "R27": "Rav",
 "R28": "Raw",
 "R29": "Ray",
 "R30": "Re",
 "R31": "Rec",
 "R32": "Red",
 "R33": "Ree",
 "R34": "Ref",
 "R35": "Reg",
 "R36": "Reh",
 "R37": "Rei",
 "R38": "Reim",
 "R39": "Reis",
 "R40": "Reit",
 "R41": "Rel",
 "R42": "Rem",
 "R43": "Ren",
 "R44": "Rep",
 "R45": "Res",
 "R46": "Ret",
 "R47": "Reu",
 "R48": "Rev",
 "R49": "Rey",
 "R50": "Rez",
 "R51": "Rh",
 "R52": "Ri",
 "R53": "Rich",
 "R54": "Rid",
 "R55": "Rie",
 "R56": "Rig",
 "R57": "Ril",
 "R58": "Rim",
 "R59": "Rin",
 "R60": "Rio",
 "R61": "Rip",
 "R62": "Ris",
 "R63": "Rit",
 "R64": "Riv",
 "R65": "Riz",
 "R66": "Ro",
 "R67": "Robi",
 "R68": "Roc",
 "R69": "Rod",
 "R70": "Roe",
 "R71": "Rog",
 "R72": "Roh",
 "R73": "Roi",
 "R74": "Rol",
 "R75": "Rom",
 "R76": "Ron",
 "R77": "Roo",
 "R78": "Rop",
 "R79": "Ros",
 "R80": "Ross",
 "R81": "Rost",
 "R82": "Rot",
 "R83": "Rou",
 "R84": "Rov",
 "R85": "Row",
 "R86": "Rox",
 "R87": "Roy",
 "R88": "Ru",
 "R89": "Rue",
 "R90": "Ruh",
 "R91": "Rul",
 "R92": "Rum",
 "R93": "Run",
 "R94": "Rup",
 "R95": "Rus",
 "R96": "Rut",
 "R97": "Ruz",
 "R98": "Ry",
 "R99": "Rz",
 "S10": "S",
 "S11": "Sa",
 "S12": "Sad",
 "S13": "Sae",
 "S14": "Saf",
 "S15": "Sag",
 "S16": "Sai",
 "S17": "Sal",
 "S18": "Salv",
 "S19": "Sam",
 "S20": "San",
 "S21": "Sap",
 "S22": "Sar",
 "S23": "Sas",
 "S24": "Sat",
 "S25": "Sau",
 "S26": "Sav",
 "S27": "Saw",
 "S28": "Say",
 "S29": "Sb",
 "S30": "Sc",
 "S31": "Sch",
 "S32": "Schi",
 "S33": "Schl",
 "S34": "Schm",
 "S35": "Schn",
 "S36": "Scho",
 "S37": "Schr",
 "S38": "Schu",
 "S39": "Schw",
 "S40": "Sci",
 "S41": "Sco",
 "S42": "Scu",
 "S43": "Se",
 "S44": "Sei",
 "S45": "Sel",
 "S46": "Sem",
 "S47": "Sen",
 "S48": "Sep",
 "S49": "Ser",
 "S50": "Set",
 "S51": "Sev",
 "S52": "Sey",
 "S53": "Sh",
 "S54": "Shi",
 "S55": "Sho",
 "S56": "Shr",
 "S57": "Si",
 "S58": "Sie",
 "S59": "Sig",
 "S60": "Sil",
 "S61": "Sim",
 "S62": "Sin",
 "S63": "Sio",
 "S64": "Sir",
 "S65": "Sit",
 "S66": "Sk",
 "S67": "Sl",
 "S68": "Sm",
 "S69": "Sn",
 "S70": "So",
 "S71": "Som",
 "S72": "Son",
 "S73": "Sor",
 "S74": "Sot",
 "S75": "Sou",
 "S76": "Sov",
 "S77": "Soz",
 "S78": "Sp",
 "S79": "Spr",
 "S80": "Sq",
 "S81": "ST",
 "S82": "Ste",
 "S83": "Step",
 "S84": "Stev",
 "S85": "Sti",
 "S86": "Sto",
 "S87": "Stor",
 "S88": "Str",
 "S89": "Stro",
 "S90": "Stu",
 "S91": "Su",
 "S92": "Sun",
 "S93": "Sup",
 "S94": "Sur",
 "S95": "Sut",
 "S96": "Sv",
 "S97": "Sw",
 "S98": "Sy",
 "S99": "Sz",
 "T10": "T",
 "T11": "Ta",
 "T12": "Tad",
 "T13": "Taf",
 "T14": "Tag",
 "T15": "Tai",
 "T16": "Tak",
 "T17": "Tal",
 "T18": "Tam",
 "T19": "Tan",
 "T20": "Tap",
 "T21": "Tar",
 "T22": "Tas",
 "T23": "Tat",
 "T24": "Tau",
 "T25": "Tav",
 "T26": "Tax",
 "T27": "Tay",
 "T28": "Tb",
 "T29": "Te",
 "T30": "Tec",
 "T31": "Teg",
 "T32": "Tei",
 "T33": "Tel",
 "T34": "Tem",
 "T35": "Ten",
 "T36": "Teo",
 "T37": "Ter",
 "T38": "Tes",
 "T39": "Tet",
 "T40": "Teu",
 "T41": "Tew",
 "T42": "Tex",
 "T43": "Th",
 "T44": "The",
 "T45": "Thi",
 "T46": "Tho",
 "T47": "Thoms",
 "T48": "Thor",
 "T49": "Thr",
 "T50": "Thu",
 "T51": "Thy",
 "T52": "Ti",
 "T53": "Tid",
 "T54": "Tie",
 "T55": "Tig",
 "T56": "Tik",
 "T57": "Til",
 "T58": "Tim",
 "T59": "Tin",
 "T60": "Tio",
 "T61": "Tip",
 "T62": "Tir",
 "T63": "Tis",
 "T64": "Tit",
 "T65": "Tiv",
 "T66": "Tk",
 "T67": "To",
 "T68": "Tog",
 "T69": "Toi",
 "T70": "Tok",
 "T71": "Tol",
 "T72": "Tom",
 "T73": "Ton",
 "T74": "Too",
 "T75": "Top",
 "T76": "Tor",
 "T77": "Tos",
 "T78": "Tot",
 "T79": "Tou",
 "T80": "Tow",
 "T81": "Toy",
 "T82": "Tr",
 "T83": "Trau",
 "T84": "Tre",
 "T85": "Trev",
 "T86": "Tri",
 "T87": "tro",
 "T88": "Tru",
 "T89": "Ts",
 "T90": "Tu",
 "T91": "Tul",
 "T92": "Tum",
 "T93": "Tun",
 "T94": "Tup",
 "T95": "Tur",
 "T96": "Tus",
 "T97": "Tut",
 "T98": "Tw",
 "T99": "Ty",
 "U10": "U",
 "U11": "Ua",
 "U12": "Ub",
 "U13": "Ubi",
 "U14": "Ubr",
 "U15": "Uc",
 "U16": "Uch",
 "U17": "Ud",
 "U18": "Udi",
 "U19": "Udo",
 "U20": "Udr",
 "U21": "Ue",
 "U22": "Uf",
 "U23": "Uff",
 "U24": "Ug",
 "U25": "Ugr",
 "U26": "Uh",
 "U27": "Uhl",
 "U28": "Uhr",
 "U29": "Ui",
 "U30": "Uk",
 "U31": "Ukr",
 "U32": "Uks",
 "U33": "Ul",
 "U34": "Ule",
 "U35": "Ulf",
 "U36": "Uli",
 "U37": "Ulk",
 "U38": "Ull",
 "U39": "Ulm",
 "U40": "Ulp",
 "U41": "Ulr",
 "U42": "Uls",
 "U43": "Ult",
 "U44": "Um",
 "U45": "Umb",
 "U46": "Umf",
 "U47": "Umg",
 "U48": "Uml",
 "U49": "Ums",
 "U50": "Un",
 "U51": "Und",
 "U52": "Une",
 "U53": "Unf",
 "U54": "Ung",
 "U55": "Uni",
 "U56": "Unit",
 "U57": "Univ",
 "U58": "Unk",
 "U59": "Unn",
 "U60": "Uno",
 "U61": "Uns",
 "U62": "Unt",
 "U63": "Unv",
 "U64": "Unw",
 "U65": "Unz",
 "U66": "Uo",
 "U67": "Up",
 "U68": "Upi",
 "U69": "Upo",
 "U70": "Upp",
 "U71": "Ups",
 "U72": "Upt",
 "U73": "Ur",
 "U74": "Urc",
 "U75": "Ure",
 "U76": "Uri",
 "U77": "Urk",
 "U78": "Url",
 "U79": "Urm",
 "U80": "Urn",
 "U81": "Uro",
 "U82": "Urq",
 "U83": "Urr",
 "U84": "Urs",
 "U85": "Uru",
 "U86": "Urv",
 "U87": "Urz",
 "U88": "Us",
 "U89": "Usl",
 "U90": "Uss",
 "U91": "Ust",
 "U92": "Ut",
 "U93": "Utl",
 "U94": "Utr",
 "U95": "Utt",
 "U96": "Uv",
 "U97": "Uw",
 "U98": "Ux",
 "U99": "Uz",
 "V10": "V",
 "V11": "Va",
 "V12": "Vag",
 "V13": "Vah",
 "V14": "Vai",
 "V15": "Vak",
 "V16": "Val",
 "V17": "Vald",
 "V18": "Vale",
 "V19": "Vali",
 "V20": "Valk",
 "V21": "Vall",
 "V22": "Valo",
 "V23": "Vals",
 "V24": "Valt",
 "V25": "Vam",
 "V26": "Van",
 "V27": "Vano",
 "V28": "Vans",
 "V29": "Var",
 "V30": "Vas",
 "V31": "Vat",
 "V32": "Vau",
 "V33": "Vav",
 "V34": "Ve",
 "V35": "Vei",
 "V36": "Vel",
 "V37": "Vem",
 "V38": "Ven",
 "V39": "Vent",
 "V40": "Venu",
 "V41": "Ver",
 "V42": "Verh",
 "V43": "Verk",
 "V44": "Verl",
 "V45": "Verm",
 "V46": "Vern",
 "V47": "Vero",
 "V48": "Verp",
 "V49": "Verr",
 "V50": "Vers",
 "V51": "Vert",
 "V52": "Verz",
 "V53": "Ves",
 "V54": "Vet",
 "V55": "Veu",
 "V56": "Vev",
 "V57": "Vey",
 "V58": "Vi",
 "V59": "Vic",
 "V60": "Vid",
 "V61": "Vie",
 "V62": "Vig",
 "V63": "Vij",
 "V64": "Vik",
 "V65": "Vil",
 "V66": "Vilm",
 "V67": "Vils",
 "V68": "Vim",
 "V69": "Vin",
 "V70": "Vino",
 "V71": "Vint",
 "V72": "Vio",
 "V73": "Vip",
 "V74": "Vir",
 "V75": "Vis",
 "V76": "Vit",
 "V77": "Vitz",
 "V78": "Viu",
 "V79": "Viv",
 "V80": "Vix",
 "V81": "Viz",
 "V82": "Vl",
 "V83": "Vo",
 "V84": "Vof",
 "V85": "Vol",
 "V86": "Volk",
 "V87": "Voll",
 "V88": "Volt",
 "V89": "Vom",
 "V90": "Von",
 "V91": "Vop",
 "V92": "Vor",
 "V93": "Vos",
 "V94": "Vou",
 "V95": "Voz",
 "V96": "Vr",
 "V97": "Vs",
 "V98": "Vu",
 "V99": "Vy",
 "W10": "W",
 "W11": "Wa",
 "W12": "Wae",
 "W13": "Waf",
 "W14": "Wag",
 "W15": "Wah",
 "W16": "Wai",
 "W17": "Wak",
 "W18": "Wal",
 "W19": "Walk",
 "W20": "Wall",
 "W21": "Walt",
 "W22": "Walz",
 "W23": "Wam",
 "W24": "Wan",
 "W25": "Wap",
 "W26": "War",
 "W27": "Warr",
 "W28": "Wars",
 "W29": "Was",
 "W30": "Wass",
 "W31": "Wat",
 "W32": "Wats",
 "W33": "Watt",
 "W34": "Wau",
 "W35": "Wav",
 "W36": "Way",
 "W37": "We",
 "W38": "Wec",
 "W39": "Wee",
 "W40": "Weg",
 "W41": "Weh",
 "W42": "Wei",
 "W43": "Weig",
 "W44": "Weil",
 "W45": "Weim",
 "W46": "Wein",
 "W47": "Weis",
 "W48": "Weit",
 "W49": "Wel",
 "W50": "Well",
 "W51": "Wels",
 "W52": "Welt",
 "W53": "Wem",
 "W54": "Wen",
 "W55": "wer",
 "W56": "Wern",
 "W57": "Wert",
 "W58": "Wes",
 "W59": "West",
 "W60": "Wet",
 "W61": "Wev",
 "W62": "Wh",
 "W63": "Whi",
 "W64": "Who",
 "W65": "Wi",
 "W66": "Wie",
 "W67": "Wies",
 "W68": "Wil",
 "W69": "Will",
 "W70": "Wils",
 "W71": "Wim",
 "W72": "Win",
 "W73": "Wins",
 "W74": "Wint",
 "W75": "Wip",
 "W76": "Wir",
 "W77": "Wis",
 "W78": "Wit",
 "W79": "Wl",
 "W80": "Wo",
 "W81": "Wol",
 "W82": "Won",
 "W83": "Woo",
 "W84": "Wos",
 "W85": "Wot",
 "W86": "Wou",
 "W87": "Wr",
 "W88": "Wri",
 "W89": "Wro",
 "W90": "Wrz",
 "W91": "Ws",
 "W92": "Wu",
 "W93": "Wur",
 "W94": "Wus",
 "W95": "Wut",
 "W96": "Wy",
 "W97": "Wyl",
 "W98": "Wys",
 "W99": "Wz",
 "X10": "X",
 "X11": "Xa",
 "X12": "Xae",
 "X13": "Xai",
 "X14": "Xal",
 "X15": "Xalt",
 "X16": "Xam",
 "X17": "Xan",
 "X18": "Xano",
 "X19": "Xant",
 "X20": "Xanth",
 "X21": "Xao",
 "X22": "Xap",
 "X23": "Xar",
 "X24": "Xas",
 "X25": "Xat",
 "X26": "Xau",
 "X27": "Xav",
 "X28": "Xavi",
 "X29": "Xavu",
 "X30": "Xaw",
 "X31": "Xax",
 "X32": "Xay",
 "X33": "Xaz",
 "X34": "Xe",
 "X35": "Xei",
 "X36": "Xel",
 "X37": "Xem",
 "X38": "Xen",
 "X39": "Xeni",
 "X40": "Xeno",
 "X41": "Xenom",
 "X42": "Xenon",
 "X43": "Xenop",
 "X44": "Xenoph",
 "X45": "Xent",
 "X46": "Xer",
 "X47": "Xere",
 "X48": "Xeri",
 "X49": "Xerl",
 "X50": "Xerm",
 "X51": "Xern",
 "X52": "Xero",
 "X53": "Xerp",
 "X54": "Xerr",
 "X55": "Xert",
 "X56": "Xeru",
 "X57": "Xerx",
 "X58": "Xi",
 "X59": "Xif",
 "X60": "Xil",
 "X61": "Xim",
 "X62": "Xin",
 "X63": "Xio",
 "X64": "Xip",
 "X65": "Xir",
 "X66": "Xis",
 "X67": "Xit",
 "X68": "Xiu",
 "X69": "Xiv",
 "X70": "Xo",
 "X71": "Xod",
 "X72": "Xoe",
 "X73": "Xoi",
 "X74": "Xol",
 "X75": "Xom",
 "X76": "Xon",
 "X77": "Xop",
 "X78": "Xor",
 "X79": "Xos",
 "X80": "Xot",
 "X82": "Xou",
 "X81": "Xov",
 "X83": "Xu",
 "X84": "Xul",
 "X85": "Xum",
 "X86": "Xun",
 "X87": "Xup",
 "X88": "Xur",
 "X89": "Xus",
 "X90": "Xut",
 "X91": "Xuv",
 "X92": "Xy",
 "X93": "Xyl",
 "X94": "Xym",
 "X95": "Xyn",
 "X96": "Xyp",
 "X97": "Xyr",
 "X98": "Xys",
 "X99": "Xyt",
 "Y10": "Y",
 "Y11": "Ya",
 "Y12": "Yac",
 "Y13": "Yah",
 "Y14": "Yak",
 "Y15": "Yal",
 "Y16": "Yale",
 "Y17": "Yam",
 "Y18": "Yan",
 "Y19": "Yani",
 "Y20": "Yank",
 "Y21": "Yann",
 "Y22": "Yano",
 "Y23": "Yant",
 "Y24": "Yao",
 "Y25": "Yap",
 "Y26": "Yar",
 "Y27": "Yard",
 "Y28": "Yarm",
 "Y29": "Yaro",
 "Y30": "Yarr",
 "Y31": "Yas",
 "Y32": "Yat",
 "Y33": "Yatm",
 "Y34": "Yb",
 "Y35": "Yc",
 "Y36": "Yea",
 "Y37": "Year",
 "Y38": "Yeat",
 "Y39": "Yeg",
 "Y40": "Yel",
 "Y41": "Yem",
 "Y42": "Yen",
 "Y43": "Yeo",
 "Y44": "Yep",
 "Y45": "Yer",
 "Y46": "Yes",
 "Y47": "Yet",
 "Y48": "Yew",
 "Y49": "Yh",
 "Y50": "Yi",
 "Y51": "Yk",
 "Y52": "Yl",
 "Y53": "Ym",
 "Y54": "Yn",
 "Y55": "Yo",
 "Y56": "Yok",
 "Y57": "Yol",
 "Y58": "Yom",
 "Y59": "Yon",
 "Y60": "Yong",
 "Y61": "Yonn",
 "Y62": "Yop",
 "Y63": "Yor",
 "Y64": "York",
 "Y65": "Yorks",
 "Y66": "Yos",
 "Y67": "Yost",
 "Y68": "Yot",
 "Y69": "You",
 "Y70": "Young",
 "Y71": "Youngm",
 "Y72": "Youngs",
 "Y73": "Your",
 "Y74": "Yous",
 "Y75": "Yout",
 "Y76": "Youv",
 "Y77": "Youx",
 "Y78": "Yov",
 "Y79": "Yox",
 "Y80": "Yoz",
 "Y81": "Yp",
 "Y82": "Ypr",
 "Y83": "Yps",
 "Y84": "Yr",
 "Y85": "Yri",
 "Y86": "Yrk",
 "Y87": "Ys",
 "Y88": "Yss",
 "Y89": "Yst",
 "Y90": "Yt",
 "Y91": "Yu",
 "Y92": "Yul",
 "Y93": "Yum",
 "Y94": "Yun",
 "Y95": "Yur",
 "Y96": "Yus",
 "Y97": "Yv",
 "Y98": "Yvo",
 "Y99": "Yvr",
 "Z10": "Z",
 "Z11": "Za",
 "Z12": "Zac",
 "Z13": "Zach",
 "Z14": "Zacu",
 "Z15": "Zae",
 "Z16": "Zag",
 "Z17": "Zah",
 "Z18": "Zai",
 "Z19": "Zak",
 "Z20": "Zal",
 "Z21": "Zam",
 "Z22": "Zamp",
 "Z23": "Zan",
 "Z24": "Zang",
 "Z25": "Zani",
 "Z26": "Zank",
 "Z27": "Zann",
 "Z28": "Zano",
 "Z29": "Zanz",
 "Z30": "Zap",
 "Z31": "Zapp",
 "Z32": "Zar",
 "Z33": "Zaro",
 "Z34": "Zarr",
 "Z35": "Zart",
 "Z36": "Zas",
 "Z37": "Zat",
 "Z38": "Zau",
 "Z39": "Zav",
 "Z40": "Zb",
 "Z41": "Zd",
 "Z42": "Ze",
 "Z43": "Zec",
 "Z44": "Zed",
 "Z45": "Zeg",
 "Z46": "Zeh",
 "Z47": "Zei",
 "Z48": "Zeil",
 "Z49": "Zeis",
 "Z50": "Zeit",
 "Z51": "Zel",
 "Z52": "Zelt",
 "Z53": "Zem",
 "Z54": "Zen",
 "Z55": "Zeo",
 "Z56": "Zep",
 "Z57": "Zer",
 "Z58": "Zes",
 "Z59": "Zet",
 "Z60": "Zeu",
 "Z61": "Zev",
 "Z62": "Zey",
 "Z63": "Zi",
 "Z64": "Zie",
 "Z65": "Zif",
 "Z66": "Zik",
 "Z67": "Zil",
 "Z68": "Zim",
 "Z69": "Zin",
 "Z70": "Zinn",
 "Z71": "Zio",
 "Z72": "Zip",
 "Z73": "Zir",
 "Z74": "Zis",
 "Z75": "Zit",
 "Z76": "Ziv",
 "Z77": "Ziz",
 "Z78": "Zl",
 "Z79": "Zm",
 "Z80": "Zn",
 "Z81": "Zo",
 "Z82": "Zol",
 "Z83": "Zon",
 "Z84": "Zoo",
 "Z85": "Zop",
 "Z86": "Zor",
 "Z87": "Zou",
 "Z88": "Zs",
 "Z89": "Zt",
 "Z90": "Zu",
 "Z91": "Zug",
 "Z92": "Zum",
 "Z93": "Zun",
 "Z94": "Zur",
 "Z95": "Zuw",
 "Z96": "Zv",
 "Z97": "Zw",
 "Z98": "Zwe",
 "Z99": "Zy",
 "Э1": "э",
 "Я42": "яицо"
}