А   А11   
Аб   А12   
Абай   А13   
Абак   А13   
Абд   А14   
Абдр   А14   
Абду   А14   
Абді   А14   
Абл   А15   
Абр   А16   
Ав   А17   
Ави   А18   
Аг   А19   
Аги   А20   
Агиб   А20   
Агр   А21   
Аға   А22   
Ағы   А23   
Ағыб   А23   
Ад   А24   
Адам   А24   
Ади   А25   
Ады   А26   
Ае   А27   
Аж   А28   
Аз   А29   
Ази   А30   
Ай   А31   
Айбе   А31   
Айда   А31   
Айма   А31   
Айна   А31   
Айт   А32   
Айта   А32   
Айтб   А32   
Айтм   А32   
Айто   А32   
Айтх   А32   
Айым   А32   
Ак   А33   
Аки   А34   
Акс   А35   
Аку   А36   
Ақ   А37   
Ақат   А37   
Ақдә   А37   
Ақпа   А37   
Ақсұ   А37   
Ақта   А37   
Ақшо   А37   
Ақы   А38   
Ақып   А38   
Ақыш   А38   
Ал   А39   
Алд   А40   
Алда   А40   
Алекс   А41   
Алексе   А42   
Алех   А43   
Али   А44   
Алм   А45   
Алпы   А45   
Алт   А46   
Алта   А46   
Алты   А46   
Алф   А47   
Алшы   А47   
Алы   А48   
Алыб   А48   
Аль   А49   
Альм   А50   
Аля   А51   
Аман   А52   
Амир   А53   
Амри   А54   
Амф   А55   
Ан   А56   
Анан   А56   
Анар   А56   
Анд   А57   
Анде   А57   
Андр   А58   
Андре   А58   
Ани   А59   
Анн   А60   
Ано   А61   
Анов   А61   
Анр   А62   
Анс   А63   
Ант   А64   
Ану   А65   
Анф   А66   
Аң   А67   
Аңы   А68   
Ао   А69   
Аор   А70   
Апа   А71   
Апар   А72   
Апр   А73   
Апу   А74   
Ар   А75   
Арғы   А75   
Аре   А76   
Ари   А77   
Арк   А78   
Арм   А79   
Арн   А80   
Арс   А81   
Арсе   А81   
Арт   А82   
Арты   А82   
Арх   А83   
Арха   А83   
Арц   А84   
Арш   А85   
Ары   А86   
Аса   А87   
Асаб   А87   
Асан   А87   
Аси   А88   
Асқа   А88   
Аст   А89   
Аста   А89   
Асыл   А89   
Ат   А90   
Атым   А90   
Ау   А91   
Аупб   А91   
Аф   А92   
Ах   А93   
Ахан   А93   
Ахм   А94   
Ахма   А94   
Ахме   А94   
Ахта   А94   
Ац   А95   
Ач   А96   
Аш   А97   
Ашық   А97   
Аю   А98   
Ая   А99   
Аяпо   А99   
Аяше   А99   
Ә   Ә11   
Әб   Ә12   
Әбд   Ә13   
Әбді   Ә14   
Әбе   Ә15   
Әбен   Ә15   
Әбет   Ә16   
Әбж   Ә17   
Әбжа   Ә17   
Әби   Ә18   
Әбие   Ә18   
Әбсә   Ә18   
Әбу   Ә19   
Әбуе   Ә19   
Әбут   Ә19   
Әбі   Ә20   
Әбіл   Ә20   
Әбіш   Ә21   
Әде   Ә22   
Әдем   Ә23   
Әдет   Ә24   
Әді   Ә25   
Әдіб   Ә25   
Әділ   Ә25   
Әдіс   Ә26   
Әж   Ә27   
Әжі   Ә28   
Әжік   Ә29   
Әжім   Ә30   
Әз   Ә31   
Әзе   Ә32   
Әзи   Ә33   
Әзие   Ә33   
Әзі   Ә34   
Әзіл   Ә35   
Әзір   Ә36   
Әй   Ә37   
Әйе   Ә38   
Әйн   Ә39   
Әйт   Ә40   
Әйі   Ә41   
Әк   Ә42   
Әке   Ә43   
Әки   Ә44   
Әкр   Ә45   
Әкі   Ә46   
Әкім   Ә47   
Әкір   Ә48   
Әл   Ә49   
Әлд   Ә50   
Әлди   Ә50   
Әле   Ә51   
Әлем   Ә52   
Әлен   Ә52   
Әлеу   Ә53   
Әлжі   Ә53   
Әли   Ә54   
Әлие   Ә54   
Әлма   Ә54   
Әлпе   Ә54   
Әлсе   Ә54   
Әлі   Ә55   
Әліб   Ә55   
Әлім   Ә55   
Әліш   Ә55   
Әм   Ә56   
Әми   Ә57   
Әмі   Ә58   
Әмір   Ә58   
Ән   Ә59   
Әнд   Ә60   
Әне   Ә61   
Әни   Ә62   
Әнуа   Ә62   
Әнше   Ә63   
Әні   Ә64   
Әң   Ә65   
Әңг   Ә66   
Әп   Ә67   
Әр   Ә68   
Әри   Ә69   
Әрп   Ә70   
Әрт   Ә71   
Әрі   Ә72   
Әс   Ә73   
Әсе   Ә74   
Әси   Ә75   
Әск   Ә76   
Әсі   Ә77   
Әсіп   Ә77   
Әт   Ә78   
Әу   Ә79   
Әуб   Ә80   
Әубә   Ә80   
Әуд   Ә81   
Әуез   Ә82   
Әуезов   Ә82   
Әуел   Ә83   
Әуес   Ә84   
Әук   Ә85   
Әуке   Ә86   
Әукі   Ә87   
Әул   Ә88   
Әус   Ә89   
Әут   Ә90   
Әш   Ә91   
Әше   Ә92   
Әшен   Ә92   
Әши   Ә93   
Әшу   Ә94   
Әші   Ә95   
Әшім   Ә95   
Әшір   Ә96   
Әю   Ә97   
Әюп   Ә98   
Әюш   Ә99   
Б   Б11   
Ба   Б12   
Баба   Б12   
Бабы   Б12   
Бағ   Б13   
Баға   Б13   
Бад   Б14   
Бады   Б14   
Баеш   Б14   
Баж   Б15   
Баз   Б16   
База   Б16   
Бай   Б17   
Байб   Б17   
Байғ   Б17   
Байд   Б17   
Байж   Б17   
Байз   Б17   
Байк   Б18   
Байқ   Б19   
Байм   Б20   
Байп   Б20   
Байр   Б20   
Байс   Б20   
Байт   Б20   
Байх   Б20   
Бак   Б21   
Баки   Б21   
Бақб   Б21   
Бақт   Б21   
Бал   Б22   
Бала   Б22   
Балғ   Б22   
Балт   Б22   
Баль   Б23   
Бан   Б24   
Баны   Б24   
Бап   Б24   
Бар   Б25   
Бара   Б25   
Барт   Б25   
Бару   Б25   
Бас   Б26   
Бат   Б27   
Баты   Б27   
Бау   Б28   
Бауб   Б28   
Бах   Б29   
Бахр   Б29   
Баш   Б30   
Баши   Б30   
Бая   Б31   
Баяз   Б31   
Баял   Б31   
Баян   Б31   
Бә   Б32   
Бәді   Б32   
Бәкі   Б32   
Бәрм   Б32   
Бәті   Б32   
Бе   Б33   
Бег   Б34   
Бега   Б34   
Бед   Б35   
Без   Б36   
Беи   Б37   
Бейн   Б38   
Бейс   Б38   
Бейі   Б38   
Бек   Б39   
Бекб   Б39   
Беке   Б39   
Бекм   Б39   
Бект   Б40   
Бекх   Б40   
Бел   Б41   
Белб   Б41   
Бель   Б42   
Беля   Б42   
Бен   Б43   
Бер   Б44   
Бера   Б44   
Берд   Б45   
Бере   Б45   
Берм   Б46   
Берн   Б46   
Берс   Б46   
Берт   Б47   
Бес   Б48   
Бет   Б49   
Беу   Б50   
Беш   Б51   
Би   Б52   
Биан   Б52   
Биге   Б52   
Биза   Б52   
Бик   Б53   
Бим   Б54   
Бима   Б54   
Бин   Б55   
Био   Б56   
Бир   Б57   
Бис   Б58   
Бит   Б59   
Бич   Б60   
Бия   Б61   
Бл   Б62   
Бли   Б63   
Бло   Б64   
Блок   Б64   
Блю   Б65   
Бо   Б66   
Бог   Б67   
Богд   Б67   
Бого   Б68   
Бод   Б69   
Бода   Б69   
Боды   Б69   
Бож   Б70   
Бозж   Б70   
Бой   Б71   
Бойц   Б71   
Бок   Б72   
Боқа   Б72   
Бол   Б73   
Бола   Б73   
Болғ   Б73   
Болд   Б73   
Бом   Б74   
Бон   Б75   
Бонд   Б75   
Бор   Б76   
Бора   Б76   
Бори   Б76   
Бос   Б77   
Боса   Б77   
Бота   Б77   
Ботб   Б77   
Бө   Б78   
Бөде   Б78   
Бөже   Б78   
Бөке   Б78   
Бөр   Б79   
Бр   Б80   
Бро   Б81   
Бру   Б82   
Бу   Б83   
Буке   Б83   
Бун   Б84   
Бус   Б85   
Бут   Б86   
Бух   Б87   
Бұ   Б88   
Бұғы   Б88   
Бұл   Б89   
Бұлқ   Б89   
Бұх   Б90   
Бү   Б91   
Бүрк   Б91   
Бы   Б92   
Быс   Б93   
Бі   Б94   
Бірм   Б94   
Бірі   Б94   
Бь   Б95   
Бэ   Б96   
Бю   Б97   
Бя   Б98   
Бян   Б99   
В   В11   
Ва   В12   
Ваз   В13   
Ваи   В14   
Вал   В15   
Валь   В16   
Ван   В17   
Ванг   В17   
Вар   В18   
Вас   В19   
Васи   В19   
Ват   В20   
Вах   В21   
Ваш   В22   
Вә   В23   
Вв   В24   
Вд   В25   
Вел   В26   
Вель   В27   
Веп   В28   
Вер   В29   
Вере   В30   
Вери   В31   
Верл   В32   
Верм   В33   
Верн   В34   
Верх   В35   
Верш   В36   
Вес   В37   
Вет   В38   
Веш   В39   
Ви   В40   
Вид   В41   
Вик   В42   
Вил   В43   
Виль   В44   
Вим   В45   
Вин   В46   
Вип   В47   
Вир   В48   
Вис   В49   
Вит   В50   
Виш   В51   
Вк   В52   
Вла   В53   
Влас   В54   
Влаш   В55   
Вн   В56   
Во   В57   
Вод   В58   
Вое   В59   
Воз   В60   
Вой   В61   
Вок   В62   
Вол   В63   
Воло   В64   
Волш   В65   
Волы   В66   
Воль   В67   
Вольф   В68   
Вон   В69   
Воп   В70   
Вор   В71   
Воро   В71   
Вос   В72   
Воск   В73   
Восп   В74   
Вост   В75   
Вот   В76   
Вош   В77   
Вро   В78   
Вру   В79   
Вс   В80   
Все   В81   
Вся   В82   
Ву   В83   
Вун   В84   
Вуч   В85   
Вуш   В86   
Вұ   В87   
Вү   В88   
Вш   В89   
Вы   В90   
Выс   В91   
Вых   В92   
Выш   В93   
Ві   В94   
Вь   В95   
Вэ   В96   
Вю   В97   
Вя   В98   
Вязь   В99   
Г   Г11   
Га   Г12   
Гав   Г13   
Гай   Г14   
Гак   Г15   
Гал   Г16   
Галк   Г16   
Гам   Г17   
Ган   Г18   
Гане   Г18   
Гар   Г19   
Гарш   Г19   
Гас   Г20   
Гау   Г21   
Гаше   Г21   
Гә   Г22   
Гд   Г23   
Ге   Г24   
Гед   Г25   
Гей   Г26   
Гейн   Г26   
Гек   Г27   
Гель   Г28   
Гем   Г29   
Ген   Г30   
Гео   Г31   
Геол   Г32   
Геор   Г32   
Гер   Г33   
Гера   Г33   
Герм   Г34   
Герн   Г35   
Герт   Г36   
Геру   Г37   
Герш   Г38   
Гес   Г39   
Гет   Г40   
Гете   Г40   
Геф   Г41   
Ги   Г42   
Гиб   Г43   
Гил   Г44   
Гим   Г45   
Гин   Г46   
Гир   Г47   
Гле   Г48   
Гли   Г49   
Глу   Г50   
Гн   Г51   
Го   Г52   
Гог   Г53   
Гого   Г53   
Год   Г54   
Гоз   Г55   
Гой   Г56   
Гол   Г57   
Голь   Г58   
Гом   Г59   
Гон   Г60   
Гонч   Г60   
Гоп   Г61   
Гор   Г62   
Горб   Г63   
Горд   Г64   
Горе   Г64   
Горн   Г65   
Горо   Г66   
Горь   Г67   
Гос   Г68   
Гот   Г69   
Гото   Г70   
Гө   Г71   
Гра   Г72   
Грам   Г73   
Гран   Г74   
Граф   Г75   
Гре   Г76   
Грек   Г77   
Грет   Г78   
Греч   Г79   
Гри   Г80   
Григ   Г81   
Грим   Г82   
Грин   Г83   
Гро   Г84   
Гром   Г85   
Грос   Г86   
Грот   Г87   
Гру   Г88   
Груш   Г89   
Грю   Г90   
Гу   Г91   
Гули   Г91   
Гуме   Г91   
Гуми   Г91   
Гуп   Г92   
Гур   Г93   
Гус   Г94   
Гусе   Г94   
Гут   Г95   
Гущ   Г96   
Гү   Г97   
Гі   Г98   
Гю   Г99   
Гюго   Г99   
Гюль   Г99   
Ғ   Ғ11   
Ғаб   Ғ12   
Ғабб   Ғ12   
Ғабд   Ғ13   
Ғабе   Ғ14   
Ғаби   Ғ14   
Ғад   Ғ15   
Ғади   Ғ16   
Ғаду   Ғ17   
Ғады   Ғ18   
Ғаж   Ғ19   
Ғажы   Ғ20   
Ғаз   Ғ21   
Ғази   Ғ22   
Ғазу   Ғ23   
Ғазы   Ғ24   
Ғай   Ғ25   
Ғайн   Ғ26   
Ғайш   Ғ27   
Ғайы   Ғ28   
Ғақ   Ғ29   
Ғақы   Ғ30   
Ғал   Ғ31   
Ғали   Ғ32   
Ғалм   Ғ33   
Ғалт   Ғ34   
Ғалу   Ғ35   
Ғалұ   Ғ36   
Ғалы   Ғ37   
Ғалым   Ғ38   
Ғам   Ғ39   
Ғама   Ғ40   
Ғаму   Ғ41   
Ғамы   Ғ42   
Ған   Ғ43   
Ғанс   Ғ44   
Ғант   Ғ45   
Ғанш   Ғ46   
Ғані   Ғ47   
Ғаң   Ғ48   
Ғап   Ғ49   
Ғапи   Ғ50   
Ғапу   Ғ51   
Ғар   Ғ52   
Ғари   Ғ53   
Ғару   Ғ54   
Ғарш   Ғ55   
Ғары   Ғ56   
Ғас   Ғ57   
Ғаси   Ғ58   
Ғасу   Ғ59   
Ғасы   Ғ60   
Ғат   Ғ61   
Ғати   Ғ62   
Ғату   Ғ63   
Ғаты   Ғ64   
Ғау   Ғ65   
Ғаф   Ғ66   
Ғаш   Ғ67   
Ғаши   Ғ68   
Ғи   Ғ69   
Ғиз   Ғ70   
Ғиза   Ғ70   
Ғим   Ғ71   
Ғин   Ғ72   
Ғиш   Ғ73   
Ғо   Ғ74   
Ғоғ   Ғ75   
Ғод   Ғ76   
Ғоз   Ғ77   
Ғой   Ғ78   
Ғок   Ғ79   
Ғоқ   Ғ80   
Ғол   Ғ81   
Ғом   Ғ82   
Ғон   Ғ83   
Ғоп   Ғ84   
Ғор   Ғ85   
Ғос   Ғ86   
Ғот   Ғ87   
Ғош   Ғ88   
Ғу   Ғ89   
Ғум   Ғ90   
Ғун   Ғ91   
Ғус   Ғ92   
Ғуш   Ғ93   
Ғұ   Ғ94   
Ғұла   Ғ94   
Ғы   Ғ95   
Ғыл   Ғ96   
Ғым   Ғ97   
Ғын   Ғ98   
Ғың   Ғ99   
Д   Д11   
Да   Д12   
Дав   Д13   
Дай   Д14   
Дайы   Д14   
Дақ   Д15   
Дала   Д15   
Дан   Д16   
Дана   Д16   
Дани   Д16   
Даң   Д17   
Дар   Д18   
Даст   Д18   
Дау   Д19   
Даум   Д19   
Дашд   Д19   
Дә   Д20   
Дәде   Д20   
Дәрі   Д20   
Дәс   Д21   
Дәу   Д22   
Дәул   Д22   
Дәур   Д22   
Дәут   Д22   
Дәуі   Д22   
Два   Д23   
Две   Д24   
Дво   Д25   
Дву   Д26   
Дег   Д27   
Дежк   Д27   
Дек   Д28   
Дем   Д29   
Демь   Д30   
Ден   Д31   
Деп   Д32   
Дер   Д33   
Дерб   Д33   
Дес   Д34   
Деу   Д35   
Деф   Д36   
Дефо   Д36   
Дж   Д37   
Джи   Д38   
Дз   Д39   
Ди   Д40   
Дик   Д41   
Дик,   Д41   
Дикк   Д41   
Дил   Д42   
Дир   Д43   
Дис   Д44   
Дит   Д45   
Диф   Д46   
Дл   Д47   
Для   Д48   
Дм   Д49   
Дн   Д50   
До   Д51   
Доб   Д52   
Дов   Д53   
Дог   Д54   
Дод   Д55   
Дож   Д56   
Доз   Д57   
Док   Д58   
Дол   Д59   
Дом   Д60   
Домб   Д60   
Дон   Д61   
Доп   Д62   
Дор   Д63   
Дорж   Д63   
Доро   Д63   
Дос   Д64   
Доса   Д64   
Досж   Д64   
Досм   Д64   
Досп   Д64   
Дост   Д64   
Досы   Д64   
Доу   Д65   
Дө   Д66   
Дөн   Д67   
Дөне   Д67   
Дөң   Д68   
Др   Д69   
Драй   Д69   
Дре   Д70   
Дреп   Д71   
Дри   Д72   
Дро   Д73   
Дру   Д74   
Друц   Д74   
Дрэ   Д75   
Дрю   Д76   
Ду   Д77   
Дуг   Д78   
Дуд   Д79   
Дула   Д79   
Дум   Д80   
Думб   Д80   
Дун   Д81   
Дур   Д82   
Дут   Д83   
Дух   Д84   
Душ   Д85   
Дұ   Д86   
Дү   Д87   
Дүзе   Д87   
Дүйс   Д87   
Дүке   Д87   
Ды   Д88   
Дых   Д89   
Ді   Д90   
Дін   Д91   
Діни   Д91   
Дь   Д92   
Дья   Д93   
Дэ   Д94   
Дю   Д95   
Дюм   Д96   
Дюма   Д96   
Дюр   Д97   
Дющ   Д98   
Дя   Д99   
Е   Е11   
Ев   Е12   
Евг   Е13   
Евд   Е14   
Евдо   Е14   
Еве   Е15   
Евл   Е16   
Евм   Е17   
Евн   Е18   
Евп   Е19   
Евр   Е20   
Евро   Е21   
Евс   Е22   
Ег   Е23   
Егем   Е23   
Егеу   Е23   
Еги   Е24   
Его   Е25   
Егу   Е26   
Егі   Е27   
Егіз   Е27   
Ед   Е28   
Еди   Е29   
Едн   Е30   
Еді   Е31   
Еділ   Е31   
Еж   Е32   
Еже   Е33   
Ежи   Е34   
Ежо   Е35   
Ез   Е36   
Езо   Е37   
Ей   Е38   
Ек   Е39   
Екі   Е40   
Ел   Е41   
Елаг   Е42   
Елан   Е43   
Елач   Е44   
Еле   Е45   
Елем   Е45   
Елеу   Е45   
Ели   Е46   
Елң   Е47   
Ело   Е48   
Елп   Е49   
Елуб   Е49   
Елші   Е49   
Елі   Е50   
Ель   Е51   
Ельц   Е52   
Ем   Е53   
Ен   Е54   
Енд   Е55   
Ени   Е56   
Ену   Е57   
Ең   Е58   
Еңқ   Е59   
Еп   Е60   
Епе   Е61   
Епи   Е62   
Епо   Е63   
Ер   Е64   
Ербо   Е64   
Ерг   Е65   
Ергө   Е65   
Ерға   Е65   
Ере   Е66   
Ержа   Е66   
Ери   Е67   
Ерк   Е68   
Ерке   Е68   
Еркі   Е68   
Ерм   Е69   
Ерма   Е69   
Ерме   Е69   
Ермо   Е70   
Ерн   Е71   
Ерне   Е72   
Еро   Е73   
Ероф   Е74   
Еру   Е75   
Еруб   Е75   
Ерш   Е76   
Ершу   Е76   
Ері   Е77   
Ерім   Е77   
Ес   Е78   
Есдә   Е78   
Есе   Е79   
Есен   Е79   
Еси   Е80   
Еск   Е81   
Есқ   Е82   
Есқа   Е82   
Есла   Е83   
Есм   Е83   
Есма   Е83   
Есмы   Е83   
Есп   Е84   
Еспа   Е84   
Ест   Е85   
Есте   Е85   
Есу   Е86   
Есім   Е86   
Есь   Е87   
Ет   Е88   
Етек   Е88   
Еу   Е89   
Еф   Е90   
Ефи   Е91   
Ефим   Е91   
Ефр   Е92   
Ех   Е93   
Ец   Е94   
Еч   Е95   
Еш   Е96   
Ещ   Е97   
Ею   Е98   
Ея   Е99   
Ж   Ж11   
Жа   Ж12   
Жаб   Ж13   
Жаг   Ж14   
Жағ   Ж15   
Жағы   Ж15   
Жад   Ж16   
Жае   Ж17   
Жаз   Ж18   
Жай   Ж19   
Жайл   Ж19   
Жак   Ж20   
Жақ   Ж21   
Жақа   Ж21   
Жақс   Ж21   
Жақы   Ж21   
Жал   Ж22   
Жалп   Ж23   
Жалс   Ж23   
Жам   Ж24   
Жама   Ж24   
Жамб   Ж25   
Жамбыл   Ж25   
Жан   Ж26   
Жана   Ж26   
Жанә   Ж26   
Жанб   Ж26   
Жанг   Ж26   
Жанғ   Ж26   
Жанд   Ж26   
Жанс   Ж27   
Жансүгіров   Ж27   
Жант   Ж27   
Жаң   Ж28   
Жаңы   Ж29   
Жап   Ж30   
Жапп   Ж30   
Жапс   Ж30   
Жар   Ж31   
Жарк   Ж31   
Жарм   Ж31   
Жаро   Ж32   
Жары   Ж32   
Жас   Ж33   
Жат   Ж34   
Жатк   Ж34   
Жатқ   Ж34   
Жау   Ж35   
Жә   Ж36   
Жәке   Ж36   
Жәле   Ж36   
Жәмі   Ж36   
Жәні   Ж36   
Жәр   Ж37   
Жәрк   Ж37   
Жәут   Ж37   
Жб   Ж38   
Жд   Ж39   
Жеб   Ж40   
Жег   Ж41   
Жек   Ж42   
Жекс   Ж42   
Жел   Ж43   
Желд   Ж43   
Жем   Ж44   
Жеме   Ж44   
Жен   Ж45   
Жене   Ж46   
Жең   Ж47   
Жео   Ж48   
Жеп   Ж49   
Жер   Ж50   
Жера   Ж51   
Жерг   Ж52   
Жерм   Ж53   
Жерс   Ж54   
Жес   Ж55   
Жет   Ж56   
Жетп   Ж56   
Жи   Ж57   
Жив   Ж58   
Жиг   Ж59   
Жие   Ж60   
Жиен   Ж60   
Жиз   Ж61   
Жил   Ж62   
Жип   Ж63   
Жире   Ж63   
Жит   Ж64   
Житк   Ж64   
Жих   Ж65   
Жиш   Ж66   
Жм   Ж67   
Жо   Ж68   
Жойқ   Ж68   
Жол   Ж69   
Жолд   Ж69   
Жолы   Ж69   
Жон   Ж70   
Жор   Ж71   
Жос   Ж72   
Жө   Ж73   
Жөн   Ж74   
Жөп   Ж75   
Жөр   Ж76   
Жу   Ж77   
Жум   Ж78   
Жуп   Ж79   
Жұ   Ж80   
Жұба   Ж80   
Жұм   Ж81   
Жұма   Ж81   
Жұр   Ж82   
Жұрт   Ж82   
Жұс   Ж83   
Жұт   Ж84   
Жү   Ж85   
Жүк   Ж86   
Жүл   Ж87   
Жүн   Ж88   
Жүні   Ж88   
Жүп   Ж89   
Жүс   Ж90   
Жүт   Ж91   
Жы   Ж92   
Жылқ   Ж92   
Жі   Ж93   
Жір   Ж94   
Жэ   Ж95   
Жю   Ж96   
Жюл   Ж97   
Жюр   Ж98   
Жя   Ж99   
З   З-11   
За   З-12   
Заг   З-13   
Зад   З-14   
Зай   З-15   
Зак   З-16   
Закр   З-17   
Зал   З-18   
Зало   З-19   
Заль   З-20   
Зам   З-21   
Заң   З-22   
Зао   З-23   
Зап   З-24   
Запо   З-25   
Зар   З-26   
Зас   З-27   
Зат   З-28   
Зау   З-29   
Зах   З-30   
Зач   З-31   
Защ   З-32   
Зә   З-33   
Зәке   З-33   
Зәр   З-34   
Зб   З-35   
Зв   З-36   
Звер   З-36   
Зво   З-37   
Звя   З-38   
Зғ   З-39   
Зд   З-40   
Зе   З-41   
Зел   З-42   
Зем   З-43   
Земл   З-44   
Земн   З-45   
Земс   З-46   
Зең   З-47   
Зеп   З-48   
Зер   З-49   
Зи   З-50   
Зик   З-51   
Зил   З-52   
Зим   З-53   
Зин   З-54   
Зип   З-55   
Зис   З-56   
Зих   З-57   
Зл   З-58   
Зло   З-59   
Змо   З-60   
Зна   З-61   
Знак   З-62   
Знам   З-63   
Знан   З-64   
Знат   З-65   
Знах   З-66   
Знач   З-67   
Зно   З-68   
Зо   З-69   
Зол   З-70   
Золо   З-71   
Зом   З-72   
Зон   З-73   
Зоң   З-74   
Зоо   З-75   
Зор   З-76   
Зос   З-77   
Зот   З-78   
Зө   З-79   
Зөм   З-80   
Зөр   З-81   
Зр   З-82   
Зри   З-83   
Зу   З-84   
Зуд   З-85   
Зұ   З-86   
Зұл   З-87   
Зұр   З-88   
Зү   З-89   
Зүе   З-90   
Зүп   З-91   
Зүс   З-92   
Зы   З-93   
Зыр   З-94   
Зі   З-95   
Зіб   З-96   
Зікі   З-96   
Зір   З-97   
Зю   З-98   
Зя   З-99   
И   И11   
Иа   И12   
Иаса   И12   
Иб   И13   
Ибе   И14   
Ибр   И15   
Ибра   И15   
Ива   И16   
Иван   И17   
Иванов   И18   
Иванц   И19   
Иваш   И20   
Иве   И21   
Иг   И22   
Иген   И22   
Игр   И23   
Игу   И24   
Иғ   И25   
Ид   И26   
Идр   И27   
Ие   И28   
Иж   И29   
Из   И30   
Изв   И31   
Изве   И31   
Изг   И32   
Изд   И33   
Изм   И34   
Изо   И35   
Изр   И36   
Ик   И37   
Ико   И38   
Иқ   И39   
Ил   И40   
Илл   И41   
Иль   И42   
Ильи   И43   
Ильк   И44   
Ильм   И45   
Илья   И46   
Им   И47   
Има   И48   
Иман   И48   
Имаш   И48   
Ими   И49   
Имм   И50   
Имп   И51   
Иму   И52   
Имш   И53   
Ин   И54   
Инв   И55   
Инг   И56   
Инд   И57   
Ине   И58   
Инж   И59   
Инз   И60   
Ини   И61   
Инк   И62   
Инн   И63   
Ино   И64   
Инос   И65   
Инс   И66   
Инст   И67   
Инт   И68   
Инф   И69   
Ині   И70   
Иң   И71   
Ио   И72   
Ип   И73   
Ир   И74   
Ирб   И75   
Ирг   И76   
Ире   И77   
Ири   И78   
Ирк   И79   
Ирм   И80   
Иро   И81   
Ирр   И82   
Ис   И83   
Исаб   И83   
Исае   И83   
Исак   И83   
Исақ   И83   
Исал   И83   
Исах   И83   
Исе   И84   
Исик   И84   
Иск   И85   
Исқ   И86   
Исқа   И86   
Исл   И87   
Исм   И88   
Исма   И88   
Исп   И89   
Ист   И90   
Исх   И91   
Ит   И92   
Ито   И93   
Иу   И94   
Иф   И95   
Их   И96   
Иш   И97   
Ишмұ   И97   
Ищ   И98   
Ию   И99   
К   К11   
Ка   К12   
Каба   К12   
Каве   К12   
Каг   К13   
Каз   К14   
Каза   К14   
Кал   К15   
Кам   К16   
Кама   К16   
Кап   К17   
Кар   К18   
Кара   К18   
Карп   К19   
Карт   К20   
Кас   К21   
Кат   К22   
Ката   К22   
Кате   К22   
Кати   К22   
Кау   К23   
Кә   К24   
Кәкі   К24   
Кәр   К25   
Кәрб   К25   
Кәрм   К25   
Кәрі   К25   
Кәс   К26   
Кәте   К26   
Кәтт   К26   
Кв   К27   
Ке   К28   
Кекі   К28   
Кел   К29   
Келі   К29   
Кеме   К29   
Кен   К30   
Кене   К30   
Кенж   К30   
Кең   К31   
Кеңе   К31   
Кер   К32   
Керб   К32   
Кере   К32   
Кері   К32   
Кетт   К32   
Ки   К33   
Ким   К34   
Кип   К35   
Кипл   К35   
Кир   К36   
Кис   К37   
Кич   К38   
Киі   К39   
Кла   К40   
Кле   К41   
Клеп   К41   
Кли   К42   
Кн   К43   
Ко   К44   
Ков   К45   
Ког   К46   
Кож   К47   
Коже   К47   
Коз   К48   
Коза   К48   
Кол   К49   
Коле   К49   
Коло   К50   
Коль   К51   
Ком   К52   
Комм   К53   
Комс   К54   
Кон   К55   
Коно   К55   
Коң   К56   
Кор   К57   
Кори   К57   
Корн   К58   
Коро   К59   
Корф   К60   
Корч   К60   
Кос   К61   
Кост   К62   
Кот   К63   
Кох   К64   
Кош   К65   
Көб   К66   
Көбе   К66   
Көж   К67   
Көке   К67   
Көм   К68   
Көме   К68   
Көн   К69   
Көпб   К69   
Көпе   К69   
Көпж   К69   
Көпі   К69   
Көше   К69   
Көші   К70   
Кпс   К70   
Кра   К71   
Крас   К72   
Кре   К73   
Кри   К74   
Крив   К74   
Крин   К75   
Кро   К76   
Кру   К77   
Кры   К78   
Крыл   К78   
Кс   К79   
Кт   К80   
Ку   К81   
Куз   К82   
Кузн   К82   
Кузь   К82   
Кул   К83   
Кун   К84   
Куп   К85   
Купе   К85   
Купр   К85   
Кур   К86   
Кус   К87   
Кут   К88   
Куш   К89   
Кү   К90   
Күб   К91   
Күз   К92   
Күзе   К92   
Күл   К93   
Күле   К93   
Күмі   К93   
Күн   К94   
Күнқ   К94   
Күт   К95   
Кш   К96   
Кі   К97   
Кіре   К97   
Кірі   К97   
Кэ   К98   
Кю   К99   
Қ   Қ11   
Қа   Қ12   
Қаб   Қ13   
Қаба   Қ13   
Қабд   Қ13   
Қабы   Қ13   
Қағ   Қ14   
Қады   Қ14   
Қаж   Қ15   
Қажы   Қ15   
Қаз   Қ16   
Қазақ   Қ17   
Қазақст   Қ18   
Қазақт   Қ19   
Қази   Қ20   
Қазы   Қ21   
Қазі   Қ22   
Қай   Қ23   
Қайд   Қ23   
Қайр   Қ23   
Қайс   Қ23   
Қайы   Қ23   
Қал   Қ24   
Қала   Қ25   
Қалд   Қ25   
Қали   Қ26   
Қалқ   Қ27   
Қалл   Қ27   
Қалм   Қ28   
Қалу   Қ29   
Қалы   Қ30   
Қам   Қ31   
Қамб   Қ31   
Қамз   Қ31   
Қамқ   Қ32   
Қамы   Қ33   
Қан   Қ34   
Қана   Қ34   
Қанғ   Қ34   
Қанд   Қ34   
Қани   Қ35   
Қант   Қ36   
Қанш   Қ37   
Қаны   Қ38   
Қаң   Қ39   
Қаңл   Қ39   
Қап   Қ40   
Қапа   Қ40   
Қар   Қ41   
Қара   Қ41   
Қари   Қ41   
Қарс   Қ42   
Қас   Қ43   
Қасе   Қ43   
Қаси   Қ43   
Қасқ   Қ44   
Қасы   Қ45   
Қасым   Қ45   
Қат   Қ46   
Қату   Қ47   
Қатш   Қ48   
Қаты   Қ49   
Қау   Қ50   
Қаулы   Қ51   
Қауп   Қ51   
Қаш   Қ52   
Қашқ   Қ52   
Қи   Қ53   
Қилы   Қ53   
Қира   Қ53   
Қо   Қ54   
Қод   Қ55   
Қож   Қ56   
Қожа   Қ56   
Қоз   Қ57   
Қозы   Қ58   
Қой   Қ59   
Қойб   Қ59   
Қойш   Қ60   
Қоқ   Қ61   
Қол   Қ62   
Қом   Қ63   
Қон   Қ64   
Қона   Қ64   
Қоң   Қ65   
Қоңы   Қ65   
Қор   Қ66   
Қора   Қ66   
Қорғ   Қ66   
Қорд   Қ66   
Қос   Қ67   
Қоса   Қ67   
Қосб   Қ67   
Қосп   Қ67   
Қост   Қ68   
Қосш   Қ68   
Қош   Қ69   
Қою   Қ70   
Қу   Қ71   
Қуан   Қ71   
Қуат   Қ71   
Қуна   Қ71   
Құ   Қ72   
Құғ   Қ73   
Құд   Қ74   
Құда   Қ74   
Құла   Қ74   
Құлж   Қ74   
Құли   Қ74   
Құлк   Қ74   
Құлм   Қ74   
Құм   Қ75   
Құма   Қ75   
Құн   Қ76   
Құна   Қ76   
Құр   Қ77   
Құра   Қ77   
Құрм   Қ77   
Құс   Қ78   
Құса   Қ78   
Құсп   Қ78   
Құтт   Қ78   
Қы   Қ79   
Қыды   Қ79   
Қыз   Қ80   
Қызғ   Қ81   
Қызы   Қ81   
Қый   Қ82   
Қыл   Қ83   
Қым   Қ84   
Қын   Қ85   
Қың   Қ86   
Қыр   Қ87   
Қыра   Қ87   
Қырғ   Қ88   
Қыры   Қ89   
Қыс   Қ90   
Қыст   Қ91   
Қыт   Қ92   
Қытқ   Қ93   
Қыту   Қ94   
Қыты   Қ95   
Қыш   Қ96   
Қышқ   Қ96   
Қышт   Қ97   
Қыю   Қ98   
Қыя   Қ99   
Л   Л11   
Лав   Л12   
Лаг   Л13   
Лағ   Л14   
Лад   Л15   
Лай   Л16   
Лак   Л17   
Лам   Л18   
Лама   Л18   
Лао   Л19   
Лап   Л20   
Лар   Л21   
Лас   Л22   
Лат   Л23   
Лати   Л23   
Лаф   Л24   
Лац   Л25   
Лаш   Л26   
Лә   Л27   
Ләмб   Л27   
Ле   Л28   
Лев   Л29   
Леве   Л30   
Леви   Л31   
Леву   Л32   
Лед   Л33   
Леж   Л34   
Лез   Л35   
Лей   Л36   
Лек   Л37   
Леке   Л37   
Лем   Л38   
Лен   Л39   
Лени   Л40   
Ленс   Л41   
Лео   Л42   
Леп   Л43   
Лер   Л44   
Лерм   Л44   
Лес   Л45   
Лет   Л46   
Леф   Л47   
Лещ   Л48   
Ли   Л49   
Лид   Л50   
Лик   Л51   
Лил   Л52   
Лим   Л53   
Лин   Л54   
Лио   Л55   
Лип   Л56   
Лир   Л57   
Лис   Л58   
Лит   Л59   
Лиф   Л60   
Лих   Л61   
Лиц   Л62   
Лиш   Л63   
Ло   Л64   
Лог   Л65   
Лод   Л66   
Лож   Л67   
Лоз   Л68   
Лок   Л69   
Лом   Л70   
Ломо   Л71   
Лон   Л72   
Лонд   Л72   
Лоп   Л73   
Лор   Л74   
Лос   Л75   
Лот   Л76   
Лоу   Л77   
Лу   Л78   
Луг   Л79   
Лук   Л80   
Луп   Л81   
Лур   Л82   
Луч   Л83   
Лұ   Л84   
Лү   Л85   
Лы   Л86   
Лі   Л87   
Ль   Л88   
Льд   Л89   
Лью   Л90   
Лэ   Л91   
Лю   Л92   
Лю6   Л93   
Люб   Л93   
Люби   Л93   
Люк   Л94   
Люс   Л95   
Лют   Л96   
Ля   Л97   
Лях   Л98   
Ляш   Л99   
М   М11   
Ма   М12   
Маг   М12   
Маға   М12   
Мада   М12   
Май   М13   
Майл   М14   
Майлин   М14   
Майм   М14   
Майт   М14   
Майч   М14   
Мак   М15   
Макс   М15   
Мақ   М16   
Мақа   М16   
Мал   М17   
Малд   М17   
Малқ   М17   
Мам   М18   
Мама   М18   
Маме   М18   
Мами   М18   
Ман   М19   
Мана   М19   
Манк   М19   
Маңғ   М19   
Мао   М20   
Мар   М21   
Марг   М22   
Марғ   М22   
Марк   М23   
Маркс   М24   
Март   М25   
Марх   М25   
Марш   М26   
Мас   М27   
Масл   М28   
Мат   М29   
Маты   М29   
Мау   М30   
Мах   М31   
Махм   М31   
Маш   М32   
Маша   М32   
Мая   М33   
Маяк   М33   
Мә   М34   
Мәд   М35   
Мәм   М36   
Мәмб   М36   
Мәме   М36   
Мәу   М37   
Мәул   М37   
Ме   М38   
Мед   М39   
Меде   М39   
Меж   М40   
Меже   М40   
Мезе   М40   
Мейі   М40   
Мек   М41   
Меке   М41   
Мел   М42   
Меле   М42   
Мель   М43   
Мем   М44   
Мен   М45   
Меңд   М45   
Меңж   М45   
Мер   М46   
Мерғ   М46   
Мери   М46   
Мес   М47   
Мет   М48   
Мех   М49   
Меш   М50   
Ми   М51   
Миза   М51   
Мик   М52   
Микс   М52   
Мил   М53   
Мим   М54   
Мин   М55   
Мир   М56   
Миро   М57   
Мис   М58   
Мит   М59   
Мих   М60   
Миха   М60   
Миц   М61   
Мич   М62   
Миш   М63   
Мо   М64   
Мог   М65   
Моги   М65   
Мол   М66   
Молд   М66   
Моло   М67   
Момб   М67   
Момы   М67   
Мон   М68   
Моп   М69   
Мор   М70   
Мос   М71   
Моск   М72   
Мот   М73   
Мох   М74   
Мош   М75   
Мө   М76   
Мр   М77   
Му   М78   
Мур   М79   
Муси   М79   
Муст   М79   
Мух   М80   
Муш   М81   
Мұ   М82   
Мұқ   М83   
Мұқа   М84   
Мұқанов   М84   
Мұқт   М84   
Мұқы   М84   
Мұра   М84   
Мұрт   М84   
Мұс   М85   
Мұса   М85   
Мұст   М86   
Мұстафин   М86   
Мұха   М86   
Мұхт   М86   
Мү   М87   
Мүсрепов   М88   
Мүсі   М88   
Мы   М89   
Мың   М90   
Мыңж   М90   
Мыр   М91   
Мырз   М91   
Мыс   М92   
Мыш   М93   
Мі   М94   
Мэ   М95   
Мю   М96   
Мюс   М97   
Мя   М98   
Мяки   М98   
Мяс   М99   
Н   Н11   
На   Н12   
Наб   Н13   
Наби   Н13   
Нав   Н14   
Нағ   Н15   
Над   Н16   
Наз   Н17   
Наза   Н17   
Най   Н18   
Найм   Н18   
Наке   Н18   
Нақы   Н18   
Нал   Н19   
Нам   Н20   
Нама   Н20   
Наме   Н20   
Нан   Н21   
Нап   Н22   
Нар   Н23   
Нари   Н24   
Наро   Н25   
Нары   Н25   
Нас   Н26   
Нат   Н27   
Нау   Н28   
Науа   Н28   
Наур   Н28   
Нац   Н29   
Нач   Н30   
Наш   Н31   
Нә   Н32   
Нәби   Н32   
Нәжі   Н32   
Нәрі   Н32   
Нәсе   Н32   
Нгуе   Н32   
Не   Н33   
Неб   Н34   
Нев   Н35   
Нег   Н36   
Неги   Н36   
Нед   Н37   
Неж   Н38   
Нез   Н39   
Ней   Н40   
Нейн   Н41   
Нек   Н42   
Некр   Н43   
Нел   Н44   
Нем   Н45   
Немц   Н45   
Нен   Н46   
Нео   Н47   
Неп   Н48   
Нер   Н49   
Неру   Н49   
Нес   Н50   
Неси   Н50   
Нест   Н51   
Нет   Н52   
Нета   Н52   
Неф   Н53   
Неч   Н54   
Ни   Н55   
Низ   Н56   
Низа   Н56   
Ник   Н57   
Нико   Н58   
Нику   Н59   
Нил   Н60   
Ним   Н61   
Нин   Н62   
Нир   Н63   
Нис   Н64   
Нит   Н65   
Нифа   Н65   
Нияз   Н65   
Но   Н66   
Нови   Н67   
Ново   Н68   
Новор   Н69   
Новос   Н70   
Нож   Н71   
Ноз   Н72   
Нок   Н73   
Нол   Н74   
Ном   Н75   
Нор   Н76   
Нос   Н77   
Носо   Н77   
Нот   Н78   
Ноч   Н79   
Ну   Н80   
Нуж   Н81   
Нум   Н82   
Нур   Н83   
Нұ   Н84   
Нұғ   Н85   
Нұғы   Н85   
Нұр   Н86   
Нұра   Н86   
Нұрғ   Н86   
Нұрж   Н86   
Нұрқ   Н86   
Нұрм   Н86   
Нұрп   Н86   
Нұрс   Н86   
Нұрт   Н86   
Нұрш   Н86   
Нұры   Н87   
Нұс   Н88   
Нұсқ   Н88   
Нү   Н89   
Нүсі   Н89   
Ны   Н90   
Нығы   Н90   
Ныса   Н90   
Ні   Н91   
Нілі   Н91   
Нью   Н92   
Ньюк   Н93   
Ньют   Н94   
Нэ   Н95   
Ню   Н96   
Нюс   Н97   
Нют   Н98   
Ня   Н99   
О   О-11   
Оа   О-12   
Об   О-13   
Обз   О-14   
Обл   О-15   
Обм   О-16   
Обн   О-17   
Обо   О-18   
Обр   О-19   
Обс   О-20   
Обу   О-21   
Обш   О-22   
Общ   О-23   
Обы   О-24   
Обь   О-25   
Ов   О-26   
Ово   О-27   
Овр   О-28   
Овс   О-29   
Овч   О-30   
Ог   О-31   
Огл   О-32   
Ого   О-33   
Огп   О-34   
Оғ   О-35   
Од   О-36   
Оде   О-37   
Оди   О-38   
Одн   О-39   
Одо   О-40   
Ож   О-41   
Оз   О-42   
Ози   О-43   
Озн   О-44   
Ой   О-45   
Ойшы   О-46   
Ойы   О-46   
Ок   О-47   
Оке   О-48   
Око   О-49   
Окс   О-50   
Окт   О-51   
Оқ   О-52   
Оқы   О-53   
Ол   О-54   
Оли   О-55   
Оло   О-56   
Оль   О-57   
Ом   О-58   
Омар   О-58   
Он   О-59   
Ону   О-60   
Оң   О-61   
Оңал   О-61   
Оңға   О-61   
Оңд   О-62   
Оңда   О-62   
Оп   О-63   
Опр   О-64   
Ор   О-65   
Ораз   О-65   
Орал   О-65   
Орг   О-66   
Орд   О-67   
Орда   О-67   
Орл   О-68   
Орм   О-69   
Орма   О-69   
Орн   О-70   
Оро   О-71   
Орт   О-72   
Ору   О-73   
Оры   О-74   
Орын   О-74   
Ос   О-75   
Осее   О-75   
Оси   О-76   
Осма   О-76   
Осо   О-77   
Осп   О-78   
Оспа   О-78   
Ост   О-79   
Остр   О-80   
От   О-81   
Отар   О-81   
Отд   О-82   
Оте   О-83   
Отқ   О-84   
Отн   О-85   
Ото   О-86   
Отп   О-87   
Отт   О-88   
Оты   О-89   
Оть   О-90   
Оу   О-91   
Оф   О-92   
Ох   О-93   
Оц   О-94   
Оч   О-95   
Ош   О-96   
Ощ   О-97   
Ою   О-98   
Оя   О-99   
Ө   Ө11   
Өб   Ө12   
Өв   Ө13   
Өг   Ө14   
Өге   Ө15   
Өги   Ө16   
Өгі   Ө17   
Өд   Ө18   
Өде   Ө19   
Өди   Ө20   
Өді   Ө21   
Өж   Ө22   
Өже   Ө23   
Өз   Ө24   
Өзб   Ө25   
Өзбе   Ө25   
Өзг   Ө26   
Өзе   Ө27   
Өзи   Ө28   
Өзі   Ө29   
Өй   Ө30   
Өк   Ө31   
Өке   Ө32   
Өкее   Ө32   
Өкп   Ө33   
Өкі   Ө34   
Өл   Ө35   
Өле   Ө36   
Өлк   Ө37   
Өлт   Ө38   
Өлш   Ө39   
Өлі   Ө40   
Өм   Ө41   
Өме   Ө42   
Өмі   Ө43   
Өмір   Ө44   
Өн   Ө45   
Өнд   Ө46   
Өне   Ө47   
Өнер   Ө48   
Өні   Ө49   
Өнім   Ө50   
Өң   Ө51   
Өңд   Ө52   
Өңе   Ө53   
Өңі   Ө54   
Өп   Ө55   
Өр   Ө56   
Өре   Ө57   
Өри   Ө58   
Өрк   Ө59   
Өрл   Ө60   
Өрм   Ө61   
Өрн   Ө62   
Өрс   Ө63   
Өрт   Ө64   
Өрш   Ө65   
Өрі   Ө66   
Өріс   Ө67   
Өс   Ө68   
Өсе   Ө69   
Өсер   Ө69   
Өси   Ө70   
Өск   Ө71   
Өсп   Ө72   
Өсте   Ө72   
Өсі   Ө73   
Өт   Ө74   
Өте   Ө75   
Өтег   Ө76   
Өтеғ   Ө77   
Өтед   Ө78   
Өтеж   Ө79   
Өтек   Ө80   
Өтел   Ө81   
Өтем   Ө82   
Өтемі   Ө83   
Өтен   Ө83   
Өтеп   Ө84   
Өтер   Ө85   
Өтес   Ө86   
Өтет   Ө87   
Өтеш   Ө88   
Өти   Ө89   
Өтк   Ө90   
Өтм   Ө91   
Өту   Ө92   
Өті   Ө93   
Өш   Ө94   
Өше   Ө95   
Өши   Ө96   
Өшп   Ө97   
Өшт   Ө98   
Өші   Ө99   
П   П11   
Па   П12   
Павл   П12   
Пак   П13   
Пал   П14   
Пан   П15   
Пано   П15   
Пант   П15   
Пап   П16   
Пар   П17   
Пас   П18   
Пау   П19   
Паус   П19   
Паш   П20   
Пә   П21   
Пе   П22   
Пед   П23   
Пер   П24   
Пере   П24   
Перм   П24   
Перр   П24   
Перы   П24   
Пес   П25   
Пет   П26   
Пете   П26   
Петр   П27   
Пи   П28   
Пинг   П28   
Пир   П29   
Пис   П30   
Пит   П31   
Пих   П32   
Пл   П33   
Пле   П34   
Пло   П35   
Плу   П36   
По   П37   
Пов   П38   
Пог   П39   
Под   П40   
Пое   П41   
Пож   П42   
Поз   П43   
Пок   П44   
Пол   П45   
Поле   П45   
Поли   П46   
Полк   П47   
Поло   П48   
Полу   П49   
Поля   П50   
Пом   П51   
Пон   П52   
Поп   П53   
Попу   П54   
Пор   П55   
Порт   П56   
Пос   П57   
Посл   П58   
Пот   П59   
Поч   П60   
Пош   П61   
Поэ   П62   
Пою   П63   
Пра   П64   
Прак   П65   
Прас   П66   
Пре   П67   
Прео   П68   
Прес   П69   
Прж   П70   
При   П71   
Прил   П72   
Прир   П73   
Приш   П74   
Про   П75   
Прой   П76   
Прок   П77   
Прол   П78   
Пром   П79   
Прос   П80   
Прот   П81   
Проф   П82   
Пру   П83   
Пса   П84   
Пта   П85   
Пу   П86   
Пус   П87   
Пут   П88   
Пушк   П89   
Пушкин   П89   
Пұ   П90   
Пү   П91   
Пш   П92   
Пы   П93   
Пыт   П94   
Пі   П95   
Пь   П96   
Пэ   П97   
Пю   П98   
Пя   П99   
Р   Р11   
Ра   Р12   
Раб   Р13   
Раг   Р14   
Рад   Р15   
Раз   Р16   
Рай   Р17   
Райы   Р17   
Рак   Р18   
Рақы   Р18   
Рам   Р19   
Рама   Р19   
Ран   Р20   
Рас   Р21   
Расп   Р21   
Рат   Р22   
Рауш   Р22   
Раф   Р23   
Рах   Р24   
Рахи   Р24   
Рахм   Р24   
Рахы   Р24   
Раш   Р25   
Раши   Р25   
Рә   Р26   
Рәше   Р26   
Рв   Р27   
Ре   Р28   
Рев   Р29   
Ред   Р30   
Рез   Р31   
Рей   Р32   
Рек   Р33   
Рем   Р34   
Реми   Р35   
Рен   Р36   
Рео   Р37   
Реп   Р38   
Рер   Р39   
Рес   Р40   
Реф   Р41   
Реч   Р42   
Реш   Р43   
Рж   Р44   
Ри   Р45   
Рид   Р45   
Рик   Р46   
Рим   Р47   
Рио   Р48   
Рип   Р49   
Рис   Р50   
Рит   Р51   
Рич   Р52   
Риш   Р53   
Ро   Р54   
Рог   Р55   
Род   Р56   
Рода   Р56   
Родо   Р57   
Рож   Р58   
Рожк   Р59   
Роз   Р60   
Розе   Р60   
Рой   Р61   
Рок   Р62   
Рол   Р63   
Ром   Р64   
Роме   Р65   
Рон   Р66   
Роне   Р67   
Роп   Р68   
Рос   Р69   
Роси   Р70   
Росс   Р71   
Россо   Р72   
Рост   Р73   
Рот   Р74   
Роч   Р75   
Рош   Р76   
Рощ   Р77   
Рсал   Р77   
Ртае   Р77   
Ру   Р78   
Рубл   Р78   
Руд   Р79   
Руда   Р79   
Рудз   Р79   
Рук   Р80   
Рум   Р81   
Рур   Р82   
Рус   Р83   
Русс   Р84   
Руст   Р84   
Рут   Р85   
Руф   Р86   
Рух   Р87   
Руч   Р88   
Рұ   Р89   
Рү   Р90   
Рүст   Р90   
Ры   Р91   
Рыб   Р92   
Рыба   Р92   
Рыл   Р93   
Рымж   Р93   
Рыс   Р94   
Рысб   Р94   
Рысп   Р94   
Рэ   Р95   
Рю   Р96   
Рюм   Р97   
Ря   Р98   
Ряз   Р99   
Ряза   Р99   
С   С11   
Са   С12   
Саби   С12   
Сабы   С12   
Сав   С13   
Сағ   С14   
Сағд   С14   
Сағы   С14   
Сад   С15   
Садо   С15   
Саду   С15   
Сады   С15   
Саин   С16   
Сай   С16   
Сақ   С17   
Сал   С18   
Сала   С18   
Салғ   С18   
Салы   С18   
Сам   С19   
Сан   С20   
Сап   С21   
Сапа   С21   
Сар   С22   
Сара   С22   
Сарб   С22   
Сарғ   С22   
Сари   С22   
Сары   С22   
Сат   С23   
Сата   С23   
Сатқ   С23   
Саты   С23   
Сау   С24   
Сауғ   С24   
Сауы   С24   
Саф   С25   
Сах   С26   
Саха   С26   
Сахи   С26   
Сая   С27   
Сә   С28   
Сәду   С28   
Сәни   С28   
Сәрс   С28   
Сәтб   С28   
Сәтт   С28   
Сәті   С28   
Сәук   С28   
Сәуі   С28   
Св   С29   
Свиф   С29   
Се   С30   
Сегі   С30   
Сеит   С31   
Сеиі   С31   
Сей   С31   
Сейд   С31   
Сейс   С31   
Сейт   С31   
Сейф   С32   
Сейфул   С32   
Сейфуллин   С32   
Сейі   С32   
Сел   С33   
Сем   С34   
Сен   С35   
Сенк   С35   
Сент   С35   
Сең   С36   
Сер   С37   
Сера   С37   
Серә   С37   
Серғ   С37   
Сере   С37   
Сері   С37   
Сес   С38   
Сето   С38   
Си   С39   
Сил   С40   
Сим   С41   
Симо   С41   
Сит   С42   
Ска   С43   
Скв   С44   
Скл   С45   
Ско   С46   
Скот   С46   
Ску   С47   
Сқақ   С47   
Сла   С48   
Слан   С48   
Сле   С49   
Сло   С50   
Слу   С51   
Слуц   С51   
См   С52   
Смағ   С52   
Смаи   С52   
Смай   С52   
Смақ   С52   
Смат   С52   
Смах   С52   
Сми   С53   
Смир   С53   
Смо   С54   
Сму   С55   
Сн   С56   
Снег   С56   
Со   С57   
Собо   С57   
Сов   С58   
Соғ   С59   
Сод   С60   
Сой   С61   
Сок   С62   
Соко   С62   
Соқ   С63   
Соқп   С63   
Сол   С64   
Сом   С65   
Сон   С66   
Сопы   С66   
Сор   С67   
Сос   С68   
Сот   С69   
Соу   С70   
Софр   С70   
Соц   С71   
Сою   С72   
Сө   С73   
Сп   С74   
ССРО   С75   
Ста   С76   
Стам   С76   
Стан   С76   
Стар   С77   
Стах   С78   
Сте   С79   
Стел   С79   
Степ   С79   
Сти   С80   
Стив   С80   
Сто   С81   
Стр   С82   
Стре   С83   
Стру   С83   
Сту   С84   
Су   С85   
Субх   С85   
Сум   С86   
Сур   С87   
Сух   С88   
Сұ   С89   
Сұлт   С89   
Сұрт   С89   
Сү   С90   
Сүйе   С90   
Сүйі   С90   
Сүле   С90   
Сүнд   С90   
Сх   С91   
Съ   С92   
Сы   С93   
Сыба   С93   
Сыға   С93   
Сыди   С93   
Сыды   С93   
Сыз   С94   
Сызд   С94   
Сый   С95   
Сі   С96   
Сэ   С97   
Сю   С98   
Ся   С99   
Т   Т11   
Та   Т12   
Табе   Т12   
Табы   Т12   
Тав   Т13   
Таго   Т13   
Тажу   Т13   
Тай   Т14   
Тайб   Т14   
Тайц   Т14   
Так   Т15   
Тал   Т16   
Талғ   Т16   
Талж   Т16   
Тали   Т16   
Там   Т17   
Тан   Т18   
Тане   Т18   
Таң   Т19   
Тап   Т20   
Тар   Т21   
Тара   Т21   
Тас   Т22   
Таст   Т22   
Тасы   Т22   
Тат   Т23   
Тата   Т23   
Тау   Т24   
Тах   Т25   
Таш   Т26   
Тә   Т27   
Тәж   Т28   
Тәжи   Т28   
Тәжі   Т28   
Тәр   Т29   
Тәті   Т29   
Тв   Т30   
Тви   Т31   
Твэ   Т31   
Тел   Т32   
Тем   Т33   
Тен   Т34   
Теп   Т35   
Тер   Т36   
Тере   Т36   
Тес   Т37   
Тех   Т38   
Ти   Т39   
Тик   Т40   
Тим   Т41   
Тип   Т42   
Тир   Т43   
Тит   Т44   
Тих   Т45   
Тиш   Т46   
Тк   Т47   
Тл   Т48   
То   Т49   
Тоғ   Т50   
Ток   Т51   
Тоқ   Т52   
Тоқа   Т52   
Тоқм   Т53   
Тоқт   Т53   
Тол   Т54   
Толстой   Т55   
Толы   Т56   
Том   Т57   
Тон   Т58   
Топ   Т59   
Тор   Т60   
Тора   Т60   
Торо   Т61   
Торы   Т62   
Тос   Т63   
Тот   Т64   
Тө   Т65   
Төле   Т65   
Төре   Т65   
Төте   Т65   
Тр   Т66   
Тре   Т67   
Три   Т68   
Тро   Т69   
Троп   Т70   
Троф   Т71   
Трош   Т72   
Тру   Т73   
Труф   Т74   
Труш   Т75   
Ту   Т76   
Туг   Т77   
Тул   Т78   
Тум   Т79   
Тун   Т80   
Тург   Т81   
Тус   Т82   
Тут   Т83   
Туч   Т84   
Тұ   Т85   
Тұр   Т86   
Тұрл   Т86   
Тұрс   Т86   
Тұры   Т86   
Тұяқ   Т86   
Тү   Т87   
Түп   Т88   
Түр   Т89   
Түрг   Т90   
Ты   Т91   
Тышқ   Т91   
Ті   Т92   
Тіл   Т93   
Тіле   Т93   
Ть   Т94   
Тью   Т95   
Тэ   Т96   
Тэф   Т97   
Тю   Т98   
Тя   Т99   
У   У11   
Уа   У12   
Уап   У13   
Уар   У14   
Уат   У15   
Уаш   У16   
Уә   У17   
Уәйі   У17   
Уб   У18   
Ув   У19   
Уво   У20   
Увр   У21   
Увы   У22   
Увя   У23   
Уг   У24   
Угл   У25   
Уго   У26   
Угр   У27   
Уғ   У28   
Уд   У29   
Уде   У30   
Уди   У31   
Удо   У32   
Уе   У33   
Уж   У34   
Уз   У35   
Уй   У36   
Уйл   У37   
Уйн   У38   
Уйп   У39   
Уйт   У40   
Уйх   У41   
Ук   У42   
Укл   У43   
Укр   У44   
Уқа   У45   
Ул   У46   
Ули   У47   
Уло   У48   
Улы   У49   
Уль   У50   
Ум   У51   
Уми   У52   
Умн   У53   
Умо   У54   
Умс   У55   
Умы   У56   
Ун   У57   
Уни   У58   
Унк   У59   
Унт   У60   
Уо   У61   
Уол   У62   
Уор   У63   
Уот   У64   
Уп   У65   
Упо   У66   
Ур   У67   
Урб   У68   
Ури   У69   
Уро   У70   
Урс   У71   
Уру   У72   
Ус   У73   
Уск   У74   
Усо   У75   
Усп   У76   
Уст   У77   
Усти   У78   
Усто   У79   
Устр   У80   
Усть   У81   
Ут   У82   
Уто   У83   
Утр   У84   
Утю   У85   
Утя   У86   
Уү   У87   
Уф   У88   
Ух   У89   
Уч   У90   
Уче   У91   
Учи   У92   
Уш   У93   
Уши   У94   
Ушк   У95   
Ущ   У96   
Уэ   У97   
Уэл   У98   
Уэс   У99   
Ұ   Ұ11   
Ұб   Ұ12   
Ұбы   Ұ13   
Ұв   Ұ14   
Ұғ   Ұ15   
Ұға   Ұ16   
Ұғы   Ұ17   
Ұғым   Ұ18   
Ұғын   Ұ19   
Ұд   Ұ20   
Ұды   Ұ21   
Ұж   Ұ22   
Ұжм   Ұ23   
Ұжы   Ұ24   
Ұз   Ұ25   
Ұзы   Ұ26   
Ұй   Ұ27   
Ұйғ   Ұ28   
Ұйқ   Ұ29   
Ұйы   Ұ30   
Ұқ   Ұ31   
Ұқп   Ұ32   
Ұқс   Ұ33   
Ұқт   Ұ34   
Ұқы   Ұ35   
Ұқып   Ұ36   
Ұл   Ұ37   
Ұла   Ұ38   
Ұлғ   Ұ39   
Ұлд   Ұ40   
Ұлж   Ұ41   
Ұлп   Ұ42   
Ұлт   Ұ43   
Ұлу   Ұ44   
Ұлуы   Ұ45   
Ұлы   Ұ46   
Ұм   Ұ47   
Ұмғ   Ұ48   
Ұму   Ұ49   
Ұмы   Ұ50   
Ұн   Ұ51   
Ұна   Ұ52   
Ұнбы   Ұ53   
Ұнғ   Ұ54   
Ұнд   Ұ55   
Ұнж   Ұ56   
Ұни   Ұ57   
Ұнт   Ұ58   
Ұны   Ұ59   
Ұң   Ұ60   
Ұңғ   Ұ61   
Ұп   Ұ62   
Ұпы   Ұ63   
Ұр   Ұ64   
Ұрғ   Ұ65   
Ұрқ   Ұ66   
Ұрл   Ұ67   
Ұрм   Ұ68   
Ұрн   Ұ69   
Ұрп   Ұ70   
Ұрс   Ұ71   
Ұрт   Ұ72   
Ұру   Ұ73   
Ұры   Ұ74   
Ұс   Ұ75   
Ұсд   Ұ76   
Ұси   Ұ77   
Ұсқ   Ұ78   
Ұсм   Ұ79   
Ұсп   Ұ80   
Ұст   Ұ81   
Ұсы   Ұ82   
Ұсын   Ұ83   
Ұт   Ұ84   
Ұти   Ұ85   
Ұты   Ұ86   
Ұх   Ұ87   
Ұш   Ұ88   
Ұшқ   Ұ89   
Ұшқы   Ұ90   
Ұшл   Ұ91   
Ұшп   Ұ92   
Ұшт   Ұ93   
Ұшу   Ұ94   
Ұшы   Ұ95   
Ұшын   Ұ96   
Ұшыт   Ұ97   
Ұю   Ұ98   
Ұя   Ұ99   
Ү   Ү11   
Үә   Ү12   
Үәл   Ү13   
Үб   Ү14   
Үг   Ү15   
Үги   Ү16   
Үгі   Ү17   
Үд   Ү18   
Үде   Ү19   
Үдз   Ү20   
Үді   Ү21   
Үж   Ү22   
Үз   Ү23   
Үзе   Ү24   
Үзж   Ү25   
Үзи   Ү26   
Үзі   Ү27   
Үзін   Ү28   
Үй   Ү29   
Үйг   Ү30   
Үйд   Ү31   
Үйе   Ү32   
Үйж   Ү33   
Үйк   Ү34   
Үйл   Ү35   
Үйм   Ү36   
Үйн   Ү37   
Үйң   Ү38   
Үйр   Ү39   
Үйре   Ү40   
Үйрт   Ү41   
Үйрш   Ү42   
Үйі   Ү43   
Үйін   Ү44   
Үк   Ү45   
Үке   Ү46   
Үки   Ү47   
Үкі   Ү48   
Үкім   Ү49   
Үкімет   Ү50   
Үл   Ү51   
Үлг   Ү52   
Үлд   Ү53   
Үле   Ү54   
Үли   Ү55   
Үлі   Ү56   
Үліг   Ү57   
Үм   Ү58   
Үме   Ү59   
Үмі   Ү60   
Үміт   Ү61   
Үн   Ү62   
Үнд   Ү63   
Үне   Ү64   
Үні   Ү65   
Үң   Ү66   
Үңг   Ү67   
Үңд   Ү68   
Үңі   Ү69   
Үө   Ү70   
Үп   Ү71   
Үпі   Ү72   
Үр   Ү73   
Үрг   Ү74   
Үрд   Ү75   
Үре   Ү76   
Үрж   Ү77   
Үри   Ү78   
Үрк   Ү79   
Үрі   Ү80   
Үріш   Ү81   
Үс   Ү82   
Үсе   Ү83   
Үси   Ү84   
Үск   Ү85   
Үст   Ү86   
Үсі   Ү87   
Үт   Ү88   
Үте   Ү89   
Үти   Ү90   
Үф   Ү91   
Үш   Ү92   
Үшә   Ү93   
Үше   Ү94   
Үши   Ү95   
Үшк   Ү96   
Үшт   Ү97   
Үшу   Ү98   
Үші   Ү99   
Ф   Ф11   
Фа   Ф12   
Фав   Ф13   
Фаг   Ф14   
Фад   Ф15   
Фаз   Ф16   
Фай   Ф17   
Фак   Ф18   
Фал   Ф19   
Фам   Ф20   
Фан   Ф21   
Фао   Ф22   
Фар   Ф23   
Фарш   Ф24   
Фас   Ф25   
Фат   Ф26   
Фау   Ф27   
Фах   Ф28   
Фаш   Ф29   
Фә   Ф30   
Фе   Ф31   
Фед   Ф32   
Федор   Ф33   
Федот   Ф34   
Федч   Ф35   
Фей   Ф36   
Фел   Ф37   
Фелм   Ф38   
Фель   Ф39   
Фем   Ф40   
Фен   Ф41   
Фер   Ф42   
Фес   Ф43   
Фет   Ф44   
Фех   Ф45   
Феш   Ф46   
Фи   Ф47   
Фид   Ф48   
Физ   Ф49   
Фил   Ф50   
Фили   Ф51   
Фило   Ф52   
Филос   Ф53   
Филь   Ф54   
Фим   Ф55   
Фин   Ф56   
Финд   Ф57   
Фио   Ф58   
Фир   Ф59   
Фис   Ф60   
Фит   Ф61   
Фих   Ф62   
Фиц   Ф63   
Фич   Ф64   
Фиш   Ф65   
Фла   Ф66   
Флам   Ф67   
Фле   Ф68   
Фли   Ф69   
Фло   Ф70   
Фо   Ф71   
Фой   Ф72   
Фом   Ф73   
Фон   Ф74   
Фор   Ф75   
Форт   Ф76   
Фос   Ф77   
Фө   Ф78   
Фр   Ф79   
Фран   Ф80   
Фре   Ф81   
Френ   Ф82   
Фри   Ф83   
Фриг   Ф84   
Фрид   Ф85   
Фриш   Ф86   
Фро   Ф87   
Фрос   Ф88   
Фру   Ф89   
Фу   Ф90   
Фур   Ф91   
Фут   Ф92   
Фуч   Ф93   
Фұ   Ф94   
Фү   Ф95   
Фы   Ф96   
Фі   Ф97   
Фэ   Ф98   
Фю   Ф99    
Х   Х11   
Ха   Х12   
Хаг   Х13   
Хад   Х14   
Хай   Х15   
Хак   Х16   
Хал   Х17   
Хам   Х18   
Хан   Х19   
Хар   Х20   
Харт   Х21   
Харь   Х22   
Хас   Х23   
Хасе   Х23   
Хат   Х24   
Хау   Х25   
Хах   Х26   
Хац   Х27   
Хач   Х28   
Хв   Х29   
Хва   Х30   
Хво   Х31   
Хвос   Х32   
Хвощ   Х33   
Хе   Х34   
Хел   Х35   
Хем   Х36   
Хен   Х37   
Хер   Х38   
Хес   Х39   
Хет   Х40   
Хи   Х41   
Хиж   Х42   
Хик   Х43   
Хил   Х44   
Хим   Х45   
Хин   Х46   
Хио   Х47   
Хир   Х48   
Хиру   Х49   
Хис   Х50   
Хит   Х51   
Хич   Х52   
Хиш   Х53   
Хл   Х54   
Хли   Х55   
Хло   Х56   
Хлоп   Х57   
Хлу   Х58   
Хлы   Х59   
Хлю   Х60   
Хля   Х61   
Хм   Х62   
Хме   Х63   
Хму   Х64   
Хмы   Х65   
Хо   Х66   
Ход   Х67   
Хоз   Х68   
Хол   Х69   
Холо   Х70   
Холу   Х71   
Холь   Х72   
Хом   Х73   
Хон   Х74   
Хоп   Х75   
Хор   Х76   
Хоро   Х77   
Хорь   Х78   
Хос   Х79   
Хот   Х80   
Хох   Х81   
Хоч   Х82   
Хө   Х83   
Хра   Х84   
Храм   Х85   
Хран   Х86   
Хре   Х87   
Хрж   Х88   
Хри   Х89   
Хро   Х90   
Хрц   Х91   
Хрю   Х92   
Хря   Х93   
Ху   Х94   
Хұ   Х95   
Хү   Х96   
Хы   Х97   
Хі   Х98   
Хэ   Х99    
Ц   Ц11   
Ца   Ц12   
Цаг   Ц13   
Цай   Ц14   
Цам   Ц15   
Цан   Ц16   
Цап   Ц17   
Цар   Ц18   
Царь   Ц19   
Цас   Ц20   
Цат   Ц21   
Цаф   Ц22   
Цац   Ц23   
Цә   Ц24   
Цв   Ц25   
Цве   Ц26   
Цви   Ц27   
Це   Ц28   
Цед   Ц29   
Цез   Ц30   
Цей   Ц31   
Цек   Ц32   
Цел   Ц33   
Цель   Ц34   
Цем   Ц35   
Цен   Ц36   
Цент   Ц37   
Цео   Ц38   
Цеп   Ц39   
Цер   Ц40   
Цере   Ц41   
Церк   Ц42   
Церл   Ц43   
Церм   Ц44   
Церо   Ц45   
Церп   Ц46   
Цес   Ц47   
Цет   Ц48   
Цети   Ц49   
Цетк   Ц50   
Цеф   Ц51   
Цефе   Ц52   
Цех   Ц53   
Ци   Ц54   
Цие   Ц55   
Цик   Ц56   
Цил   Ц57   
Цим   Ц58   
Цин   Ц59   
Цинд   Ц60   
Цинз   Ц61   
Цинк   Ц62   
Цио   Ц63   
Цип   Ц64   
Цир   Ц65   
Цирк   Ц66   
Цирку   Ц67   
Циру   Ц68   
Цис   Ц69   
Цит   Ц70   
Циф   Ц71   
Цо   Ц72   
Цол   Ц73   
Цом   Ц74   
Цон   Ц75   
Цоп   Ц76   
Цор   Ц77   
Цө   Ц78   
Цр   Ц79   
Цу   Ц80   
Цуз   Ц81   
Цук   Ц82   
Цум   Ц83   
Цур   Ц84   
Цус   Ц85   
Цут   Ц86   
Цух   Ц87   
Цуш   Ц88   
Цұ   Ц89   
Цү   Ц90   
Цш   Ц91   
Цы   Ц92   
Цыг   Ц93   
Цын   Ц94   
Цынк   Ц95   
Цып   Ц96   
Ці   Ц97   
Цю   Ц98   
Ця   Ц99    
Ч   Ч-11   
Ча   Ч-12   
Чад   Ч-13   
Чае   Ч-14   
Чай   Ч-15   
Чак   Ч-16   
Чам   Ч-17   
Чан   Ч-18   
Чап   Ч-19   
Чар   Ч-20   
Чарс   Ч-21   
Чарт   Ч-22   
Час   Ч-23   
Чат   Ч-24   
Чах   Ч-25   
Чач   Ч-26   
Чаш   Ч-27   
Чащ   Ч-28   
Чаю   Ч-29   
Чая   Ч-30   
Чә   Ч-31   
Чв   Ч-32   
Че   Ч-33   
Чед   Ч-34   
Чей   Ч-35   
Чек   Ч-36   
Чел   Ч-37   
Чело   Ч-38   
Челп   Ч-39   
Челч   Ч-40   
Чен   Ч-41   
Чеп   Ч-42   
Чер   Ч-43   
Чере   Ч-44   
Черк   Ч-45   
Черн   Ч-46   
Черт   Ч-47   
Чес   Ч-48   
Чет   Ч-49   
Чети   Ч-50   
Чеф   Ч-51   
Чех   Ч-52   
Чеч   Ч-53   
Чи   Ч-54   
Чиж   Ч-55   
Чик   Ч-56   
Чил   Ч-57   
Чим   Ч-58   
Чин   Ч-59   
Чир   Ч-60   
Чири   Ч-61   
Чис   Ч-62   
Чист   Ч-63   
Чит   Ч-64   
Чиф   Ч-65   
Чих   Ч-66   
Чич   Ч-67   
Чищ   Ч-68   
Чл   Ч-69   
Члы   Ч-70   
Чо   Ч-71   
Чор   Ч-72   
Чө   Ч-73   
Чр   Ч-74   
Чт   Ч-75   
Чти   Ч-76   
Что   Ч-77   
Чу   Ч-78   
Чув   Ч-79   
Чуг   Ч-80   
Чуд   Ч-81   
Чуе   Ч-82   
Чуж   Ч-83   
Чуй   Ч-84   
Чук   Ч-85   
Чул   Ч-86   
Чум   Ч-87   
Чун   Ч-88   
Чуп   Ч-89   
Чур   Ч-90   
Чус   Ч-91   
Чут   Ч-92   
Чуш   Ч-93   
Чұ   Ч-94   
Чү   Ч-95   
Чх   Ч-96   
Чі   Ч-97   
Чэ   Ч-98   
Чя   Ч-99    
Ш   Ш11   
Ша   Ш12   
Шаб   Ш13   
Шав   Ш14   
Шаг   Ш15   
Шағ   Ш16   
Шад   Ш17   
Шай   Ш18   
Шайм   Ш18   
Шак   Ш19   
Шаку   Ш19   
Шақ   Ш20   
Шал   Ш21   
Шам   Ш22   
Шан   Ш23   
Шаң   Ш24   
Шао   Ш25   
Шап   Ш26   
Шар   Ш27   
Шас   Ш28   
Шат   Ш29   
Шаф   Ш30   
Шах   Ш31   
Шаха   Ш31   
Шаш   Ш32   
Шашт   Ш32   
Шая   Ш33   
Шә   Ш34   
Шәмш   Ш34   
Шәрі   Ш34   
Шв   Ш35   
Шве   Ш36   
Швед   Ш37   
Ше   Ш38   
Шев   Ш39   
Шег   Ш40   
Шей   Ш41   
Шек   Ш42   
Шел   Ш43   
Шем   Ш44   
Шен   Ш45   
Шең   Ш46   
Шеп   Ш47   
Шер   Ш48   
Шес   Ш49   
Шет   Ш50   
Шеф   Ш51   
Шех   Ш52   
Ши   Ш53   
Шид   Ш54   
Шик   Ш55   
Шил   Ш56   
Шим   Ш57   
Шин   Ш58   
Шип   Ш59   
Шир   Ш60   
Шит   Ш61   
Шиф   Ш62   
Шиш   Ш63   
Шк   Ш64   
Шқ   Ш65   
Шл   Ш66   
Шли   Ш67   
Шля   Ш68   
Шм   Ш69   
Шме   Ш70   
Шму   Ш71   
Шн   Ш72   
Шни   Ш73   
Шң   Ш74   
Шо   Ш75   
Шой   Ш76   
Шоқ   Ш77   
Шоқа   Ш77   
Шол   Ш78   
Шоп   Ш79   
Шор   Ш80   
Шот   Ш81   
Шоу   Ш82   
Шох   Ш83   
Шош   Ш84   
Шө   Ш85   
Шөл   Ш86   
Шп   Ш87   
Шр   Ш88   
Шре   Ш89   
Шт   Ш90   
Што   Ш91   
Шу   Ш92   
Шум   Ш93   
Шух   Ш94   
Шұ   Ш95   
Шү   Ш96   
Шүкі   Ш96   
Шы   Ш97   
Ші   Ш98   
Шю   Ш99    
Щ   Щ11   
Ща   Щ12   
Щав   Щ13   
Щави   Щ14   
Щаг   Щ15   
Щад   Щ16   
Щаду   Щ17   
Щак   Щ18   
Щал   Щ19   
Щам   Щ20   
Щан   Щ21   
Щап   Щ22   
Щапи   Щ23   
Щапо   Щ24   
Щар   Щ25   
Щас   Щ26   
Щат   Щ27   
Ще   Щ28   
Щеб   Щ29   
Щев   Щ30   
Щег   Щ31   
Щего   Щ32   
Щегу   Щ33   
Щед   Щ34   
Щедр   Щ35   
Щек   Щ36   
Щеки   Щ37   
Щеко   Щ38   
Щеку   Щ39   
Щел   Щ40   
Щели   Щ41   
Щелк   Щ42   
Щелқ   Щ43   
Щело   Щ44   
Щель   Щ45   
Щем   Щ46   
Щеми   Щ47   
Щемя   Щ48   
Щен   Щ49   
Щене   Щ50   
Щени   Щ51   
Щено   Щ52   
Щеп   Щ53   
Щепе   Щ54   
Щепи   Щ55   
Щепк   Щ56   
Щер   Щ57   
Щерб   Щ58   
Щербак   Щ59   
Щерби   Щ60   
Щербиц   Щ61   
Щербо   Щ62   
Щерд   Щ63   
Щери   Щ64   
Щерн   Щ65   
Щет   Щ66   
Щетк   Щ67   
Щетко   Щ68   
Щето   Щ69   
Щи   Щ70   
Щив   Щ71   
Щиг   Щ72   
Щигр   Щ73   
Щигры   Щ74   
Щигу   Щ75   
Щик   Щ76   
Щил   Щ77   
Щим   Щ78   
Щин   Щ79   
Щип   Щ80   
Щипи   Щ81   
Щипк   Щ82   
Щир   Щ83   
Щит   Щ84   
Щитк   Щ85   
Щито   Щ86   
Щитон   Щ87   
Що   Щ88   
Щө   Щ89   
Щу   Щ90   
Щук   Щ91   
Щуки   Щ92   
Щуп   Щ93   
Щупл   Щ94   
Щур   Щ95   
Щуч   Щ96   
Щұ   Щ97   
Щү   Щ98   
Щі   Щ99    
Ы   Ы11   
Ыб   Ы12   
Ыбы   Ы13   
Ыбыл   Ы14   
Ыбыр   Ы15   
Ыв   Ы16   
Ыг   Ы17   
Ығ   Ы18   
Ыд   Ы19   
Ыды   Ы20   
Ыдыр   Ы21   
Ыдыс   Ы22   
Ыж   Ы23   
Ыжд   Ы24   
Ыз   Ы25   
Ызғ   Ы26   
Ызд   Ы27   
Ызды   Ы28   
Ызи   Ы29   
Ызқ   Ы30   
Ызм   Ы31   
Ызмы   Ы32   
Ызо   Ы33   
Ызп   Ы34   
Ызр   Ы35   
Ызт   Ы36   
Ызы   Ы37   
Ызық   Ы38   
Ый   Ы39   
Ыйм   Ы40   
Ыйн   Ы41   
Ыйң   Ы42   
Ыйс   Ы43   
Ық   Ы44   
Ықм   Ы45   
Ықт   Ы46   
Ықш   Ы47   
Ықы   Ы48   
Ықыл   Ы49   
Ыл   Ы50   
Ылад   Ы51   
Ылай   Ы52   
Ылақ   Ы53   
Ылаш   Ы54   
Ылғ   Ы55   
Ылд   Ы56   
Ылы   Ы57   
Ым   Ы58   
Ымб   Ы59   
Ымд   Ы60   
Ымш   Ы61   
Ымы   Ы62   
Ымыр   Ы63   
Ын   Ы64   
Ынд   Ы65   
Ынк   Ы66   
Ынс   Ы67   
Ынт   Ы68   
Ыны   Ы69   
Ың   Ы70   
Ыңғ   Ы71   
Ыңу   Ы72   
Ыңы   Ы73   
Ыңыз   Ы74   
Ып   Ы75   
Ыр   Ы76   
Ырғ   Ы77   
Ырж   Ы78   
Ырз   Ы79   
Ыры   Ы80   
Ырық   Ы81   
Ырым   Ы82   
Ырың   Ы83   
Ырыс   Ы84   
Ырысп   Ы85   
Ырыст   Ы86   
Ыс   Ы87   
Ысқ   Ы88   
Ысқа   Ы88   
Ысма   Ы88   
Ысп   Ы89   
Ыст   Ы90   
Ысх   Ы91   
Ыт   Ы92   
Ыш   Ы93   
Ышм   Ы94   
Ышп   Ы95   
Ышт   Ы96   
Ышту   Ы97   
Ышу   Ы98   
Ышы   Ы99    
І   І-11   
Іб   І-12   
Іби   І-13   
Ібр   І-14   
Ібі   І-15   
Іг   І-16   
Іга   І-17   
Іге   І-18   
Іги   І-19   
Ігр   І-20   
Ігі   І-21   
Ід   І-22   
Іде   І-23   
Ідр   І-24   
Іді   І-25   
Іж   І-26   
Із   І-27   
Ізб   І-28   
Ізбе   І-29   
Ізгі   І-30   
Ізд   І-31   
Ізде   І-32   
Ізди   І-33   
Ізе   І-34   
Ізи   І-35   
Ізк   І-36   
Ізл   І-37   
Ізм   І-38   
Ізн   І-39   
Ізо   І-40   
Ізп   І-41   
Ізр   І-42   
Ізт   І-43   
Ізти   І-44   
Іл   І-45   
Іле   І-46   
Іли   І-47   
Ілм   І-48   
Ілт   І-49   
Ілі   І-50   
Ім   І-51   
Імж   І-52   
Імш   І-53   
Ін   І-54   
Інб   І-55   
Інг   І-56   
Інд   І-57   
Інде   І-58   
Інді   І-59   
Іне   І-60   
Інж   І-61   
Інш   І-62   
Іні   І-63   
Ің   І-64   
Іңі   І-65   
Іп   І-66   
Ір   І-67   
Ірб   І-68   
Ірг   І-69   
Ірге   І-70   
Ірд   І-71   
Іре   І-72   
Ірж   І-73   
Ірз   І-74   
Ірк   І-75   
Ірке   І-76   
Іркі   І-77   
Ірл   І-78   
Ірм   І-79   
Ірн   І-80   
Ірс   І-81   
Ірт   І-82   
Ірш   І-83   
Ірі   І-84   
Іс   І-85   
Іск   І-86   
Іске   І-87   
Ісл   І-88   
Ісм   І-89   
Ісп   І-90   
Іспе   І-91   
Іспі   І-92   
Істе   І-93   
Істі   І-94   
Ісш   І-95   
Іт   І-96   
Іш   І-97   
Ішк   І-98   
Ішп   І-99    
Э   Э11   
Эб   Э12   
Эби   Э13   
Эбш   Э14   
Эв   Э15   
Эвр   Э16   
Эг   Э17   
Эги   Э18   
Эд   Э19   
Эде   Э20   
Эдж   Э21   
Эди   Э22   
Эдм   Э23   
Эдн   Э24   
Эдо   Э25   
Эдр   Э26   
Эдс   Э27   
Эду   Э28   
Эж   Э29   
Эз   Э30   
Эй   Э31   
Эйк   Э32   
Эйл   Э33   
Эйн   Э34   
Эйх   Э35   
Эк   Э36   
Эке   Э37   
Эки   Э38   
Экл   Э39   
Эко   Э40   
Экс   Э41   
Экт   Э42   
Эку   Э43   
Экш   Э44   
Эл   Э45   
Эле   Э46   
Эли   Э47   
Элл   Э48   
Элп   Э49   
Элс   Э50   
Элт   Э51   
Элу   Э52   
Эль   Э53   
Эм   Э54   
Эми   Э55   
Эмм   Э56   
Эмо   Э57   
Эмс   Э58   
Эмт   Э59   
Эму   Э60   
Эн   Э61   
Энг   Э62   
Энгел   Э63   
Энд   Э64   
Эне   Э65   
Энз   Э66   
Энт   Э67   
Энш   Э68   
Эң   Э69   
Эо   Э70   
Эп   Э71   
Эпи   Э72   
Эпо   Э73   
Эпш   Э74   
Эр   Э75   
Эрд   Э76   
Эре   Э77   
Эри   Э78   
Эрк   Э79   
Эрл   Э80   
Эрм   Э81   
Эрн   Э82   
Эрт   Э83   
Эру   Э84   
Эс   Э85   
Эск   Э86   
Эст   Э87   
Эсф   Э88   
Эт   Э89   
Эти   Э90   
Этл   Э91   
Это   Э92   
Этр   Э93   
Этф   Э94   
Эх   Э95   
Эц   Э96   
Эч   Э97   
Эш   Э98   
Эя   Э99    
Ю   Ю11   
Юа   Ю12   
Юб   Ю13   
Юв   Ю14   
Юг   Ю15   
Юги   Ю16   
Юд   Ю17   
Юж   Ю18   
Южи   Ю19   
Южин   Ю20   
Юз   Ю21   
Юй   Ю22   
Юйн   Ю23   
Юк   Ю24   
Юки   Ю25   
Юко   Ю26   
Юкс   Ю27   
Юкт   Ю28   
Юку   Ю29   
Юкш   Ю30   
Юкэ   Ю31   
Юл   Ю32   
Юле   Ю33   
Юли   Ю34   
Юлиш   Ю35   
Юлк   Ю36   
Юлн   Ю37   
Юло   Ю38   
Юлу   Ю39   
Юль   Ю40   
Юм   Ю41   
Юмат   Ю42   
Юмаш   Ю43   
Юме   Ю44   
Юми   Ю45   
Юмо   Ю46   
Юмор   Ю47   
Юму   Ю48   
Юн   Ю49   
Юнг   Ю50   
Юне   Ю51   
Юни   Ю52   
Юнн   Ю53   
Юно   Ю54   
Юнос   Ю55   
Юнош   Ю56   
Юны   Ю57   
Юнэ   Ю58   
Юо   Ю59   
Юп   Ю60   
Юпе   Ю61   
Юпи   Ю62   
Юпо   Ю63   
Юпу   Ю64   
Юр   Ю65   
Юрг   Ю66   
Юрд   Ю67   
Юре   Ю68   
Юрен   Ю69   
Юри   Ю70   
Юрий   Ю71   
Юрик   Ю72   
Юрис   Ю73   
Юрк   Ю74   
Юрко   Ю75   
Юркш   Ю76   
Юрм   Ю77   
Юро   Ю78   
Юрод   Ю79   
Юрос   Ю80   
Юрс   Ю81   
Юрт   Ю82   
Юрч   Ю83   
Юрш   Ю84   
Юрь   Ю85   
Юрье   Ю86   
Юрьи   Ю87   
Юс   Ю88   
Юсе   Ю89   
Юст   Ю90   
Юсу   Ю91   
Юсуп   Ю91   
Ют   Ю92   
Юф   Ю93   
Юх   Ю94   
Юш   Ю95   
Юшк   Ю96   
Юшт   Ю97   
Ющ   Ю98   
Ющи   Ю99    
Я   Я11   
Яб   Я12   
Яби   Я13   
Ябл   Я14   
Яв   Я15   
Явд   Я16   
Яве   Я17   
Яви   Я18   
Явл   Я19   
Явн   Я20   
Яво   Я21   
Явр   Я22   
Явс   Я23   
Явт   Я24   
Яву   Я25   
Яг   Я26   
Яге   Я27   
Яги   Я28   
Яго   Я29   
Ягу   Я30   
Яғ   Я31   
Яд   Я32   
Ядв   Я33   
Яде   Я34   
Яди   Я35   
Ядо   Я36   
Яду   Я37   
Яж   Я38   
Яз   Я39   
Язы   Я40   
Яй   Я41   
яйч   я42   
Як   Я43   
Яки   Я44   
Яко   Я45   
Яков   Я46   
Яку   Я47   
Якш   Я48   
Яқ   Я49   
Ял   Я50   
Ялт   Я51   
Яль   Я52   
Ям   Я53   
Ямб   Я54   
Ямо   Я55   
Ямп   Я56   
Ямуе   Я57   
Ямш   Я58   
Ян   Я59   
Янж   Я60   
Яни   Я61   
Янн   Я62   
Яно   Я63   
Янс   Я64   
Янч   Я65   
Яны   Я66   
Яң   Я67   
Яо   Я68   
Яп   Я69   
Япо   Я70   
Яр   Я71   
Яре   Я72   
Ярж   Я73   
Яри   Я74   
Ярм   Я75   
Яро   Я76   
Яру   Я77   
Яс   Я78   
Яси   Я79   
Ясн   Я80   
Ясо   Я81   
Ясс   Я82   
Яст   Я83   
Ясу   Я84   
Ят   Я85   
Яты   Я86   
Яу   Я87   
Яф   Я88   
Ях   Я89   
Яхн   Я90   
Яхт   Я91   
Яц   Я92   
Яцн   Я93   
Яцу   Я94   
Яч   Я95   
Яш   Я96   
Ящ   Я97   
Ящи   Я98   
Ящу   Я99    

A   A10   
Aa   A11   
Ab   A12   
Abe   A13   
Abh   A14   
Abi   A15   
Abr   A16   
Abu   A17   
Ac   A18   
Act   A19   
Ad   A20   
Adl   A21   
Adr   A22   
Ae   A23   
Af   A24   
Ag   A25   
Agr   A26   
Ah   A27   
Ai   A28   
Ak   A29   
Al   A30   
Ald   A31   
Ale   A32   
Alex   A33   
Alf   A34   
Alg   A35   
Ali   A36   
Alk   A37   
All   A38   
Alm   A39   
Alo   A40   
Alp   A41   
Alq   A42   
Als   A43   
Alt   A44   
Alv   A45   
Am   A46   
Ame   A47   
Ami   A48   
Amm   A49   
Amp   A50   
Ams   A51   
Amu   A52   
An   A53   
And   A54   
Andr   A55   
Ane   A56   
Ang   A57   
Ani   A58   
Ank   A59   
Ann   A60   
Ans   A61   
Ant   A62   
Anu   A63   
Anw   A64   
Anz   A65   
Ap   A66   
App   A67   
Apu   A68   
Aq   A69   
Ar   A70   
Arc   A71   
Ard   A72   
Are   A73   
Ari   A74   
Arm   A75   
Arn   A76   
Aro   A77   
Arq   A78   
Arr   A79   
Ars   A80   
Art   A81   
As   A82   
Asc   A83   
Ash   A84   
Ask   A85   
Asm   A86   
Asp   A87   
Ass   A88   
Ast   A89   
At   A90   
Att   A91   
Au   A92   
Aus   A93   
Aut   A94   
Av   A95   
Aw   A96   
Ax   A97   
Ay   A98   
Az   A99   
B   B10   
Ba   B11   
Bac   B12   
Bad   B13   
Bae   B14   
Bag   B15   
Bai   B16   
Bak   B17   
Bal   B18   
Bals   B19   
Balz   B20   
Bam   B21   
Ban   B22   
Bap   B23   
Bar   B24   
Barn   B25   
Barr   B26   
Bart   B27   
Barw   B28   
Bas   B29   
Bat   B30   
Bau   B31   
Bav   B32   
Bay   B33   
Be   B34   
Bec   B35   
Bed   B36   
Bee   B37   
Beg   B38   
Beh   B39   
Bei   B40   
Bel   B41   
Bem   B42   
Ben   B43   
Beo   B44   
Ber   B45   
Berk   B46   
Berl   B47   
Berm   B48   
Bern   B49   
Berr   B50   
Bert   B51   
Bes   B52   
Bet   B53   
Bev   B54   
Bey   B55   
Bi   B56   
Bie   B57   
Bil   B58   
Bin   B59   
Bio   B60   
Bir   B61   
Bis   B62   
Biu   B63   
Bl   B64   
Ble   B65   
Bli   B66   
Blo   B67   
Blu   B68   
Bo   B69   
Boe   B70   
Bog   B71   
Boh   B72   
Boi   B73   
Bol   B74   
Bom   B75   
Bon   B76   
Boo   B77   
Bor   B78   
Bos   B79   
Bot   B80   
Bou   B81   
Bow   B82   
Boy   B83   
Br   B84   
Bre   B85   
Bri   B86   
Bro   B87   
Brou   B88   
Brow   B89   
Bru   B90   
Bry   B91   
Bu   B92   
Bul   B93   
Bun   B94   
Buo   B95   
Bur   B96   
Bus   B97   
But   B98   
By   B99   
C   C10   
Ca   C11   
Cae   C12   
Caf   C13   
Cah   C14   
Cai   C15   
Cal   C16   
Cam   C17   
Camp   C18   
Can   C19   
Cap   C20   
Car   C21   
Carl   C22   
Carm   C23   
Carn   C24   
Caro   C25   
Cars   C26   
Cart   C27   
Caru   C28   
Cas   C29   
Cast   C30   
Cat   C31   
Cath   C32   
Cato   C33   
Catt   C34   
Cau   C35   
Cav   C36   
Ce   C37   
Cel   C38   
Cem   C39   
Cen   C40   
Cer   C41   
Ces   C42   
Cha   C43   
Cham   C44   
Chan   C45   
Chap   C46   
Char   C47   
Chas   C48   
Chat   C49   
Chau   C50   
Che   C51   
Chi   C52   
Chl   C53   
Chm   C54   
Cho   C55   
Chr   C56   
Chu   C57   
Ci   C58   
Cl   C59   
Cle   C60   
Cli   C61   
Clo   C62   
Clu   C63   
Cly   C64   
Co   C65   
Cod   C66   
Coe   C67   
Coh   C68   
Col   C69   
Coll   C70   
Colo   C71   
Colu   C72   
Com   C74   
Con   C73   
Cons   C75   
Cont   C76   
Coo   C77   
Cop   C78   
Cor   C79   
Corn   C80   
Corp   C81   
Cors   C82   
Cos   C83   
Cot   C84   
Cou   C85   
Cow   C86   
Cr   C87   
Cre   C88   
Cri   C89   
Cro   C90   
Cru   C91   
Cs   C92   
Ct   C93   
Cu   C94   
Cur   C95   
Cus   C96   
Cut   C97   
Cy   C98   
Cz   C99   
D   D10   
Da   D11   
Dae   D12   
Daf   D13   
Dah   D14   
Dai   D15   
Dal   D16   
Dam   D17   
Dan   D18   
Dant   D19   
Dar   D20   
Darm   D21   
Dart   D22   
Das   D23   
Dat   D24   
Dau   D25   
Dav   D26   
Daw   D27   
Day   D28   
De   D29   
Dee   D30   
Deg   D31   
Deh   D32   
Dei   D33   
Del   D34   
Delo   D35   
Delp   D36   
Delt   D37   
Dem   D38   
Demo   D39   
Den   D40   
Denn   D41   
Deno   D42   
Dent   D43   
Dep   D44   
Der   D45   
Des   D46   
Det   D47   
Deu   D48   
Dev   D49   
Dew   D50   
Dez   D51   
Dh   D52   
Di   D53   
Did   D54   
Die   D55   
Dif   D56   
Dil   D57   
Dim   D58   
Din   D59   
Dio   D60   
Dip   D61   
Dir   D62   
Dis   D63   
Dit   D64   
Dix   D65   
Dl   D66   
Dm   D67   
Do   D68   
Doe   D69   
Dol   D70   
Dom   D71   
Don   D72   
Doo   D73   
Dor   D74   
Dos   D75   
Dot   D76   
Dou   D77   
Dow   D78   
Doy   D79   
Dr   D80   
Dri   D81   
Dro   D82   
Dru   D83   
Du   D84   
Due   D85   
Duf   D86   
Dui   D87   
Dul   D88   
Dum   D89   
Dun   D90   
Dup   D91   
Dur   D92   
Dus   D93   
Dut   D94   
Duv   D95   
Dv   D96   
Dw   D97   
Dy   D98   
Dz   D99   
E   E10   
Ea   E11   
Eas   E12   
Eat   E13   
Eb   E14   
Ebn   E15   
Ebr   E16   
Ebs   E17   
Ec   E18   
Ech   E19   
Eck   E20   
Ed   E21   
Edg   E22   
Edi   E23   
Edm   E24   
Edu   E25   
Edw   E26   
Ef   E27   
Eg   E28   
Egg   E29   
Egl   E30   
Ego   E31   
Egr   E32   
Egu   E33   
Eh   E34   
Ehr   E35   
Ei   E36   
Eik   E37   
Eil   E38   
Eim   E39   
Ein   E40   
Eis   E41   
Ek   E42   
El   E43   
Eli   E44   
Elk   E45   
Ell   E46   
Els   E47   
Elt   E48   
Elv   E49   
Em   E50   
Emm   E51   
Emp   E52   
Ems   E53   
En   E54   
Eng   E55   
Engl   E56   
Enn   E57   
Ent   E58   
Eo   E59   
Ep   E60   
Eph   E61   
Epi   E62   
Epo   E63   
Eps   E64   
Eq   E65   
Er   E66   
Erg   E67   
Eri   E68   
Erl   E69   
Erm   E70   
Ern   E71   
Ers   E72   
Ert   E73   
Erz   E74   
Es   E75   
Esc   E76   
Esd   E77   
Esk   E78   
Esp   E79   
Ess   E80   
Est   E81   
Estr   E82   
Et   E83   
Eth   E84   
Eti   E85   
Eto   E86   
Etr   E87   
Ett   E88   
Etu   E89   
Eu   E90   
Eur   E91   
Eut   E92   
Ev   E93   
Eve   E94   
Evo   E95   
Ew   E96   
Ex   E97   
Ey   E98   
Ez   E99   
F   F10   
Fa   F11   
Fac   F12   
Fad   F13   
Fae   F14   
Fag   F15   
Fah   F16   
Fai   F17   
Fak   F18   
Fal   F19   
Fall   F20   
Falt   F21   
Fam   F22   
Fan   F23   
Far   F24   
Farr   F25   
Fas   F26   
Fat   F27   
Fau   F28   
Fav   F29   
Faw   F30   
Fax   F31   
Fay   F32   
Fe   F33   
Feg   F34   
Fei   F35   
Fel   F36   
Fem   F37   
Fen   F38   
Feo   F39   
Fer   F40   
Fern   F41   
Ferr   F42   
Fers   F43   
Fes   F44   
Fet   F45   
Feu   F46   
Fev   F47   
Fi   F48   
Fid   F49   
Fie   F50   
Fig   F51   
Fil   F52   
Fim   F53   
Fin   F54   
Fio   F55   
Fir   F56   
Fis   F57   
Fish   F58   
Fisk   F59   
Fit   F60   
Fitz   F61   
Fiu   F62   
Fl   F63   
Flau   F64   
Fle   F65   
Flet   F66   
Fleu   F67   
Fli   F68   
Flo   F69   
Flu   F70   
Fo   F71   
Fol   F72   
Fon   F73   
Foo   F74   
For   F75   
Form   F76   
Fort   F77   
Fos   F78   
Fost   F79   
Fot   F80   
Fou   F81   
Fow   F82   
Fox   F83   
Fr   F84   
Fran   F85   
Frat   F86   
Frau   F87   
Fre   F88   
Fren   F89   
Freu   F90   
Frey   F91   
Fri   F92   
Fris   F93   
Fro   F94   
Fru   F95   
Fu   F96   
Fun   F97   
Fur   F98   
Fy   F99   
G   G10   
Ga   G11   
Gad   G12   
Gae   G13   
Gai   G14   
Gal   G15   
Gam   G16   
Gan   G17   
Gar   G18   
Gard   G19   
Garn   G20   
Garo   G21   
Garr   G22   
Gart   G23   
Gas   G24   
Gat   G25   
Gau   G26   
Gav   G27   
Gay   G28   
Gaz   G29   
Ge   G30   
Ged   G31   
Gee   G32   
Gei   G33   
Gel   G34   
Gem   G35   
Gen   G36   
Geo   G37   
Ger   G38   
Germ   G39   
Gers   G40   
Ges   G41   
Gh   G42   
Gi   G43   
Gie   G44   
Gil   G45   
Gin   G46   
Gio   G47   
Gir   G48   
Giu   G50   
Gl   G51   
Gle   G52   
Gli   G53   
Glo   G54   
Glu   G55   
Gn   G56   
Go   G57   
Goe   G58   
Goi   G59   
Gol   G60   
Goll   G61   
Gom   G62   
Gon   G63   
Goo   G64   
Gor   G65   
Gos   G66   
Got   G67   
Gott   G68   
Gou   G69   
Gov   G70   
Gr   G71   
Gran   G72   
Grap   G73   
Gras   G74   
Grav   G75   
Gray   G76   
Gre   G77   
Gree   G78   
Greg   G79   
Gren   G80   
Gres   G81   
Grev   G82   
Gri   G83   
Grim   G84   
Grin   G85   
Gro   G86   
Grol   G87   
Gros   G88   
Grot   G89   
Gru   G90   
Grz   G91   
Gu   G92   
Gue   G93   
Gui   G94   
Gun   G95   
Gus   G96   
Gut   G97   
Gw   G98   
Gy   G99   
H   H10   
Ha   H11   
Hac   H12   
Hae   H13   
Haf   H14   
Hag   H15   
Hah   H16   
Hai   H17   
Hal   H18   
Hall   H19   
Ham   H20   
Hamp   H21   
Han   H22   
Hans   H23   
Har   H24   
Hard   H25   
Harl   H26   
Harm   H27   
Harn   H28   
Haro   H29   
Harr   H30   
Hart   H31   
Harv   H32   
Has   H33   
Hass   H34   
Hast   H35   
Hat   H36   
Hau   H37   
Haus   H38   
Hav   H39   
Haw   H40   
Hay   H41   
Haz   H42   
He   H43   
Heb   H44   
Hec   H45   
Hed   H46   
Hee   H47   
Heg   H48   
Hei   H49   
Hel   H50   
Helo   H51   
Hels   H52   
Hem   H53   
Hen   H54   
Henr   H55   
Hep   H56   
Her   H57   
Herr   H58   
Hert   H59   
Herz   H60   
Hes   H61   
Het   H62   
Heu   H63   
Hey   H64   
Hi   H65   
Hil   H66   
Hin   H67   
Hir   H68   
His   H69   
Hl   H70   
Ho   H71   
Hoe   H72   
Hof   H73   
Hoh   H74   
Hol   H75   
Hom   H76   
Hon   H77   
Hoo   H78   
Hop   H79   
Hor   H80   
Hos   H81   
Hot   H82   
Hou   H83   
How   H84   
Hoy   H85   
Hr   H86   
Hs   H87   
Hu   H88   
Hue   H89   
Hug   H90   
Hum   H91   
Hun   H92   
Hur   H93   
Hus   H94   
Hut   H95   
Hux   H96   
Huy   H97   
Hv   H98   
Hy   H99   
I   I-10   
Ib   I-32   
Ic   I-33   
Id   I-34   
If   I-49   
Ig   I-50   
Ih   I-51   
Ik   I-53   
Il   I-54   
Im   I-55   
Imp   I-56   
In   I-57   
Ind   I-58   
Ine   I-59   
Inf   I-60   
Ing   I-61   
Ink   I-62   
Inm   I-63   
Inn   I-64   
Ino   I-65   
Inq   I-66   
Ins   I-67   
Inst   I-68   
Int   I-69   
Inv   I-70   
Ip   I-83   
Ir   I-84   
Is   I-85   
Ist   I-86   
It   I-87   
Iv   I-98   
Iz   I-99   
J   J10   
Ja   J11   
Jac   J12   
Jaco   J13   
Jacq   J14   
Jad   J15   
Jae   J16   
Jag   J17   
Jah   J18   
Jai   J19   
Jak   J20   
Jal   J21   
Jam   J22   
Jan   J23   
Jap   J24   
Jar   J25   
Jas   J26   
Jat   J27   
Jau   J28   
Jav   J29   
Jaw   J30   
Jaz   J31   
Je   J35   
Jed   J36   
Jef   J37   
Jeh   J38   
Jek   J39   
Jel   J40   
Jen   J41   
Jep   J42   
Jer   J43   
Jes   J44   
Jet   J45   
Jeu   J46   
Jev   J47   
Jew   J48   
Ji   J52   
Jo   J71   
Joe   J72   
Jof   J73   
Joh   J74   
Jol   J75   
Jon   J76   
Jor   J77   
Jos   J78   
Joss   J79   
Jou   J80   
Jov   J81   
Joy   J82   
Ju   J88   
Jud   J89   
Jue   J90   
Jug   J91   
Jul   J92   
Jun   J93   
Jur   J94   
Jus   J95   
Juv   J96   
Juz   J97   
K   K10   
Ka   K11   
Kac   K12   
Kad   K13   
Kae   K14   
Kaf   K15   
Kah   K16   
Kal   K17   
Kam   K18   
Kan   K19   
Kap   K20   
Kar   K21   
Kas   K22   
Kat   K23   
Kau   K24   
Kav   K25   
Kay   K26   
Ke   K27   
Kee   K28   
Keh   K29   
Kei   K30   
Kel   K31   
Kem   K32   
Ken   K33   
Kent   K34   
Keo   K35   
Kep   K36   
Ker   K37   
Kes   K38   
Ket   K39   
Keu   K40   
Key   K41   
Kh   K42   
Ki   K43   
Kil   K44   
Kim   K45   
Kin   K46   
Kip   K47   
Kir   K48   
Kis   K49   
Kit   K50   
Kl   K51   
Kle   K52   
Klei   K53   
Klem   K54   
Klet   K55   
Kli   K56   
Klo   K57   
Klu   K58   
Kn   K59   
Kne   K60   
Kni   K61   
Kno   K62   
Knu   K63   
Kny   K64   
Ko   K65   
Koc   K66   
Koe   K67   
Kof   K68   
Koh   K69   
Kol   K70   
Kom   K71   
Kon   K72   
Koo   K73   
Kop   K74   
Kor   K75   
Kos   K76   
Kot   K77   
Kou   K78   
Kov   K79   
KOz   K80   
Kr   K81   
Kre   K82   
Kri   K83   
Kro   K84   
Kru   K85   
Kry   K87   
Krz   K86   
Ks   K88   
Ku   K89   
Kuh   K90   
Kul   K91   
Kun   K92   
Kur   K93   
Kus   K94   
Kut   K95   
Kuz   K96   
Kv   K97   
Kw   K98   
Ky   K99   
L   L10   
Lab   L11   
Lac   L12   
Lad   L13   
Lae   L14   
Laf   L15   
Lag   L16   
Lai   L17   
Lak   L18   
Lal   L19   
Lam   L20   
Lamp   L21   
Lan   L22   
Land   L23   
Lang   L24   
Lani   L25   
Lans   L26   
Lant   L27   
Lao   L28   
Lap   L29   
Laq   L30   
Lar   L31   
Laro   L32   
Larr   L33   
Lars   L34   
Las   L35   
Lat   L36   
Lau   L37   
Laur   L38   
Laut   L39   
Lav   L40   
Law   L41   
Lay   L42   
Laz   L43   
Le   L44   
Lec   L45   
Led   L46   
Lee   L47   
Lef   L48   
Leg   L49   
Leh   L50   
Lei   L51   
Lel   L52   
Lem   L53   
Len   L54   
Leo   L55   
Lep   L56   
Ler   L57   
Les   L58   
Less   L59   
Let   L60   
Leu   L61   
Lev   L62   
Lew   L63   
Ley   L64   
Lh   L65   
Li   L66   
Lic   L67   
Lid   L68   
Lie   L69   
Lif   L70   
Lig   L71   
Lik   L72   
Lil   L73   
Lim   L74   
Lin   L75   
Link   L76   
Linn   L77   
Lio   L78   
Lip   L79   
Lis   L80   
Lit   L81   
Liu   L82   
Liv   L83   
Ll   L84   
Lo   L85   
Lom   L86   
Lon   L87   
Loo   L88   
Lop   L89   
Lor   L90   
Los   L91   
Lot   L92   
Lou   L93   
Lov   L94   
Low   L95   
Lu   L96   
Lut   L97   
Lw   L98   
Ly   L99   
M   M10   
Ma   M11   
Mac   M12   
Mach   M13   
Mack   M14   
Mad   M15   
Mae   M16   
Mag   M17   
Mah   M18   
Mai   M19   
Mak   M20   
Mal   M21   
Malo   M22   
Mam   M23   
Man   M24   
Mann   M25   
Mans   M26   
Mao   M27   
Map   M28   
Mar   M29   
Mari   M30   
Mark   M31   
Marn   M32   
Marr   M33   
Mars   M34   
Mart   M35   
Marx   M36   
Mas   M37   
Mass   M38   
Mat   M39   
Matt   M40   
Mau   M41   
Max   M42   
May   M43   
Maz   M44   
Me   M45   
Med   M46   
Mee   M47   
Meg   M48   
Meh   M49   
Mei   M50   
Mek   M51   
Mel   M52   
Melz   M53   
Mem   M54   
Men   M55   
Menz   M56   
Mer   M57   
Merk   M58   
Merr   M59   
Mes   M60   
Met   M61   
Meu   M62   
Mex   M63   
Mey   M64   
Mi   M65   
Mie   M66   
Mig   M67   
Mik   M68   
Mil   M69   
Mill   M70   
Milt   M71   
Mim   M72   
Min   M73   
Mir   M74   
Mis   M75   
Mit   M76   
Ml   M77   
Mo   M78   
Mol   M79   
Mom   M80   
Mon   M81   
Mont   M82   
Moo   M83   
Mor   M84   
Moro   M85   
Morr   M86   
Mort   M87   
Mos   M88   
Mot   M89   
Mou   M90   
Mow   M91   
Mu   M92   
Mui   M93   
Mul   M94   
Mun   M95   
Mur   M96   
Mus   M97   
Mut   M98   
My   M99   
N   N10   
Na   N11   
Nac   N12   
Nad   N13   
Nae   N14   
Naf   N15   
Nag   N16   
Nai   N17   
Nak   N18   
Nal   N19   
Nam   N20   
Nan   N21   
Nap   N22   
Nar   N23   
Nas   N24   
Nass   N25   
Nat   N26   
Nati   N27   
Natu   N28   
Nau   N29   
Naum   N30   
Nav   N31   
Naz   N32   
Ne   N33   
Nee   N34   
Nei   N35   
Nek   N36   
Nel   N37   
Nels   N38   
Nem   N39   
Nen   N40   
Neo   N41   
Nep   N42   
Ner   N43   
Nerv   N44   
Nes   N45   
Net   N46   
Nett   N47   
Neu   N48   
Neum   N49   
Neur   N50   
Nev   N51   
New   N52   
Newm   N53   
News   N54   
Newt   N55   
Ney   N56   
Ni   N57   
Nic   N58   
Nico   N59   
Nie   N60   
Nieu   N61   
Nig   N62   
Nij   N63   
Nik   N64   
Nil   N65   
Nim   N66   
Nin   N67   
Nip   N68   
Nir   N69   
Nis   N70   
Nit   N71   
Niv   N72   
No   N73   
Nol   N74   
Nom   N75   
Non   N76   
Nor   N77   
Nord   N78   
Norm   N79   
Norr   N80   
Nors   N81   
Nort   N82   
Norv   N83   
Norw   N84   
Nos   N85   
Not   N86   
Nott   N87   
Nou   N88   
Nov   N89   
Now   N90   
Nu   N91   
Num   N92   
Nun   N93   
Nur   N94   
Nus   N95   
Nut   N96   
Ny   N97   
Nys   N98   
Nyt   N99   
O   O-10   
Oa   O-11   
Ob   O-12   
Obi   O-13   
Obl   O-14   
Obo   O-15   
Obr   O-16   
Obs   O-17   
Oc   O-18   
Och   O-19   
Oct   O-20   
Ocu   O-21   
Od   O-22   
Odi   O-23   
Odo   O-24   
Odr   O-25   
Ods   O-26   
Odu   O-27   
Oe   O-28   
Oes   O-29   
Oet   O-30   
Oeu   O-31   
Of   O-32   
Off   O-33   
Ofi   O-34   
Og   O-35   
Ogr   O-36   
Oh   O-37   
Oi   O-38   
Ok   O-39   
Oks   O-40   
Ol   O-41   
Old   O-42   
Ole   O-43   
Olg   O-44   
Oli   O-45   
Olk   O-46   
Oll   O-47   
Olm   O-48   
Olo   O-49   
Ols   O-50   
Olu   O-51   
Om   O-52   
Omo   O-53   
Oms   O-54   
Omu   O-55   
On   O-56   
One   O-57   
Ong   O-58   
Oni   O-59   
Ons   O-60   
Ont   O-61   
Oo   O-62   
Op   O-63   
Opo   O-64   
Opp   O-65   
Opt   O-66   
Oq   O-67   
Or   O-68   
Ord   O-69   
Ore   O-70   
Orf   O-71   
Org   O-72   
Ori   O-73   
Ork   O-74   
Orl   O-75   
Orm   O-76   
Orn   O-77   
Oro   O-78   
Orr   O-79   
Ors   O-80   
Ort   O-81   
Orv   O-82   
Os   O-83   
Osh   O-84   
Osl   O-85   
Osm   O-86   
Oss   O-87   
Ost   O-88   
Osw   O-89   
Ot   O-90   
Ott   O-91   
Ou   O-92   
Our   O-93   
Ouv   O-94   
Ov   O-95   
Ow   O-96   
Ox   O-97   
Oy   O-98   
Oz   O-99   
P   P10   
Pa   P11   
Pad   P12   
Pae   P13   
Pag   P14   
Pai   P15   
Pak   P16   
Pal   P17   
Palm   P18   
Palt   P19   
Pam   P20   
Pan   P21   
Pao   P22   
Pap   P23   
Paq   P24   
Par   P25   
Park   P26   
Parl   P27   
Pars   P28   
Part   P29   
Pas   P30   
Past   P31   
Pat   P32   
Pau   P33   
Pav   P34   
Pay   P35   
Pe   P36   
Pee   P37   
Pei   P38   
Pel   P39   
Pem   P40   
Pen   P41   
Pep   P42   
Per   P43   
Perk   P44   
Perl   P45   
Perr   P46   
Pers   P47   
Pert   P48   
Pes   P49   
Pet   P50   
Petr   P51   
Pett   P52   
Petz   P53   
Pev   P54   
Pf   P55   
Ph   P56   
Philo   P57   
Pho   P58   
Phy   P59   
Pi   P60   
Pie   P61   
Pig   P62   
Pik   P63   
Pil   P64   
Pin   P65   
Pio   P66   
Pip   P67   
Pir   P68   
Pis   P69   
Pit   P70   
Pl   P71   
Plat   P72   
Play   P73   
Ple   P74   
Pli   P75   
Plo   P76   
Plu   P77   
Po   P78   
Pok   P79   
Pol   P80   
Pom   P81   
Pon   P82   
Poo   P83   
Pop   P84   
Por   P85   
Pos   P86   
Pot   P87   
Pou   P88   
Pow   P89   
Pr   P90   
Pre   P91   
Pri   P92   
Pro   P93   
Pru   P94   
Prz   P95   
Ps   P96   
Pu   P97   
Put   P98   
Py   P99   
Q   Q10   
Qi   Q11   
Qua   Q12   
Quad   Q13   
Quadr   Q14   
Quadru   Q15   
Quai   Q16   
Quak   Q17   
Qual   Q18   
Quali   Q19   
Qualt   Q20   
Quam   Q21   
Quan   Q22   
Quant   Q23   
Quar   Q24   
Quaro   Q25   
Quarr   Q26   
Quart   Q27   
Quarti   Q28   
Quarto   Q29   
Quartz   Q30   
Quas   Q31   
Quat   Q32   
Quatr   Q33   
Quatu   Q34   
Quax   Q35   
Quay   Q36   
Que   Q37   
Quec   Q38   
Quee   Q39   
Quel   Q40   
Quell   Q41   
Quelt   Q42   
Quem   Q43   
Quen   Q44   
Quer   Q45   
Queri   Q46   
Querl   Q47   
Ques   Q48   
Quest   Q49   
Questi   Q50   
Quet   Q51   
Queu   Q52   
Quev   Q53   
Qui   Q54   
Quic   Q55   
Quid   Q56   
Quie   Q57   
Quig   Q58   
Quil   Q59   
Quim   Q60   
Quin   Q61   
Quinn   Q62   
Quinq   Q63   
Quint   Q64   
Quinte   Q65   
Quinti   Q66   
Quinto   Q67   
Quintz   Q68   
Quinz   Q69   
Quio   Q70   
Quip   Q71   
Quiq   Q72   
Quir   Q73   
Quiri   Q74   
Quiro   Q75   
Quirq   Q76   
Quiru   Q77   
Quis   Q78   
Quisq   Q79   
Quist   Q80   
Quit   Q81   
Quite   Q82   
Quito   Q83   
Quitt   Q84   
Quitz   Q85   
Quiv   Q86   
Quiw   Q87   
Quiz   Q88   
Quoi   Q89   
Quol   Q90   
Quor   Q91   
Quoru   Q92   
Quos   Q93   
Quot   Q94   
Quotq   Q95   
Qus   Q96   
Quu   Q97   
Qv   Q98   
Qvi   Q99   
R   R10   
Ra   R11   
Rac   R12   
Rad   R13   
Rae   R14   
Raf   R15   
Rah   R16   
Rai   R17   
Ral   R18   
Ram   R19   
Ran   R20   
Rao   R21   
Rap   R22   
Raq   R23   
Ras   R24   
Rat   R25   
Rau   R26   
Rav   R27   
Raw   R28   
Ray   R29   
Re   R30   
Rec   R31   
Red   R32   
Ree   R33   
Ref   R34   
Reg   R35   
Reh   R36   
Rei   R37   
Reim   R38   
Reis   R39   
Reit   R40   
Rel   R41   
Rem   R42   
Ren   R43   
Rep   R44   
Res   R45   
Ret   R46   
Reu   R47   
Rev   R48   
Rey   R49   
Rez   R50   
Rh   R51   
Ri   R52   
Rich   R53   
Rid   R54   
Rie   R55   
Rig   R56   
Ril   R57   
Rim   R58   
Rin   R59   
Rio   R60   
Rip   R61   
Ris   R62   
Rit   R63   
Riv   R64   
Riz   R65   
Ro   R66   
Robi   R67   
Roc   R68   
Rod   R69   
Roe   R70   
Rog   R71   
Roh   R72   
Roi   R73   
Rol   R74   
Rom   R75   
Ron   R76   
Roo   R77   
Rop   R78   
Ros   R79   
Ross   R80   
Rost   R81   
Rot   R82   
Rou   R83   
Rov   R84   
Row   R85   
Rox   R86   
Roy   R87   
Ru   R88   
Rue   R89   
Ruh   R90   
Rul   R91   
Rum   R92   
Run   R93   
Rup   R94   
Rus   R95   
Rut   R96   
Ruz   R97   
Ry   R98   
Rz   R99   
S   S10   
Sa   S11   
Sad   S12   
Sae   S13   
Saf   S14   
Sag   S15   
Sai   S16   
Sal   S17   
Salv   S18   
Sam   S19   
San   S20   
Sap   S21   
Sar   S22   
Sas   S23   
Sat   S24   
Sau   S25   
Sav   S26   
Saw   S27   
Say   S28   
Sb   S29   
Sc   S30   
Sch   S31   
Schi   S32   
Schl   S33   
Schm   S34   
Schn   S35   
Scho   S36   
Schr   S37   
Schu   S38   
Schw   S39   
Sci   S40   
Sco   S41   
Scu   S42   
Se   S43   
Sei   S44   
Sel   S45   
Sem   S46   
Sen   S47   
Sep   S48   
Ser   S49   
Set   S50   
Sev   S51   
Sey   S52   
Sh   S53   
Shi   S54   
Sho   S55   
Shr   S56   
Si   S57   
Sie   S58   
Sig   S59   
Sil   S60   
Sim   S61   
Sin   S62   
Sio   S63   
Sir   S64   
Sit   S65   
Sk   S66   
Sl   S67   
Sm   S68   
Sn   S69   
So   S70   
Som   S71   
Son   S72   
Sor   S73   
Sot   S74   
Sou   S75   
Sov   S76   
Soz   S77   
Sp   S78   
Spr   S79   
Sq   S80   
ST   S81   
Ste   S82   
Step   S83   
Stev   S84   
Sti   S85   
Sto   S86   
Stor   S87   
Str   S88   
Stro   S89   
Stu   S90   
Su   S91   
Sun   S92   
Sup   S93   
Sur   S94   
Sut   S95   
Sv   S96   
Sw   S97   
Sy   S98   
Sz   S99   
T   T10   
Ta   T11   
Tad   T12   
Taf   T13   
Tag   T14   
Tai   T15   
Tak   T16   
Tal   T17   
Tam   T18   
Tan   T19   
Tap   T20   
Tar   T21   
Tas   T22   
Tat   T23   
Tau   T24   
Tav   T25   
Tax   T26   
Tay   T27   
Tb   T28   
Te   T29   
Tec   T30   
Teg   T31   
Tei   T32   
Tel   T33   
Tem   T34   
Ten   T35   
Teo   T36   
Ter   T37   
Tes   T38   
Tet   T39   
Teu   T40   
Tew   T41   
Tex   T42   
Th   T43   
The   T44   
Thi   T45   
Tho   T46   
Thoms   T47   
Thor   T48   
Thr   T49   
Thu   T50   
Thy   T51   
Ti   T52   
Tid   T53   
Tie   T54   
Tig   T55   
Tik   T56   
Til   T57   
Tim   T58   
Tin   T59   
Tio   T60   
Tip   T61   
Tir   T62   
Tis   T63   
Tit   T64   
Tiv   T65   
Tk   T66   
To   T67   
Tog   T68   
Toi   T69   
Tok   T70   
Tol   T71   
Tom   T72   
Ton   T73   
Too   T74   
Top   T75   
Tor   T76   
Tos   T77   
Tot   T78   
Tou   T79   
Tow   T80   
Toy   T81   
Tr   T82   
Trau   T83   
Tre   T84   
Trev   T85   
Tri   T86   
tro   T87   
Tru   T88   
Ts   T89   
Tu   T90   
Tul   T91   
Tum   T92   
Tun   T93   
Tup   T94   
Tur   T95   
Tus   T96   
Tut   T97   
Tw   T98   
Ty   T99   
U   U10   
Ua   U11   
Ub   U12   
Ubi   U13   
Ubr   U14   
Uc   U15   
Uch   U16   
Ud   U17   
Udi   U18   
Udo   U19   
Udr   U20   
Ue   U21   
Uf   U22   
Uff   U23   
Ug   U24   
Ugr   U25   
Uh   U26   
Uhl   U27   
Uhr   U28   
Ui   U29   
Uk   U30   
Ukr   U31   
Uks   U32   
Ul   U33   
Ule   U34   
Ulf   U35   
Uli   U36   
Ulk   U37   
Ull   U38   
Ulm   U39   
Ulp   U40   
Ulr   U41   
Uls   U42   
Ult   U43   
Um   U44   
Umb   U45   
Umf   U46   
Umg   U47   
Uml   U48   
Ums   U49   
Un   U50   
Und   U51   
Une   U52   
Unf   U53   
Ung   U54   
Uni   U55   
Unit   U56   
Univ   U57   
Unk   U58   
Unn   U59   
Uno   U60   
Uns   U61   
Unt   U62   
Unv   U63   
Unw   U64   
Unz   U65   
Uo   U66   
Up   U67   
Upi   U68   
Upo   U69   
Upp   U70   
Ups   U71   
Upt   U72   
Ur   U73   
Urc   U74   
Ure   U75   
Uri   U76   
Urk   U77   
Url   U78   
Urm   U79   
Urn   U80   
Uro   U81   
Urq   U82   
Urr   U83   
Urs   U84   
Uru   U85   
Urv   U86   
Urz   U87   
Us   U88   
Usl   U89   
Uss   U90   
Ust   U91   
Ut   U92   
Utl   U93   
Utr   U94   
Utt   U95   
Uv   U96   
Uw   U97   
Ux   U98   
Uz   U99   
V   V10   
Va   V11   
Vag   V12   
Vah   V13   
Vai   V14   
Vak   V15   
Val   V16   
Vald   V17   
Vale   V18   
Vali   V19   
Valk   V20   
Vall   V21   
Valo   V22   
Vals   V23   
Valt   V24   
Vam   V25   
Van   V26   
Vano   V27   
Vans   V28   
Var   V29   
Vas   V30   
Vat   V31   
Vau   V32   
Vav   V33   
Ve   V34   
Vei   V35   
Vel   V36   
Vem   V37   
Ven   V38   
Vent   V39   
Venu   V40   
Ver   V41   
Verh   V42   
Verk   V43   
Verl   V44   
Verm   V45   
Vern   V46   
Vero   V47   
Verp   V48   
Verr   V49   
Vers   V50   
Vert   V51   
Verz   V52   
Ves   V53   
Vet   V54   
Veu   V55   
Vev   V56   
Vey   V57   
Vi   V58   
Vic   V59   
Vid   V60   
Vie   V61   
Vig   V62   
Vij   V63   
Vik   V64   
Vil   V65   
Vilm   V66   
Vils   V67   
Vim   V68   
Vin   V69   
Vino   V70   
Vint   V71   
Vio   V72   
Vip   V73   
Vir   V74   
Vis   V75   
Vit   V76   
Vitz   V77   
Viu   V78   
Viv   V79   
Vix   V80   
Viz   V81   
Vl   V82   
Vo   V83   
Vof   V84   
Vol   V85   
Volk   V86   
Voll   V87   
Volt   V88   
Vom   V89   
Von   V90   
Vop   V91   
Vor   V92   
Vos   V93   
Vou   V94   
Voz   V95   
Vr   V96   
Vs   V97   
Vu   V98   
Vy   V99   
W   W10   
Wa   W11   
Wae   W12   
Waf   W13   
Wag   W14   
Wah   W15   
Wai   W16   
Wak   W17   
Wal   W18   
Walk   W19   
Wall   W20   
Walt   W21   
Walz   W22   
Wam   W23   
Wan   W24   
Wap   W25   
War   W26   
Warr   W27   
Wars   W28   
Was   W29   
Wass   W30   
Wat   W31   
Wats   W32   
Watt   W33   
Wau   W34   
Wav   W35   
Way   W36   
We   W37   
Wec   W38   
Wee   W39   
Weg   W40   
Weh   W41   
Wei   W42   
Weig   W43   
Weil   W44   
Weim   W45   
Wein   W46   
Weis   W47   
Weit   W48   
Wel   W49   
Well   W50   
Wels   W51   
Welt   W52   
Wem   W53   
Wen   W54   
wer   W55   
Wern   W56   
Wert   W57   
Wes   W58   
West   W59   
Wet   W60   
Wev   W61   
Wh   W62   
Whi   W63   
Who   W64   
Wi   W65   
Wie   W66   
Wies   W67   
Wil   W68   
Will   W69   
Wils   W70   
Wim   W71   
Win   W72   
Wins   W73   
Wint   W74   
Wip   W75   
Wir   W76   
Wis   W77   
Wit   W78   
Wl   W79   
Wo   W80   
Wol   W81   
Won   W82   
Woo   W83   
Wos   W84   
Wot   W85   
Wou   W86   
Wr   W87   
Wri   W88   
Wro   W89   
Wrz   W90   
Ws   W91   
Wu   W92   
Wur   W93   
Wus   W94   
Wut   W95   
Wy   W96   
Wyl   W97   
Wys   W98   
Wz   W99   
X   X10   
Xa   X11   
Xae   X12   
Xai   X13   
Xal   X14   
Xalt   X15   
Xam   X16   
Xan   X17   
Xano   X18   
Xant   X19   
Xanth   X20   
Xao   X21   
Xap   X22   
Xar   X23   
Xas   X24   
Xat   X25   
Xau   X26   
Xav   X27   
Xavi   X28   
Xavu   X29   
Xaw   X30   
Xax   X31   
Xay   X32   
Xaz   X33   
Xe   X34   
Xei   X35   
Xel   X36   
Xem   X37   
Xen   X38   
Xeni   X39   
Xeno   X40   
Xenom   X41   
Xenon   X42   
Xenop   X43   
Xenoph   X44   
Xent   X45   
Xer   X46   
Xere   X47   
Xeri   X48   
Xerl   X49   
Xerm   X50   
Xern   X51   
Xero   X52   
Xerp   X53   
Xerr   X54   
Xert   X55   
Xeru   X56   
Xerx   X57   
Xi   X58   
Xif   X59   
Xil   X60   
Xim   X61   
Xin   X62   
Xio   X63   
Xip   X64   
Xir   X65   
Xis   X66   
Xit   X67   
Xiu   X68   
Xiv   X69   
Xo   X70   
Xod   X71   
Xoe   X72   
Xoi   X73   
Xol   X74   
Xom   X75   
Xon   X76   
Xop   X77   
Xor   X78   
Xos   X79   
Xot   X80   
Xou   X82   
Xov   X81   
Xu   X83   
Xul   X84   
Xum   X85   
Xun   X86   
Xup   X87   
Xur   X88   
Xus   X89   
Xut   X90   
Xuv   X91   
Xy   X92   
Xyl   X93   
Xym   X94   
Xyn   X95   
Xyp   X96   
Xyr   X97   
Xys   X98   
Xyt   X99   
Y   Y10   
Ya   Y11   
Yac   Y12   
Yah   Y13   
Yak   Y14   
Yal   Y15   
Yale   Y16   
Yam   Y17   
Yan   Y18   
Yani   Y19   
Yank   Y20   
Yann   Y21   
Yano   Y22   
Yant   Y23   
Yao   Y24   
Yap   Y25   
Yar   Y26   
Yard   Y27   
Yarm   Y28   
Yaro   Y29   
Yarr   Y30   
Yas   Y31   
Yat   Y32   
Yatm   Y33   
Yb   Y34   
Yc   Y35   
Yea   Y36   
Year   Y37   
Yeat   Y38   
Yeg   Y39   
Yel   Y40   
Yem   Y41   
Yen   Y42   
Yeo   Y43   
Yep   Y44   
Yer   Y45   
Yes   Y46   
Yet   Y47   
Yew   Y48   
Yh   Y49   
Yi   Y50   
Yk   Y51   
Yl   Y52   
Ym   Y53   
Yn   Y54   
Yo   Y55   
Yok   Y56   
Yol   Y57   
Yom   Y58   
Yon   Y59   
Yong   Y60   
Yonn   Y61   
Yop   Y62   
Yor   Y63   
York   Y64   
Yorks   Y65   
Yos   Y66   
Yost   Y67   
Yot   Y68   
You   Y69   
Young   Y70   
Youngm   Y71   
Youngs   Y72   
Your   Y73   
Yous   Y74   
Yout   Y75   
Youv   Y76   
Youx   Y77   
Yov   Y78   
Yox   Y79   
Yoz   Y80   
Yp   Y81   
Ypr   Y82   
Yps   Y83   
Yr   Y84   
Yri   Y85   
Yrk   Y86   
Ys   Y87   
Yss   Y88   
Yst   Y89   
Yt   Y90   
Yu   Y91   
Yul   Y92   
Yum   Y93   
Yun   Y94   
Yur   Y95   
Yus   Y96   
Yv   Y97   
Yvo   Y98   
Yvr   Y99   
Z   Z10   
Za   Z11   
Zac   Z12   
Zach   Z13   
Zacu   Z14   
Zae   Z15   
Zag   Z16   
Zah   Z17   
Zai   Z18   
Zak   Z19   
Zal   Z20   
Zam   Z21   
Zamp   Z22   
Zan   Z23   
Zang   Z24   
Zani   Z25   
Zank   Z26   
Zann   Z27   
Zano   Z28   
Zanz   Z29   
Zap   Z30   
Zapp   Z31   
Zar   Z32   
Zaro   Z33   
Zarr   Z34   
Zart   Z35   
Zas   Z36   
Zat   Z37   
Zau   Z38   
Zav   Z39   
Zb   Z40   
Zd   Z41   
Ze   Z42   
Zec   Z43   
Zed   Z44   
Zeg   Z45   
Zeh   Z46   
Zei   Z47   
Zeil   Z48   
Zeis   Z49   
Zeit   Z50   
Zel   Z51   
Zelt   Z52   
Zem   Z53   
Zen   Z54   
Zeo   Z55   
Zep   Z56   
Zer   Z57   
Zes   Z58   
Zet   Z59   
Zeu   Z60   
Zev   Z61   
Zey   Z62   
Zi   Z63   
Zie   Z64   
Zif   Z65   
Zik   Z66   
Zil   Z67   
Zim   Z68   
Zin   Z69   
Zinn   Z70   
Zio   Z71   
Zip   Z72   
Zir   Z73   
Zis   Z74   
Zit   Z75   
Ziv   Z76   
Ziz   Z77   
Zl   Z78   
Zm   Z79   
Zn   Z80   
Zo   Z81   
Zol   Z82   
Zon   Z83   
Zoo   Z84   
Zop   Z85   
Zor   Z86   
Zou   Z87   
Zs   Z88   
Zt   Z89   
Zu   Z90   
Zug   Z91   
Zum   Z92   
Zun   Z93   
Zur   Z94   
Zuw   Z95   
Zv   Z96   
Zw   Z97   
Zwe   Z98   
Zy   Z99   
